<?xml version="1.0" encoding="utf-8"?>
<!-- Generator: Adobe Illustrator 19.1.0, SVG Export Plug-In . SVG Version: 6.00 Build 0)  -->
<svg version="1.1" id="Layer_1" xmlns="http://www.w3.org/2000/svg" xmlns:xlink="http://www.w3.org/1999/xlink" x="0px" y="0px"
	 viewBox="3 -4.3 233.9 234.1" style="enable-background:new 3 -4.3 233.9 234.1;" xml:space="preserve">
<style type="text/css">
	.st0{fill:#010101;}
	.st1{fill:#FFFFFF;}
	.st2{font-family:'Roboto-Thin';}
	.st3{font-size:3.195px;}
	.st4{font-family:'Roboto-Medium';}
	.st5{font-size:4.68px;}
	.st6{font-family:'Roboto-Regular';}
	.st7{display:none;fill:#010101;}
	.st8{display:none;fill:#FFFFFF;stroke:#010101;stroke-miterlimit:10;}
	.st9{opacity:0.2;fill:#010101;enable-background:new    ;}
	.st10{fill:#666666;}
	.st11{fill:none;stroke:#666666;stroke-miterlimit:10;}
	.st12{fill:none;stroke:#666666;stroke-width:0.5;stroke-miterlimit:10;}
	.st13{display:none;}
	.st14{display:inline;fill:none;stroke:#2075BC;stroke-miterlimit:10;}
	.st15{display:inline;fill:none;stroke:#2075BC;stroke-width:0.75;stroke-miterlimit:10;}
	.st16{fill:none;stroke:#666666;stroke-width:0.75;stroke-miterlimit:10;}
	.st17{display:inline;fill:#666666;}
	.st18{display:none;fill:none;stroke:#FF6C00;stroke-miterlimit:10;}
	.st19{display:none;fill:none;stroke:#FF6C00;stroke-width:0.75;stroke-miterlimit:10;}
	.st20{fill:none;stroke:#666666;stroke-width:1.5;stroke-miterlimit:10;}
	.st21{display:inline;fill:#2075BC;}
	.st22{display:inline;}
	.st23{fill:#2075BC;}
	.st24{display:inline;fill:none;stroke:#2075BC;stroke-width:0.25;stroke-miterlimit:10;}
	.st25{fill:none;stroke:#2075BC;stroke-miterlimit:10;}
	.st26{display:none;fill:#2075BC;}
	.st27{fill:none;stroke:#000000;stroke-width:0.5;stroke-miterlimit:10;}
	.st28{fill:none;stroke:#000000;stroke-linecap:round;stroke-linejoin:round;stroke-miterlimit:10;}
	.st29{display:inline;fill:none;stroke:#000000;stroke-linecap:round;stroke-linejoin:round;stroke-miterlimit:10;}
	.st30{display:none;fill:none;stroke:#010101;stroke-linecap:round;stroke-linejoin:round;stroke-miterlimit:10;}
	.st31{fill:none;stroke:#000000;stroke-width:2;stroke-linecap:round;stroke-linejoin:round;stroke-miterlimit:10;}
	.st32{display:inline;fill:#FFFFFF;}
	.st33{display:inline;opacity:0.12;enable-background:new    ;}
	.st34{fill:#5E5E5E;}
	.st35{display:none;fill:#FFFFFF;}
	.st36{display:none;fill:none;stroke:#000000;stroke-miterlimit:10;}
	.st37{fill:#FF4400;}
	.st38{fill:#00629C;}
	.st39{display:none;fill:#FF9100;stroke:#010101;stroke-miterlimit:10;}
	.st40{opacity:0.4;}
	.st41{fill:none;stroke:#000000;stroke-miterlimit:10;}
	.st42{fill:none;stroke:#000000;stroke-width:1.5;stroke-miterlimit:10;}
	.st43{fill:#FF6C00;}
	.st44{fill:#C4C4C4;}
	.st45{fill:#2075BB;}
	.st46{display:inline;fill:none;stroke:#2075BB;stroke-miterlimit:10;}
	.st47{fill:none;stroke:#2075BC;stroke-miterlimit:10;stroke-dasharray:2.3902,2.3902;}
	.st48{display:inline;fill:none;stroke:#2075BC;stroke-width:0.5;stroke-miterlimit:10;}
	.st49{fill:none;stroke:#2075BC;stroke-width:0.5;stroke-miterlimit:10;stroke-dasharray:1;}
	.st50{display:inline;fill:none;stroke:#FF6C00;stroke-width:0.5;stroke-miterlimit:10;stroke-dasharray:1;}
	.st51{display:inline;opacity:0.25;fill:#FF6C00;}
	.st52{display:inline;fill:none;stroke:#FF6C00;stroke-miterlimit:10;}
	.st53{display:inline;fill:none;stroke:#FF6C00;stroke-width:0.5;stroke-miterlimit:10;}
	.st54{fill:none;stroke:#666666;stroke-width:2;stroke-miterlimit:10;}
	.st55{fill:none;stroke:#666666;stroke-width:0.5;stroke-linejoin:round;stroke-miterlimit:10;}
	.st56{fill:none;stroke:#666666;stroke-width:0.25;stroke-miterlimit:10;}
	.st57{fill:none;stroke:#666666;stroke-width:3;stroke-miterlimit:10;}
</style>
<g>
	<rect x="2.9" y="221.1" class="st0" width="234" height="8.7"/>
	<text transform="matrix(1 0 0 1 13.5234 226.7277)" class="st1 st2 st3">Copyright © 2001-2016  </text>
	<text transform="matrix(1 0 0 1 47.4795 226.7277)" class="st1 st4 st5">indonetwork.co.id</text>
	<text transform="matrix(1 0 0 1 85.0234 226.7277)" class="st1 st2 st3">.     All rights reserved.</text>
	<text transform="matrix(1 0 0 1 189.3568 226.7277)" class="st1 st2 st3">illustrated by </text>
	<text transform="matrix(1 0 0 1 207.5568 226.7277)" class="st1 st6 st3">Nipuna Dhiraprana</text>
</g>
<g>
	<g>
		<rect x="9.2" y="0.7" transform="matrix(0.7071 -0.7071 0.7071 0.7071 2.0444 10.6481)" class="st0" width="9.4" height="4.4"/>
		<rect x="17.2" y="-3.9" transform="matrix(0.7071 -0.7071 0.7071 0.7071 6.6299 12.5261)" class="st0" width="2.5" height="4.4"/>
		<polygon class="st0" points="11.8,8.1 8.7,5 8.7,8.1 		"/>
	</g>
	<path class="st0" d="M19.2,1.5V11c0,1-0.8,1.8-1.8,1.8H5.6c-1,0-1.8-0.8-1.8-1.8V-0.9c0-1,0.8-1.8,1.8-1.8h9.6l0.9-0.9H5.6
		C4.2-3.5,2.9-2.3,2.9-0.9V11c0,1.5,1.2,2.7,2.6,2.7h11.9c1.5,0,2.6-1.2,2.6-2.6V0.6L19.2,1.5z"/>
</g>
<g>
	<rect x="30.2" y="-2.5" class="st0" width="17.9" height="2.9"/>
	<rect x="30.2" y="3.3" class="st0" width="17.9" height="2.9"/>
	<rect x="30.2" y="9.1" class="st0" width="17.9" height="2.9"/>
</g>
<g>
	<rect x="62.2" y="-2.5" class="st0" width="12.9" height="2.9"/>
	<rect x="62.2" y="3.3" class="st0" width="12.9" height="2.9"/>
	<rect x="62.2" y="9.1" class="st0" width="12.9" height="2.9"/>
	<rect x="57.1" y="-2.5" class="st0" width="3" height="2.9"/>
	<rect x="57.1" y="3.3" class="st0" width="3" height="2.9"/>
	<rect x="57.1" y="9.1" class="st0" width="3" height="2.9"/>
</g>
<g>
	<path class="st7" d="M93.1,3.1l2.1,10l2-3.1l2.2,3.5c0,0,0.3,0.2,0.6,0c0.3-0.3,0.2-0.5,0.2-0.5l-2.3-3.8l3.1-0.3L93.1,3.1z"/>
	<path class="st0" d="M94.2,12.6c-0.4,0.1-0.8,0.1-1.3,0.1c-2.8,0-5.3-1.4-6.7-3.6l1.2,2.1l1.8-0.8l-2.7-3.7l1.2-1.2l1.4,2.4l2,0.1
		l-2.6-3.2L88,2.1l1.8,0.7l-0.2-5.4c1-0.4,2-0.7,3.2-0.7c0.3,0,0.6,0,1,0.1l-0.3,2.9l1.3-0.1l0.7,1l-0.9,1.5L95,3.4l1.1-0.8V0.8
		l0.8,0.6c0,0,0,1.4,0,1.5s1,1,1,1l1.2,0.2V3.2l0.7,1.1L99.2,6l1.6-1c0,1-0.2,1.9-0.6,2.7l0.8,0.6c0.5-1.1,0.7-2.3,0.7-3.5
		c0-4.9-4-8.9-8.9-8.9C88-4.2,84-0.2,84,4.7s4,8.9,8.9,8.9c0.5,0,1-0.1,1.5-0.1L94.2,12.6z"/>
	<path class="st0" d="M92.6,4l2.9,9.8l1.7-3.1l2.2,2.9c0,0,0.4,0.1,0.7-0.1c0.3-0.2,0.2-0.6,0.2-0.6l-2.4-3.2l3.1-0.5L92.6,4z"/>
</g>
<g>
	<path class="st8" d="M119.6-3.2v15.9c0,0-2.9-0.3-5.3-4.7c-1.4-2.5-1.5-8.7-1.5-8.7s2.2,0.4,4-0.4C118.5-1.9,119.6-3.2,119.6-3.2z"
		/>
	<g>
		<path class="st9" d="M120.1-3.2V13c0,0,3.1-0.7,5.6-5c1.5-2.5,1.6-8.5,1.6-8.5s-1.7,0.2-3.7-0.6C121.8-1.8,120.1-3.2,120.1-3.2z"
			/>
		<path class="st0" d="M120.1-4.3l0.9,0.8c0,0,0.9,0.9,2.5,1.6c1.7,0.7,3.8,0.7,3.9,0.7h0.6v0.5c0,0.3-0.1,6.1-1.5,8.7
			c-2.5,4.5-5.4,5.4-5.5,5.4l-0.9,0.3V-4.3z M123.1-1.1c-0.9-0.4-2.5-1.3-3-1.9v15.9c1.3-0.4,4-2.3,5.6-5.2c1.1-1.9,1.3-6.4,1.4-8
			C126.2-0.4,124.2-0.5,123.1-1.1z"/>
	</g>
	<g>
		<path class="st0" d="M120.1,13.7l-0.9-0.3c-0.1,0-3-0.9-5.5-5.4c-1.4-2.6-1.5-8.4-1.5-8.7v-0.5h0.6c0.1,0,2.2,0,3.9-0.7
			c1.6-0.7,2.5-1.6,2.5-1.6l0.9-0.8V13.7z M113.1-0.4c0.1,1.6,0.3,6.1,1.4,8c1.6,2.9,4.3,4.8,5.6,5.2V-3.1c-0.5,0.6-2.1,1.5-3,1.9
			C115.7-0.5,113.8-0.4,113.1-0.4z"/>
	</g>
</g>
<g>
	<path class="st0" d="M226.5,11.2c-3.9,0-7.1-3.2-7.1-7.1s3.2-7.1,7.1-7.1c3.9,0,7.1,3.2,7.1,7.1S230.4,11.2,226.5,11.2z M226.5-1.2
		c-2.9,0-5.3,2.3-5.3,5.3s2.3,5.3,5.3,5.3s5.3-2.3,5.3-5.3S229.4-1.2,226.5-1.2z"/>
	<path class="st0" d="M234,13.4l-4.2-4.2l1.5-1.5l4.2,4.2c0.4,0.4,0.4,1.1,0,1.5l0,0C235,13.9,234.4,13.9,234,13.4z"/>
</g>
<path class="st10" d="M15.6,34.2c1.4-0.4,2.2-1.7,2.2-3.4v-2.4l-2.6,0.9c1-0.5,1.6-1.8,1.6-3.2v-2.5l-3.5,1.6
	c-0.6,0.2-1,0.6-1.4,1.2c-0.3-0.6-0.8-1-1.3-1.2l-3.4-1.6l0,2.4c-0.1,1.6,0.7,2.9,1.7,3.4l-2.9-1l0,2.4c-0.1,1.4,0.7,2.7,2,3.3
	l-3-0.9l0,2.4c0.1,1.7,1.2,3,2.7,3.3l4.3,1.3l4.3-1.3c1.5-0.3,2.5-1.7,2.7-3.4v-2.4L15.6,34.2z M12,35.5l0.5,0.2
	c0,0-0.2,0.1-0.4,0.6c-0.1-0.2-0.3-0.4-0.5-0.6L12,35.5z M16.9,30.9c0,0.6-0.2,2-1.5,2.4l-2.9,1v-1c0-1.1,0.6-2.1,1.6-2.4l2.8-1
	V30.9z M11.6,31l0.4-0.2l0.3,0.1c-0.1,0.2-0.2,0.3-0.3,0.5C11.9,31.3,11.8,31.1,11.6,31z M13.8,26.1l2.1-0.9v1
	c0,1.2-0.6,2.2-1.2,2.5l-2.2,0.9v-0.9c0-0.2,0-0.7,0-0.7C12.7,27,13.1,26.4,13.8,26.1z M8.2,26.2v-1l2,1c0.6,0.2,1.1,0.9,1.2,1.8
	c0,0,0,0.4,0,0.7v0.9l-2.2-0.9l0,0C8.7,28.3,8.2,27.4,8.2,26.2z M7,30.9v-1l2.8,1c0.9,0.3,1.6,1.3,1.6,2.4v1l-2.8-1l0,0
	C7.6,33,7,32,7,30.9z M11.5,39.1L8,38l0,0c-1.3-0.3-1.8-1.5-1.9-2.4v-1.1l3.5,1.1c1.2,0.3,1.9,1.3,1.9,2.4V39.1z M16,38l-3.5,1.1V38
	c0-1.2,0.8-2.1,2-2.4l3.4-1.1l0,1C17.9,36.8,17.1,37.8,16,38z"/>
<g>
	<path class="st11" d="M140.9,39.3h12.3c0.5,0,0.9-0.6,0.6-1.1l-5.2-8.7v-4.2h1.2V25h-5.6v0.3h1.2v4.2l-5.2,8.7
		C139.9,38.7,140.4,39.3,140.9,39.3z"/>
	<path class="st12" d="M143.9,32.3c0,0,2.1-0.4,3.5,1.2c1.4,1.6,3.8,0,3.8,0"/>
</g>
<g class="st13">
	<circle class="st14" cx="62.2" cy="25.3" r="1.6"/>
	<circle class="st14" cx="67.2" cy="34.5" r="1.6"/>
	<polyline class="st15" points="63.8,26.4 65,27.5 65,29.5 67.2,31.7 67.2,33 	"/>
	<circle class="st14" cx="60.7" cy="30.1" r="1.6"/>
	<circle class="st14" cx="63.9" cy="38.5" r="1.6"/>
	<polyline class="st15" points="63.9,36.7 63.9,35.8 60.7,33.1 60.7,31.7 	"/>
	<circle class="st14" cx="68.2" cy="25.1" r="1.6"/>
	<circle class="st14" cx="71.8" cy="37.4" r="1.6"/>
	<polyline class="st15" points="68.2,26.6 68.2,28.5 71.8,31.8 71.8,34.4 71.8,36.2 	"/>
</g>
<g>
	<path class="st11" d="M94.8,37.4H91c-2.9,0-4.2-3.4-4.2-6.3v-0.3h12.1v0.3C98.6,34,97.6,37.4,94.8,37.4z"/>
	<path class="st16" d="M94.5,24.8c0,0-0.7,0.6,0.9,2s0,2.8,0,2.8"/>
	<path class="st16" d="M92.4,23.7c0,0-1.1,1.8,0.5,3.2c1.6,1.4,0,2.8,0,2.8"/>
	<path class="st16" d="M90.1,22.8c0,0-1.3,2.7,0.3,4.1c1.6,1.4,0,2.8,0,2.8"/>
	<path class="st11" d="M99.2,31.3h0.5c0,0,1,0,1.3,0.9c0.2,0.9,0,0.8-0.1,1.2c-0.2,0.4-0.5,1.7-1.7,1.8c-1.2,0.1-1.5,0-1.5,0"/>
</g>
<g class="st13">
	<path class="st15" d="M127.5,31.9H113c-0.4,0-0.6-0.4-0.5-0.7l2.5-7.1c0.1-0.4,0.5-0.6,0.9-0.6h8.7c0.4,0,0.8,0.3,0.9,0.6l2.5,7.1
		C128.1,31.5,127.8,31.9,127.5,31.9z"/>
	<path class="st14" d="M121.2,32.6v-0.4H119v0.6c0,0.7-0.6,1.8-1.3,1.8l0,0c-1.4,0-2.6,1.1-2.6,2.6l0,0c0,1.9,1.6,3,3.5,2.8h3.1
		c1.9,0.2,3.5-0.9,3.5-2.8l0,0c0-1.4-1.1-2.6-2.6-2.6l0,0C121.8,34.6,121.2,33.4,121.2,32.6z"/>
</g>
<g class="st13">
	<path class="st17" d="M154.8,26.7l-7.7-2.3l-7.7,2.4v10.1l7.7,2.8l7.7-2.8V26.7z M146.9,25.1l6.5,2l-6.5,2.3l-6.5-2.3L146.9,25.1z
		 M140.4,36.2v-8.3l6.3,2.3v8.4L140.4,36.2z M153.8,36.2l-6.3,2.3v-8.4l5.5-2l0.8-0.3V36.2z"/>
	<polygon class="st17" points="144.2,33.8 142.8,33.2 142.8,28.1 150.2,25.4 151.9,26.1 144.2,29 	"/>
	<polygon class="st17" points="150.2,33.8 151.8,33.2 151.8,28.1 144.2,25.6 142.2,26.2 150.2,29 	"/>
</g>
<path class="st11" d="M16.6,43.7h-2.3c0,0.7-1,1.3-2.2,1.3s-2.2-0.6-2.2-1.3H7.6l-3.7,3.7l2.4,2.4l1.1-1.2l0,8.1h9.2l0-8l1.2,1.2
	l2.4-2.4L16.6,43.7z"/>
<g>
	<path class="st18" d="M45.6,50.9H32.9c-0.4,0-0.7-0.3-0.7-0.7v-7c0-0.4,0.3-0.7,0.7-0.7h12.7c0.4,0,0.7,0.3,0.7,0.7v7
		C46.2,50.6,45.9,50.9,45.6,50.9z"/>
	<path class="st11" d="M46.2,56.4H32.2c-0.4,0-0.7-0.3-0.7-0.7v-2.2c0-0.4,0.3-0.7,0.7-0.7h13.9c0.4,0,0.7,0.3,0.7,0.7v2.2
		C46.8,56.1,46.6,56.4,46.2,56.4z"/>
	<polygon class="st19" points="48.2,57.4 29.4,57.4 31.5,51.9 46.2,51.9 	"/>
	<line class="st11" x1="41.1" y1="54.4" x2="45.1" y2="54.4"/>
	<line class="st11" x1="33.8" y1="54.4" x2="34.2" y2="54.4"/>
	<line class="st11" x1="34.8" y1="54.4" x2="35.1" y2="54.4"/>
	<line class="st11" x1="35.7" y1="54.4" x2="35.9" y2="54.4"/>
	<path class="st20" d="M44.8,50.9H33.3c-0.4,0-0.7-0.3-0.7-0.7v-7c0-0.4,0.3-0.7,0.7-0.7h11.4c0.4,0,0.7,0.3,0.7,0.7v7
		C45.7,50.6,45.2,50.9,44.8,50.9z"/>
</g>
<g class="st13">
	<ellipse class="st14" cx="66.2" cy="49.7" rx="2" ry="7.7"/>
	<ellipse class="st14" cx="66.2" cy="49.7" rx="2" ry="7.7"/>
	<ellipse transform="matrix(0.5 -0.866 0.866 0.5 -9.8874 82.0084)" class="st14" cx="66.1" cy="49.6" rx="2" ry="7.7"/>
	<ellipse transform="matrix(-0.5 -0.866 0.866 -0.5 56.2032 131.7452)" class="st14" cx="66.1" cy="49.6" rx="2" ry="7.7"/>
</g>
<g>
	<path class="st10" d="M94.9,42.3H91c-2.4,0-3.5,1.8-3.8,3.2l-0.5,2.1l0.7,0.1l0.4-2.1c0.4-1.6,1.8-2.9,3-2.9H95
		c1.2,0,2.6,1,3.1,2.8l0.5,2.1l0.6-0.1l-0.6-1.9C98.2,43.5,96.9,42.3,94.9,42.3z"/>
	<path class="st16" d="M99.1,47.6c-0.8,0-1.8,0.5-1.8,1.7v2c-0.5-0.1-1.1-0.2-1.5-0.3c-1.4-0.2-2.7-0.2-2.7-0.2s-1.4-0.1-2.7,0.2
		c-0.4,0.1-1,0.2-1.5,0.3v-2c0-1.1-1-1.7-1.8-1.7c-1.1,0-2,0.9-2,2c0,0.9,0.6,1.6,1.4,1.9l1.1,2.9c0.2,0.6,0.8,0.9,1.4,0.9h4.1h4.1
		c0.6,0,1.2-0.4,1.4-0.9l1.1-2.9c0.8-0.3,1.4-1,1.4-1.9C101.1,48.5,100.1,47.6,99.1,47.6z"/>
	<g>
		<path class="st10" d="M88.1,57.3L88.1,57.3c-0.3-0.1-0.4-0.5-0.3-0.8l0.7-1.4c0.1-0.3,0.4-0.2,0.6,0l0,0c0.3,0.1,0.5,0.2,0.4,0.5
			L88.8,57C88.7,57.3,88.2,57.4,88.1,57.3z"/>
		<path class="st10" d="M98,57.3L98,57.3c0.3-0.1,0.4-0.5,0.3-0.8l-0.7-1.4c-0.1-0.3-0.4-0.2-0.6,0l0,0c-0.3,0.1-0.5,0.2-0.4,0.5
			l0.7,1.4C97.2,57.3,97.6,57.4,98,57.3z"/>
	</g>
</g>
<g>
	<path class="st10" d="M151.1,43.5c-2.1,0.4-3.5,1.3-4,1.6c-0.5-0.3-2-1.2-4-1.6c-1.5-0.3-2.9-0.2-3.7-0.1c-0.6,0.1-1,0.6-1,1.1v9.2
		c0,0.5,0.4,0.8,0.9,0.8c0.9-0.1,2.4-0.2,3.6,0c1.1,0.3,2.5,0.9,3.3,1.3c0.5,0.3,1.1,0.3,1.6,0c0.8-0.4,2.2-1,3.4-1.3
		c1.2-0.3,2.7-0.1,3.6,0c0.5,0.1,0.9-0.3,0.9-0.8v-9.3c0-0.6-0.5-1.1-1.1-1.1C153.8,43.3,152.5,43.3,151.1,43.5z M138.9,52.5l0-7.9
		c0-0.4,0.3-0.7,0.6-0.7c0.8-0.1,1.9-0.2,3.2,0c2.1,0.4,3.5,1.3,4,1.6v9.1c-0.9-0.3-2.4-1.2-3.8-1.5c-1-0.2-2.6-0.1-3.5,0
		C139.2,53,138.9,52.8,138.9,52.5z M155.2,52.5c0,0.3-0.3,0.6-0.6,0.6c-0.9-0.1-2.2-0.2-3.4,0c-1.5,0.3-2.9,1.2-3.8,1.5v-9
		c0.5-0.3,2.1-1.2,4-1.6c1.4-0.2,2.4-0.1,3.2,0c0.4,0,0.6,0.3,0.6,0.7L155.2,52.5z"/>
	<g>
		<g>
			<path class="st1" d="M147.1,45.4l0.1-0.1c0.1-0.1,0.2-0.2,0.4-0.3c0.7-0.6,2-1.6,3.4-2c0.7-0.1,1.3-0.2,1.9-0.2
				c0.3,0,0.6,0,0.8,0c0.4,0.1,0.7,0.5,0.7,0.9v7.9c0,0.4-0.3,0.8-0.7,0.8l-0.3,0c-0.4,0-0.8-0.1-1.3-0.1c-0.5,0-0.9,0-1.2,0.1
				c-1.3,0.3-2.9,1.8-3.3,2.2l-0.4,0.4V45.4z"/>
			<path class="st10" d="M152.8,43c0.3,0,0.6,0,0.8,0c0.3,0,0.5,0.3,0.5,0.7l0,7.9c0,0.3-0.2,0.6-0.5,0.6c0,0,0,0,0,0
				c-0.4,0-1-0.1-1.6-0.1c-0.4,0-0.8,0-1.3,0.1c-1.3,0.3-2.8,1.6-3.5,2.2v-9c0.5-0.3,2-1.8,3.7-2.2C151.7,43.1,152.3,43,152.8,43
				 M152.8,42.5L152.8,42.5c-0.6,0-1.2,0.1-1.9,0.2c-1.4,0.4-2.8,1.5-3.5,2c-0.2,0.1-0.3,0.2-0.4,0.3l-0.2,0.1v0.3v9v1.2l0.8-0.8
				c0.4-0.4,2-1.8,3.2-2.1c0.3-0.1,0.7-0.1,1.2-0.1c0.4,0,0.9,0,1.3,0.1l0.3,0l0,0l0.1,0c0.5,0,1-0.5,1-1.1l0-7.9
				c0-0.6-0.4-1.1-1-1.2C153.4,42.6,153.1,42.5,152.8,42.5L152.8,42.5z"/>
		</g>
	</g>
	<g>
		<g>
			<path class="st1" d="M146.6,54.7c-0.5-0.4-2-1.9-3.3-2.2c-0.4-0.1-0.8-0.1-1.2-0.1c-0.5,0-0.9,0-1.3,0.1c0,0-0.3,0-0.3,0
				c-0.4,0-0.8-0.4-0.8-0.8v-7.9c0-0.5,0.3-0.9,0.7-0.9c0.2,0,0.5,0,0.8,0c0.6,0,1.2,0.1,1.9,0.2c1.4,0.4,2.7,1.4,3.4,2
				c0.2,0.1,0.3,0.2,0.4,0.3l0.1,0.1v9.8L146.6,54.7z"/>
			<path class="st10" d="M141.3,43c0.5,0,1.1,0.1,1.8,0.2c1.6,0.4,3.2,1.9,3.7,2.2v9c-0.7-0.7-2.2-1.9-3.5-2.2
				c-0.4-0.1-0.9-0.1-1.3-0.1c-0.6,0-1.1,0.1-1.6,0.1c0,0,0,0,0,0c-0.3,0-0.5-0.2-0.5-0.6l0-7.9c0-0.4,0.2-0.7,0.5-0.7
				C140.7,43.1,141,43,141.3,43 M141.3,42.5L141.3,42.5c-0.3,0-0.6,0-0.9,0.1c-0.5,0.1-1,0.6-1,1.2l0,7.9c0,0.6,0.4,1.1,1,1.1h0
				l0.1,0l0.3,0c0.4,0,0.8-0.1,1.3-0.1c0.4,0,0.8,0,1.2,0.1c1.3,0.3,2.8,1.7,3.2,2.1l0.8,0.8v-1.2v-9v-0.3l-0.2-0.1
				c-0.1-0.1-0.2-0.2-0.4-0.3c-0.7-0.6-2.1-1.7-3.5-2C142.5,42.6,141.9,42.5,141.3,42.5L141.3,42.5z"/>
		</g>
	</g>
</g>
<g class="st13">
	<path class="st15" d="M176.8,56.4H171c-0.6,0-1.1-0.5-1.1-1.1v-12c0-0.6,0.5-1.1,1.1-1.1h5.8c0.6,0,1.1,0.5,1.1,1.1v12
		C178,55.9,177.5,56.4,176.8,56.4z"/>
	<circle class="st21" cx="174.1" cy="54.8" r="0.8"/>
	<g>
		<path class="st21" d="M179.1,45.3h0.9c0-1.6-1.3-2.8-2.8-2.8v0.8C178.2,43.3,179.1,44.2,179.1,45.3z"/>
		<path class="st21" d="M180.8,45.1h0.9c0-2.4-1.9-4.3-4.3-4.3v0.9C179.2,41.7,180.8,43.2,180.8,45.1z"/>
	</g>
	<g class="st22">
		<path class="st23" d="M179.1,49.4l0.7,0.6c1.1-1.3,1.1-3.1-0.1-4.3l-0.6,0.7C179.8,47.2,180,48.5,179.1,49.4z"/>
		<path class="st23" d="M180.6,50.5l0.8,0.7c1.7-1.9,1.6-4.9-0.2-6.7l-0.7,0.8C182,46.6,182,48.9,180.6,50.5z"/>
	</g>
	<g class="st22">
		<path class="st23" d="M168.8,49.4l-0.7,0.6c-1.1-1.3-1.1-3.1,0.1-4.3l0.6,0.7C168,47.2,168,48.5,168.8,49.4z"/>
		<path class="st23" d="M167.2,50.5l-0.8,0.7c-1.7-1.9-1.6-4.9,0.2-6.7l0.7,0.8C165.9,46.6,165.8,48.9,167.2,50.5z"/>
	</g>
	<line class="st24" x1="169.9" y1="53.4" x2="177.9" y2="53.4"/>
</g>
<g>
	<g>
		<circle class="st10" cx="8" cy="70.1" r="1.1"/>
		<circle class="st10" cx="16.2" cy="70.1" r="1.1"/>
	</g>
	<g>
		<path class="st11" d="M16.7,73.8H7.3c-1,0-1.8-0.8-1.8-1.8v-8.7c0-1.5,1.2-2.7,2.7-2.7h7.5c1.5,0,2.7,1.2,2.7,2.7V72
			C18.6,73,17.7,73.8,16.7,73.8z"/>
	</g>
	<g>
		<path class="st16" d="M7.2,76H6.4c-0.3,0-0.5-0.2-0.5-0.5v-1.7h1.9v1.7C7.7,75.7,7.4,76,7.2,76z"/>
		<path class="st16" d="M17.5,76h-0.8c-0.3,0-0.5-0.2-0.5-0.5v-1.7h1.9v1.7C18.2,75.7,17.8,76,17.5,76z"/>
	</g>
	<g>
		<g>
			<path class="st10" d="M4.2,67.6H3.7c-0.2,0-0.4-0.2-0.4-0.4v-1.6c0-0.2,0.2-0.4,0.4-0.4h0.5c0.2,0,0.4,0.2,0.4,0.4v1.6
				C4.5,67.5,4.3,67.6,4.2,67.6z"/>
		</g>
		<g>
			<path class="st10" d="M20.1,67.6h-0.5c-0.2,0-0.4-0.2-0.4-0.4v-1.6c0-0.2,0.2-0.4,0.4-0.4h0.5c0.2,0,0.4,0.2,0.4,0.4v1.6
				C20.5,67.5,20.4,67.6,20.1,67.6z"/>
		</g>
	</g>
	<line class="st12" x1="5.5" y1="66.9" x2="18.6" y2="66.9"/>
	<line class="st12" x1="5.5" y1="72.3" x2="18.6" y2="72.3"/>
</g>
<g class="st13">
	<g>
		<path class="st21" d="M44.6,74.5h-11c-0.4,0-0.7-0.3-0.7-0.7v-7.6h12.4v7.5C45.2,74.1,44.9,74.5,44.6,74.5z"/>
		<path class="st21" d="M46.8,67.5H31.3c-0.4,0-0.5-0.5-0.3-0.7l7.2-6.4c0.5-0.4,1.1-0.4,1.6,0l7.2,6.4
			C47.2,67.1,47.2,67.5,46.8,67.5z"/>
	</g>
	<path class="st14" d="M47.1,66.8l-7.2-6.4c-0.5-0.4-1.1-0.4-1.6,0l-7.2,6.4c-0.3,0.2-0.1,0.7,0.3,0.7h1.5v6.2
		c0,0.4,0.3,0.7,0.7,0.7h3.6v-4c0-0.4,0.4-0.8,0.8-0.8h2.1c0.4,0,0.8,0.4,0.8,0.8v4h3.7c0.4,0,0.7-0.3,0.7-0.7v-6.2h1.5
		C47.2,67.5,47.2,67.1,47.1,66.8z"/>
</g>
<g class="st13">
	<path class="st25" d="M180.8,66.3l-0.3-0.5c-0.3-0.4-0.9-0.6-1.3-0.3l-2,1.1c-0.2-0.2-0.5-0.5-0.8-0.6c-0.7,0.5-1.4,0.9-2.4,0.9
		c-0.9,0-1.7-0.3-2.4-0.9c-0.3,0.2-0.7,0.4-0.9,0.7l-2.1-1.2c-0.4-0.3-1.1-0.1-1.3,0.3l-0.4,0.6c-0.3,0.4-0.1,1,0.3,1.2l2.7,1.6v0.4
		c0,0.5,0.1,0.9,0.3,1.3l-2,3.3c-0.4,0.7-0.1,1.5,0.7,1.8l0,0c0.8,0.4,1.6,0.1,2-0.6l1.6-2.8c0.2,0.1,0.5,0.1,0.8,0.1h1.1
		c0.2,0,0.4,0,0.5-0.1l1.6,2.8c0.4,0.7,1.3,0.9,2,0.6l0,0c0.8-0.4,1-1.2,0.7-1.8l-1.8-3.1c0.2-0.4,0.4-0.9,0.4-1.5v-0.5l2.6-1.5
		C180.8,67.3,181.1,66.7,180.8,66.3z"/>
	<path class="st25" d="M177.4,60.3c-0.5,0-1.1,0.3-1.3,0.7c-0.7-0.5-1.4-0.7-2.2-0.7c-0.9,0-1.6,0.3-2.2,0.7
		c-0.2-0.4-0.8-0.7-1.3-0.7c-0.9,0-1.5,0.6-1.5,1.4s0.7,1.4,1.5,1.4l0,0c0,0.2,0,0.3,0,0.5c0,1.8,1.6,3.3,3.6,3.3s3.6-1.5,3.6-3.3
		c0-0.2,0-0.3,0-0.5l0,0c0.9,0,1.5-0.6,1.5-1.4S178.3,60.3,177.4,60.3z"/>
	<path class="st25" d="M180.8,66.3l-0.3-0.5c-0.3-0.4-0.9-0.6-1.3-0.3l-2,1.1c-0.2-0.2-0.5-0.5-0.8-0.6c0.7-0.6,1.2-1.4,1.2-2.4
		c0-0.2,0-0.3,0-0.5l0,0c0.9,0,1.5-0.6,1.5-1.4s-0.7-1.4-1.5-1.4c-0.5,0-1.1,0.3-1.3,0.7c-0.7-0.5-1.4-0.7-2.2-0.7
		c-0.9,0-1.6,0.3-2.2,0.7c-0.2-0.4-0.8-0.7-1.3-0.7c-0.9,0-1.5,0.6-1.5,1.4s0.7,1.4,1.5,1.4l0,0c0,0.2,0,0.3,0,0.5
		c0,0.9,0.4,1.8,1.2,2.4l0,0c-0.3,0.2-0.7,0.4-0.9,0.7l-2.1-1.2c-0.4-0.3-1.1-0.1-1.3,0.3l-0.3,0.6c-0.3,0.4-0.1,1,0.3,1.2l2.7,1.6
		v0.4c0,0.5,0.1,0.9,0.3,1.3l-2,3.3c-0.4,0.7-0.1,1.5,0.7,1.8l0,0c0.8,0.4,1.6,0.1,2-0.6l1.8-2.6c0.2,0.1,0.5,0.1,0.8,0.1h1.1
		c0.2,0,0.4,0,0.5-0.1l1.7,2.5c0.4,0.7,1.3,0.9,2,0.6l0,0c0.8-0.4,1-1.2,0.7-1.8l-1.9-3.1c0.2-0.4,0.4-0.9,0.4-1.5V69l2.5-1.5
		C180.9,67.5,181.2,67,180.8,66.3z"/>
	<path class="st25" d="M180.2,66.7l-0.3-0.5c-0.3-0.4-0.9-0.6-1.3-0.3l-1.1,0.6c-0.2-0.2-0.5-0.5-0.8-0.6c0.7-0.6,1-1.3,1-2.3
		c0-0.2,0-0.1,0-0.1c0.9,0,1.5-0.6,1.5-1.4s-0.7-1.8-1.5-1.8c-0.5,0-1.1,0.3-1.3,0.7c-0.7-0.5-1.4-0.7-2.2-0.7
		c-0.9,0-1.6,0.3-2.2,0.7c-0.2-0.4-0.8-0.7-1.3-0.7c-0.9,0-1.5,1-1.5,1.8s0.7,1.4,1.5,1.4c0,0.2,0-0.1,0,0.1c0,0.9,0.1,1.7,0.9,2.3
		c-0.3,0.2-0.7,0.4-0.9,0.7l-1-0.6c-0.4-0.3-1.1-0.1-1.3,0.3l-0.3,0.6c-0.3,0.4-0.1,1,0.3,1.2l1.8,1.1v0.4c0,0.5,0.1,0.9,0.3,1.3
		l-1.5,2.5c-0.4,0.7-0.1,1.5,0.7,1.8c0.8,0.4,1.6,0.1,2-0.6l1.3-1.8c0.2,0.1,0.5,0.1,0.8,0.1h0.9c0.2,0,0.6,0,0.7-0.1l1.2,1.8
		c0.4,0.7,1.3,0.9,2,0.6c0.8-0.4,1-1.2,0.7-1.8l-1.4-2.4c0.2-0.4,0.4-0.9,0.4-1.5V69l1.9-1.1C180.2,67.9,180.6,67.4,180.2,66.7z"/>
	<g class="st22">
		<ellipse class="st10" cx="174.1" cy="64.9" rx="1.1" ry="1"/>
		<ellipse class="st10" cx="172.6" cy="63.4" rx="0.4" ry="0.4"/>
		<ellipse class="st10" cx="175.4" cy="63.4" rx="0.4" ry="0.4"/>
		<path class="st10" d="M170.3,75.9c-0.3,0-0.6-0.1-1-0.2c-0.5-0.2-0.9-0.6-1.1-1c-0.2-0.5-0.1-1,0.1-1.4l1.4-2.3
			c-0.2-0.4-0.2-0.8-0.2-1.3v-0.1l-1.6-0.9c-0.3-0.2-0.6-0.5-0.7-0.9c-0.1-0.4,0-0.8,0.2-1.1l0.3-0.5c0.2-0.3,0.5-0.6,0.9-0.7
			c0.4-0.1,0.8,0,1.1,0.2l0.6,0.3c0.1-0.1,0.1-0.1,0.2-0.2c-0.5-0.6-0.4-1.3-0.4-1.9c-0.9-0.2-1.5-1-1.5-1.8c0-1.1,0.8-2.3,2-2.3
			c0.5,0,1,0.2,1.4,0.5c1.4-0.8,2.9-0.7,4.2,0c0.4-0.3,0.9-0.5,1.4-0.5c1.1,0,2,1.2,2,2.3c0,0.9-0.6,1.7-1.5,1.8
			c0,0.8-0.1,1.4-0.5,1.9c0,0,0.1,0.1,0.1,0.1l0.8-0.4c0.2-0.2,0.6-0.3,1.1-0.2c0.3,0.1,0.7,0.3,0.9,0.6l0.3,0.6
			c0.4,0.8,0,1.6-0.2,1.9l0,0l-1.6,0.9v0.2c0,0.6-0.2,1.1-0.3,1.5l1.3,2.2c0.4,0.8,0.2,1.9-0.9,2.5c-1,0.4-2.2,0.1-2.7-0.8l-1-1.5
			c-0.1,0-0.5,0-0.7,0h-0.9c-0.2,0-0.6,0-0.8,0l-1.1,1.5C171.6,75.5,171,75.9,170.3,75.9z M169,66.4c0,0-0.1,0-0.1,0
			c-0.1,0-0.2,0.1-0.3,0.2l-0.3,0.6c-0.1,0.2-0.1,0.3-0.1,0.3c0,0.1,0.1,0.2,0.2,0.2l2.1,1.2v0.7c0,0.4,0.1,0.7,0.2,1.1l0.1,0.2
			l-1.6,2.7c-0.1,0.2-0.1,0.4-0.1,0.6c0.1,0.2,0.3,0.4,0.5,0.5c0.6,0.3,1.1,0.1,1.4-0.4l1.6-2.2l0.4,0.2c0.1,0,0.6,0,0.8,0h0.9
			c0.3,0,0.6,0,0.7-0.1l0.3-0.2l1.5,2.2c0.3,0.5,0.9,0.6,1.4,0.4c0.5-0.3,0.6-0.8,0.5-1.1l-1.6-2.6l0.1-0.2c0.2-0.3,0.3-0.8,0.3-1.3
			v-0.8l1.9-1c0-0.1,0.2-0.5,0-0.8l-0.3-0.5c-0.1-0.1-0.2-0.2-0.3-0.2c-0.1,0-0.2,0-0.3,0l-1.5,0.8l-0.3-0.3
			c-0.2-0.2-0.5-0.4-0.7-0.5l-0.6-0.2l0.6-0.5c0.5-0.7,0.4-1.1,0.4-2l0-0.6l0.5,0c0.6,0,1-0.4,1-0.9c0-0.6-0.5-1.3-1-1.3
			c-0.4,0-0.8,0.2-0.9,0.4l-0.3,0.5l-0.5-0.3c-0.6-0.4-1.2-0.6-1.9-0.6c-0.7,0-1.3,0.2-1.9,0.6l-0.5,0.3l-0.3-0.5
			c-0.1-0.2-0.5-0.4-0.9-0.4c-0.6,0-1,0.7-1,1.3c0,0.5,0.4,0.9,1,0.9h0.5v0.6c0,0.9,0,1.6,0.5,2.1L172,66l-0.6,0.3
			c-0.2,0.1-0.5,0.4-0.6,0.5l-0.3,0.4l-1.4-0.8C169.2,66.4,169.1,66.4,169,66.4z"/>
	</g>
</g>
<g class="st13">
	<path class="st25" d="M180.8,66.3l-0.3-0.5c-0.3-0.4-0.9-0.6-1.3-0.3l-2,1.1c-0.2-0.2-0.5-0.5-0.8-0.6c-0.7,0.5-1.4,0.9-2.4,0.9
		c-0.9,0-1.7-0.3-2.4-0.9c-0.3,0.2-0.7,0.4-0.9,0.7l-2.1-1.2c-0.4-0.3-1.1-0.1-1.3,0.3l-0.4,0.6c-0.3,0.4-0.1,1,0.3,1.2l2.7,1.6v0.4
		c0,0.5,0.1,0.9,0.3,1.3l-2,3.3c-0.4,0.7-0.1,1.5,0.7,1.8l0,0c0.8,0.4,1.6,0.1,2-0.6l1.6-2.8c0.2,0.1,0.5,0.1,0.8,0.1h1.1
		c0.2,0,0.4,0,0.5-0.1l1.6,2.8c0.4,0.7,1.3,0.9,2,0.6l0,0c0.8-0.4,1-1.2,0.7-1.8l-1.8-3.1c0.2-0.4,0.4-0.9,0.4-1.5v-0.5l2.6-1.5
		C180.8,67.3,181.1,66.7,180.8,66.3z"/>
	<path class="st25" d="M177.4,60.3c-0.5,0-1.1,0.3-1.3,0.7c-0.7-0.5-1.4-0.7-2.2-0.7c-0.9,0-1.6,0.3-2.2,0.7
		c-0.2-0.4-0.8-0.7-1.3-0.7c-0.9,0-1.5,0.6-1.5,1.4s0.7,1.4,1.5,1.4l0,0c0,0.2,0,0.3,0,0.5c0,1.8,1.6,3.3,3.6,3.3s3.6-1.5,3.6-3.3
		c0-0.2,0-0.3,0-0.5l0,0c0.9,0,1.5-0.6,1.5-1.4S178.3,60.3,177.4,60.3z"/>
	<path class="st25" d="M180.8,66.3l-0.3-0.5c-0.3-0.4-0.9-0.6-1.3-0.3l-2,1.1c-0.2-0.2-0.5-0.5-0.8-0.6c0.7-0.6,1.2-1.4,1.2-2.4
		c0-0.2,0-0.3,0-0.5l0,0c0.9,0,1.5-0.6,1.5-1.4s-0.7-1.4-1.5-1.4c-0.5,0-1.1,0.3-1.3,0.7c-0.7-0.5-1.4-0.7-2.2-0.7
		c-0.9,0-1.6,0.3-2.2,0.7c-0.2-0.4-0.8-0.7-1.3-0.7c-0.9,0-1.5,0.6-1.5,1.4s0.7,1.4,1.5,1.4l0,0c0,0.2,0,0.3,0,0.5
		c0,0.9,0.4,1.8,1.2,2.4l0,0c-0.3,0.2-0.7,0.4-0.9,0.7l-2.1-1.2c-0.4-0.3-1.1-0.1-1.3,0.3l-0.3,0.6c-0.3,0.4-0.1,1,0.3,1.2l2.7,1.6
		v0.4c0,0.5,0.1,0.9,0.3,1.3l-2,3.3c-0.4,0.7-0.1,1.5,0.7,1.8l0,0c0.8,0.4,1.6,0.1,2-0.6l1.8-2.6c0.2,0.1,0.5,0.1,0.8,0.1h1.1
		c0.2,0,0.4,0,0.5-0.1l1.7,2.5c0.4,0.7,1.3,0.9,2,0.6l0,0c0.8-0.4,1-1.2,0.7-1.8l-1.9-3.1c0.2-0.4,0.4-0.9,0.4-1.5V69l2.5-1.5
		C180.9,67.5,181.2,67,180.8,66.3z"/>
	<path class="st25" d="M180.2,66.7l-0.3-0.5c-0.3-0.4-0.9-0.6-1.3-0.3l-1.1,0.6c-0.2-0.2-0.5-0.5-0.8-0.6c0.7-0.6,1-1.3,1-2.3
		c0-0.2,0-0.1,0-0.1c0.9,0,1.5-0.6,1.5-1.4s-0.7-1.8-1.5-1.8c-0.5,0-1.1,0.3-1.3,0.7c-0.7-0.5-1.4-0.7-2.2-0.7
		c-0.9,0-1.6,0.3-2.2,0.7c-0.2-0.4-0.8-0.7-1.3-0.7c-0.9,0-1.5,1-1.5,1.8s0.7,1.4,1.5,1.4c0,0.2,0-0.1,0,0.1c0,0.9,0.1,1.7,0.9,2.3
		c-0.3,0.2-0.7,0.4-0.9,0.7l-1-0.6c-0.4-0.3-1.1-0.1-1.3,0.3l-0.3,0.6c-0.3,0.4-0.1,1,0.3,1.2l1.8,1.1v0.4c0,0.5,0.1,0.9,0.3,1.3
		l-1.5,2.5c-0.4,0.7-0.1,1.5,0.7,1.8c0.8,0.4,1.6,0.1,2-0.6l1.3-1.8c0.2,0.1,0.5,0.1,0.8,0.1h0.9c0.2,0,0.6,0,0.7-0.1l1.2,1.8
		c0.4,0.7,1.3,0.9,2,0.6c0.8-0.4,1-1.2,0.7-1.8l-1.4-2.4c0.2-0.4,0.4-0.9,0.4-1.5V69l1.9-1.1C180.2,67.9,180.6,67.4,180.2,66.7z"/>
	<g class="st22">
		<ellipse class="st10" cx="174.1" cy="64.9" rx="1.1" ry="1"/>
		<ellipse class="st10" cx="172.6" cy="63.4" rx="0.4" ry="0.4"/>
		<ellipse class="st10" cx="175.4" cy="63.4" rx="0.4" ry="0.4"/>
		<path class="st10" d="M170.3,75.9c-0.3,0-0.6-0.1-1-0.2c-0.5-0.2-0.9-0.6-1.1-1c-0.2-0.5-0.1-1,0.1-1.4l1.4-2.3
			c-0.2-0.4-0.2-0.8-0.2-1.3v-0.1l-1.6-0.9c-0.3-0.2-0.6-0.5-0.7-0.9c-0.1-0.4,0-0.8,0.2-1.1l0.3-0.5c0.2-0.3,0.5-0.6,0.9-0.7
			c0.4-0.1,0.8,0,1.1,0.2l0.6,0.3c0.1-0.1,0.1-0.1,0.2-0.2c-0.5-0.6-0.4-1.3-0.4-1.9c-0.9-0.2-1.5-1-1.5-1.8c0-1.1,0.8-2.3,2-2.3
			c0.5,0,1,0.2,1.4,0.5c0.7-0.4,1.4-0.6,2.1-0.6c0.7,0,1.5,0.2,2.1,0.6c0.4-0.3,0.9-0.5,1.4-0.5c1.1,0,2,1.2,2,2.3
			c0,0.9-0.6,1.7-1.5,1.8c0,0.8-0.1,1.4-0.5,1.9c0,0,0.1,0.1,0.1,0.1l0.8-0.4c0.2-0.2,0.6-0.3,1.1-0.2c0.3,0.1,0.7,0.3,0.9,0.6
			l0.3,0.6c0.4,0.8,0,1.6-0.2,1.9l0,0l-1.6,0.9v0.2c0,0.6-0.2,1.1-0.3,1.5l1.3,2.2c0.4,0.8,0.2,1.9-0.9,2.5c-1,0.4-2.2,0.1-2.7-0.8
			l-1-1.5c-0.1,0-0.5,0-0.7,0h-0.6h-0.3c-0.2,0-0.6,0-0.8,0l-1.1,1.5C171.6,75.5,171,75.9,170.3,75.9z M169,66.4c0,0-0.1,0-0.1,0
			c-0.1,0-0.2,0.1-0.3,0.2l-0.3,0.6c-0.1,0.2-0.1,0.3-0.1,0.3c0,0.1,0.1,0.2,0.2,0.2l2.1,1.2v0.7c0,0.4,0.1,0.7,0.2,1.1l0.1,0.2
			l-1.6,2.7c-0.1,0.2-0.1,0.4-0.1,0.6c0.1,0.2,0.3,0.4,0.5,0.5c0.6,0.3,1.1,0.1,1.4-0.4l1.6-2.2l0.4,0.2c0.1,0,0.6,0,0.8,0h0.3h0.6
			c0.3,0,0.6,0,0.7-0.1l0.3-0.2l1.5,2.2c0.3,0.5,0.9,0.6,1.4,0.4c0.5-0.3,0.6-0.8,0.5-1.1l-1.6-2.6l0.1-0.2c0.2-0.3,0.3-0.8,0.3-1.3
			v-0.8l1.9-1c0-0.1,0.2-0.5,0-0.8l-0.3-0.5c-0.1-0.1-0.2-0.2-0.3-0.2c-0.1,0-0.2,0-0.3,0l-1.5,0.8l-0.3-0.3
			c-0.2-0.2-0.5-0.4-0.7-0.5l-0.6-0.2l0.6-0.5c0.5-0.7,0.4-1.1,0.4-2l0-0.6l0.5,0c0.6,0,1-0.4,1-0.9c0-0.6-0.5-1.3-1-1.3
			c-0.4,0-0.8,0.2-0.9,0.4l-0.3,0.5l-0.5-0.3c-0.6-0.4-1.2-0.6-1.9-0.6c-0.7,0-1.3,0.2-1.9,0.6l-0.5,0.3l-0.3-0.5
			c-0.1-0.2-0.5-0.4-0.9-0.4c-0.6,0-1,0.7-1,1.3c0,0.5,0.4,0.9,1,0.9h0.5v0.6c0,0.9,0,1.6,0.5,2.1L172,66l-0.6,0.3
			c-0.2,0.1-0.5,0.4-0.6,0.5l-0.3,0.4l-1.4-0.8C169.2,66.4,169.1,66.4,169,66.4z"/>
	</g>
</g>
<g>
	<g>
		<path class="st10" d="M177.5,60.8c0.5,0,1,0.7,1,1.3c0,0.5-0.5,1-1.1,1l-0.4-0.1l0,0.6c0,0.9,0.1,1.3-0.4,2l-0.6,0.5l0.6,0.3
			c0.2,0.1,0.5,0.3,0.7,0.5l0.3,0.3l1.4-0.8c0.1-0.1,0.3-0.1,0.4-0.1c0,0,0,0,0,0c0.1,0,0.2,0.1,0.3,0.3l0.3,0.6
			c0.2,0.3,0,0.5-0.1,0.6l-1.9,1v0.8c0,0.5-0.2,1-0.3,1.3l-0.2,0.2l1.6,2.7c0.2,0.4,0.1,0.9-0.5,1.1c-0.2,0.1-0.4,0.1-0.6,0.1
			c-0.3,0-0.5-0.1-0.7-0.4l-1.4-2.1l-0.5,0.3c-0.2,0.1-0.5,0.2-0.8,0.2l-0.6,0l-0.5,0c-0.3,0-0.6-0.1-0.8-0.2l-0.5-0.3l-1.4,2.1
			c-0.2,0.3-0.4,0.4-0.7,0.4c-0.2,0-0.4-0.1-0.6-0.1c-0.5-0.3-0.6-0.8-0.5-1.1l1.6-2.7l-0.2-0.2c-0.2-0.3-0.3-0.8-0.3-1.3v-0.8
			l-1.9-1c-0.1-0.1-0.3-0.3-0.1-0.6l0.3-0.6c0.1-0.2,0.2-0.2,0.3-0.3c0,0,0,0,0,0c0.1,0,0.3,0.1,0.4,0.1l1.4,0.8l0.3-0.3
			c0.2-0.2,0.5-0.4,0.7-0.5l0.6-0.3l-0.6-0.5c-0.5-0.7-0.4-1.1-0.4-2l0-0.6l-0.4,0.1c-0.6,0-1.1-0.4-1.1-1c0-0.6,0.5-1.3,1-1.3
			c0.4,0,0.8,0.2,0.9,0.4l0.3,0.5l0.5-0.3c0.6-0.4,1.2-0.6,1.9-0.6c0,0,0,0,0,0v0c0.7,0,1.3,0.2,1.9,0.6l0.5,0.3l0.3-0.5
			C176.7,61,177.1,60.8,177.5,60.8 M177.5,59.8c-0.5,0-1,0.2-1.4,0.5c-0.3-0.2-0.7-0.3-1.1-0.4v-0.1l-1,0h0l0,0
			c-0.7,0-1.4,0.2-2,0.5c-0.4-0.3-0.9-0.5-1.4-0.5c-1.1,0-2,1.2-2,2.3c0,0.9,0.6,1.7,1.5,1.9c0,0.6,0,1.2,0.4,1.9c0,0,0,0,0,0
			l-0.7-0.4c-0.3-0.2-0.6-0.2-0.9-0.2l-0.1,0l-0.2,0c-0.2,0.1-0.7,0.2-1,0.7l-0.3,0.6c-0.4,0.8-0.1,1.6,0.5,1.9l0,0l0,0l1.3,0.7v0.2
			c0,0.6,0.2,1.1,0.3,1.5l-1.3,2.1l0,0l0,0c-0.4,0.8-0.2,1.9,0.9,2.5l0,0l0,0c0.3,0.1,0.7,0.2,1,0.2c0.6,0,1.2-0.3,1.5-0.9l0.9-1.3
			c0.2,0.1,0.6,0.2,0.9,0.2l0.5,0l0.1,0l0.1,0l0.6,0c0.4,0,0.7-0.1,0.9-0.2l0.9,1.3c0.3,0.6,0.9,0.9,1.5,0.9c0.3,0,0.6-0.1,1-0.2
			l0,0l0,0c1.1-0.5,1.3-1.7,0.9-2.5l0,0l0,0l-1.3-2.1c0.2-0.4,0.3-0.9,0.3-1.5v-0.2l1.3-0.7l0,0l0,0c0.5-0.3,0.9-1.1,0.5-1.9
			l-0.3-0.6c-0.3-0.6-0.8-0.7-1-0.8l-0.1,0l-0.2,0c-0.2,0-0.6,0.1-0.9,0.2l-0.7,0.4c0,0,0,0,0,0c0.5-0.7,0.4-1.3,0.4-1.9
			c0.9-0.2,1.5-1,1.5-1.9C179.5,61,178.6,59.8,177.5,59.8L177.5,59.8z"/>
	</g>
	<ellipse class="st10" cx="174.1" cy="64.6" rx="1.1" ry="0.7"/>
	<ellipse class="st10" cx="172.8" cy="63.4" rx="0.4" ry="0.4"/>
	<ellipse class="st10" cx="175.4" cy="63.4" rx="0.4" ry="0.4"/>
</g>
<g>
	<g class="st13">
		<polygon class="st21" points="154.6,13 139.9,13 140.8,9.5 153.8,9.5 		"/>
		<polygon class="st21" points="149.2,6.7 145.4,6.7 144.9,9.5 149.7,9.5 		"/>
		<path class="st21" d="M151.4,2.3c0,2.8-1.8,5.2-4.1,5.2s-4.1-2.3-4.1-5.2c0-0.1,0-1.1,0-1.1c0.1-2.8,1.9-4,4.1-4
			c2.2,0,4.1,1.3,4.1,4C151.4,1.2,151.4,2.2,151.4,2.3z"/>
	</g>
	<g class="st13">
		<rect x="139.9" y="9.5" class="st21" width="14.6" height="3.4"/>
		<rect x="145.4" y="6.7" class="st21" width="3.6" height="2.8"/>
		<ellipse class="st21" cx="147.2" cy="2.3" rx="4.1" ry="5.2"/>
	</g>
	<g class="st13">
		<polygon class="st21" points="154.6,13 139.9,13 140.8,9.5 153.8,9.5 		"/>
		<polygon class="st21" points="148.8,6.7 145.9,6.7 144.9,9.5 149.7,9.5 		"/>
		<path class="st21" d="M151.4,2.3c0,2.8-1.8,5.2-4.1,5.2s-4.1-2.3-4.1-5.2c0-0.1,0-1.1,0-1.1c0.1-2.8,1.9-4,4.1-4
			c2.2,0,4.1,1.3,4.1,4C151.4,1.2,151.4,2.2,151.4,2.3z"/>
	</g>
	<path class="st26" d="M151.1,9.5h-0.4c-0.7,0-1.3-0.4-1.5-1.1L148.9,8c-0.1-0.4,0-0.8,0.3-1c0.9-1,2.1-2.8,2.1-4.7
		c0-0.1,0-1.1,0-1.1c-0.1-2.7-1.9-4-4.1-4c-2.2,0-4,1.2-4.1,4c0,0.1,0,1,0,1c0.5,3.2,1,3.7,2,4.8c0.3,0.2,0.3,0.6,0.2,1l-0.1,0.4
		c-0.2,0.6-0.8,1.1-1.5,1.1h-1.6c-1.6,0-1.8,1.1-2.1,2.7l-0.2,0.8h14.6l-0.2-0.8C153.9,10.6,152.8,9.5,151.1,9.5z"/>
	<path class="st13" d="M147.2-2.7c-2.2,0-4,1-4.1,3.8c0,0.1,0.1,1.6,0.1,1.6c0.5,3.2,1,3.2,1.6,4c0.3,0.3,0.8,0.7,0.7,1.1L145.4,8
		c-0.2,0.6-0.3,0.8-1.2,1.1l-2,0.3c-1.3,0.2-1.9,0.6-2.2,2.1l-0.1,1.3h7.3"/>
	<path class="st13" d="M147.2-2.7c2.2,0,4,1,4.1,3.8c0,0.1-0.1,1.6-0.1,1.6c-0.5,3.2-1,3.2-1.6,4c-0.3,0.3-0.8,0.7-0.7,1.1l0.1,0.2
		c0.2,0.6,0.3,0.8,1.2,1.1l2,0.3c1.3,0.2,1.9,0.6,2.2,2.1l0.2,1.3h-7.3"/>
	<path class="st27" d="M153.1,11.2c-0.3-1.3-0.8-1.6-1.9-1.8l-1.6-0.3c-0.7-0.2-0.8-0.4-1-0.9L148.4,8c-0.1-0.3,0.3-0.7,0.6-0.9
		c0.5-0.6,1-0.7,1.4-3.4c0,0,0.1-1.3,0.1-1.4c-0.1-2.3-1.6-3.2-3.4-3.2c-1.8,0-3.3,0.9-3.4,3.2c0,0,0.1,1.3,0.1,1.4
		c0.4,2.7,0.8,2.7,1.4,3.4c0.3,0.3,0.7,0.6,0.6,0.9l-0.1,0.2c-0.2,0.5-0.3,0.7-1,0.9l-1.6,0.3c-1.1,0.2-1.6,0.5-1.9,1.8l-0.2,1.8
		h6.1l0,0h6.1L153.1,11.2z"/>
</g>
<g>
	<g class="st13">
		<g class="st22">
			<g>
				<path d="M178.6,2.2l-1.7,5.2h-7.8l-1.7-5.2L178.6,2.2 M178.6,1.2h-11.1c-0.3,0-0.6,0.2-0.8,0.4s-0.2,0.6-0.1,0.9l1.6,5.2
					c0.1,0.4,0.5,0.7,0.9,0.7h7.9c0.4,0,0.8-0.3,1-0.7l1.7-5.2c0.1-0.3,0-0.6-0.1-0.9C179.2,1.3,179,1.2,178.6,1.2L178.6,1.2z"/>
			</g>
			<polyline class="st28" points="168.8,10.5 176.8,10.5 180.5,-1.7 182.2,-1.7 			"/>
		</g>
		<circle class="st29" cx="168.8" cy="11.4" r="1"/>
		<circle class="st29" cx="176.8" cy="11.4" r="1"/>
	</g>
	<path d="M182.2-2.2h-1.9c-0.2,0-0.5,0.2-0.5,0.4l-0.8,2.9c-0.1,0-11.6,0-11.6,0c-0.4,0-0.7,0.2-0.9,0.5s-0.3,0.7-0.2,1l1.7,5.2
		c0.1,0.5,0.6,0.8,1.1,0.8h7.6l-0.4,1.4h-7.3c-0.1,0-0.2,0-0.2,0c-0.9,0-1.6,0.7-1.6,1.6s0.7,1.6,1.6,1.6s1.6-0.7,1.6-1.6
		c0-0.1,0-0.3-0.1-0.4h5.1c0,0.1-0.1,0.3-0.1,0.4c0,0.9,0.7,1.6,1.6,1.6c0.9,0,1.6-0.7,1.6-1.6c0-0.6-0.4-1.1-0.9-1.4L180.9-1h1.5
		c0.3,0,0.6-0.2,0.6-0.6S182.6-2.2,182.2-2.2z M167.6,2.2h11.3l-1.7,5.2h-8.1l-1.7-4.9C167.3,2.3,167.4,2.2,167.6,2.2z M169.4,11.5
		c0,0.3-0.2,0.6-0.6,0.6c-0.4,0-0.6-0.3-0.6-0.6c0-0.3,0.2-0.5,0.5-0.5c0,0,0,0,0.1,0h0.1C169.3,11.2,169.4,11.3,169.4,11.5z
		 M176.9,12.2c-0.5,0-0.7-0.3-0.7-0.6c0-0.2,0.2-0.5,0.3-0.5L177,11l0,0c0.2,0,0.6,0.2,0.6,0.6C177.6,11.9,177.4,12.2,176.9,12.2z"
		/>
</g>
<g>
	<polygon class="st30" points="202.1,5.9 192.8,2 200,-2.2 209.1,1.7 	"/>
	<g>
		<path class="st0" d="M202.1,7.2c-0.1,0-0.2,0-0.3-0.1l-9.3-4.4c-0.3-0.1-0.4-0.4-0.5-0.6c0-0.3,0.1-0.6,0.4-0.7l7-4.6
			c0.2-0.1,0.5-0.1,0.7,0l9.3,4.3c0.3,0.1,0.4,0.4,0.5,0.6c0,0.3-0.1,0.6-0.4,0.7l-7,4.7C202.5,7.1,202.2,7.2,202.1,7.2z M194.5,1.9
			l7.6,3.7l5.4-3.8l-7.6-3.6L194.5,1.9z"/>
	</g>
	<path class="st0" d="M209.5,3.9l-0.4-0.2l-1.5,1l-5.4,3.8l-7.7-3.7l-1.7-0.7l-0.3,0.2c-0.3,0.1-0.4,0.4-0.4,0.7
		c0,0.3,0.2,0.5,0.5,0.6l9.3,4.4c0.1,0,0.2,0.1,0.3,0.1s0.3,0,0.4-0.1l7-4.7c0.2-0.1,0.4-0.4,0.4-0.7C210,4.3,209.8,4,209.5,3.9z"/>
	<path class="st0" d="M209.5,6.8l-0.4-0.2l-1.5,1l-5.4,3.8l-7.6-3.7L192.9,7l-0.3,0.2c-0.2,0.1-0.4,0.4-0.4,0.7
		c0,0.3,0.2,0.5,0.5,0.6l9.3,4.4c0.1,0,0.2,0.1,0.3,0.1s0.3,0,0.4-0.1l7-4.7c0.2-0.1,0.4-0.4,0.4-0.7C210,7.2,209.8,6.9,209.5,6.8z"
		/>
</g>
<polyline class="st31" points="194.5,28.5 201,35 207.5,28.4 "/>
<polyline class="st31" points="197.8,56.3 204.2,49.8 197.6,43.3 "/>
<polyline class="st31" points="231.2,43.3 224.8,49.8 231.4,56.3 "/>
<polyline class="st31" points="234.6,35 228.1,28.4 221.6,34.9 "/>
<g>
	<circle cx="16.5" cy="90.3" r="13.3"/>
	<g class="st13">
		<path id="Triangle" class="st32" d="M10.8,98.1l15.4-7.9l-15.3-8L10.8,98.1L10.8,98.1z"/>
		<path id="The_Sharpness" class="st33" d="M10.8,82.2l13.4,9l1.9-1L10.8,82.2z"/>
	</g>
	<path id="The_Sharpness_1_" class="st34" d="M14.8,87.6l4,2.6l0.6-0.3L14.8,87.6z"/>
	<g id="Lozenge">
		<g>
			<path class="st1" d="M24.7,86.8c0,0-0.2-1.2-0.7-1.7c-0.6-0.7-1.3-0.7-1.7-0.7c-2.3-0.2-5.8-0.2-5.8-0.2l0,0c0,0-3.5,0-5.8,0.2
				c-0.3,0-1,0-1.7,0.7c-0.5,0.5-0.7,1.7-0.7,1.7s-0.1,1.4-0.1,2.7v1.3c0,1.4,0.2,2.7,0.2,2.7s0.2,1.2,0.7,1.7
				c0.6,0.7,1.5,0.6,1.8,0.7c1.3,0.1,5.6,0.1,5.6,0.1s3.5,0,5.8-0.2c0.3,0,1,0,1.7-0.7c0.5-0.5,0.7-1.7,0.7-1.7s0.2-1.4,0.2-2.7
				v-1.3C24.8,88.2,24.7,86.8,24.7,86.8z M14.8,92.3v-4.7l4.5,2.4L14.8,92.3z"/>
		</g>
	</g>
</g>
<g>
	<circle cx="43.4" cy="90.3" r="13.3"/>
	<g class="st13">
		<path id="Triangle_1_" class="st32" d="M37.7,98.1l15.1-7.8l-15.1-7.9V98.1z"/>
		<path id="The_Sharpness_3_" class="st33" d="M37.7,82.5l13.2,8.9l1.9-1L37.7,82.5z"/>
	</g>
	<path class="st1" d="M44.2,99.3v-8.2H47l0.4-3.2h-3.2v-2.1c0-0.9,0.3-1.6,1.6-1.6h1.7v-2.9c-0.3,0-1.3-0.1-2.5-0.1
		c-2.5,0-4.1,1.5-4.1,4.2V88h-2.8v3.2h2.9v8.2C41,99.3,44.2,99.3,44.2,99.3z"/>
</g>
<g>
	<circle cx="70.4" cy="90.3" r="13.3"/>
	<g class="st13">
		<path id="Triangle_2_" class="st32" d="M64.6,98.1l15.1-7.8l-15.1-7.9V98.1z"/>
		<path id="The_Sharpness_2_" class="st33" d="M64.6,82.5l13.2,8.9l1.9-1L64.6,82.5z"/>
	</g>
	<g>
		<path class="st1" d="M78.4,85.6c-0.6,0.3-1.2,0.4-1.9,0.5c0.7-0.4,1.2-1,1.4-1.8c-0.6,0.4-1.3,0.6-2.1,0.8c-0.6-0.6-1.4-1-2.4-1
			c-1.8,0-3.2,1.4-3.2,3.2c0,0.3,0,0.5,0.1,0.7c-2.7-0.1-5-1.4-6.6-3.4c-0.3,0.5-0.4,1-0.4,1.6c0,1.1,0.6,2.1,1.4,2.7
			c-0.5,0-1-0.2-1.5-0.4l0,0c0,1.6,1.1,2.9,2.6,3.2c-0.3,0.1-0.6,0.1-0.9,0.1c-0.2,0-0.4,0-0.6-0.1c0.4,1.3,1.6,2.2,3,2.2
			c-1.1,0.9-2.5,1.4-3.9,1.4c-0.3,0-0.5,0-0.8,0c1.4,0.9,3.1,1.5,4.9,1.5c5.8,0,9.1-4.8,9.1-9.1c0-0.1,0-0.3,0-0.4
			C77.4,86.8,78.1,86.2,78.4,85.6z"/>
	</g>
</g>
<g>
	<circle cx="97.6" cy="90.3" r="13.3"/>
	<g class="st13">
		<path id="Triangle_3_" class="st32" d="M92,98.1l15.1-7.8L92,82.5V98.1z"/>
		<path id="The_Sharpness_4_" class="st33" d="M92,82.5l13.2,8.9l1.9-1L92,82.5z"/>
	</g>
	<path class="st35" d="M103.9,83H91.3c-0.6,0-1.1,0.5-1.1,1.1v12.7c0,0.6,0.5,1.1,1.1,1.1h12.6c0.6,0,1.1-0.5,1.1-1.1V84
		C105,83.4,104.5,83,103.9,83 M92.4,88.6h2.2v7.1h-2.2V88.6z M93.5,87.6c-0.7,0-1.3-0.6-1.3-1.3c0-0.7,0.6-1.3,1.3-1.3
		c0.7,0,1.3,0.6,1.3,1.3C94.7,87,94.1,87.6,93.5,87.6z M102.9,95.7h-2.2v-3.5c0-0.8,0-1.9-1.2-1.9s-1.3,0.9-1.3,1.9v3.6h-2.2v-7.1
		h2.1v1l0,0c0.3-0.6,1-1.2,2.1-1.2c2.3,0,2.7,1.5,2.7,3.4V95.7z"/>
	<rect x="91" y="86.7" class="st1" width="3" height="9.6"/>
	<circle class="st1" cx="92.5" cy="83.7" r="1.7"/>
	<path class="st1" d="M105.1,96.3h-3v-4.6c0-1.1,0-2.6-1.6-2.6c-1.6,0-1.8,1.2-1.8,2.5v4.7h-3v-9.6h2.9V88l0,0
		c0.4-0.8,1.4-1.6,2.9-1.6c3.1,0,3.6,2,3.6,4.5L105.1,96.3z"/>
</g>
<g>
	<rect x="202.4" y="60.1" class="st27" width="6.4" height="6.6"/>
	<rect x="202.4" y="68.8" class="st27" width="6.4" height="6.6"/>
	<rect x="193.1" y="60.1" class="st27" width="6.6" height="6.6"/>
	<rect x="193.1" y="68.8" class="st27" width="6.6" height="6.6"/>
</g>
<g>
	<rect x="219.6" y="60.7" class="st27" width="7.4" height="3.8"/>
	<rect x="228.9" y="60.7" class="st27" width="7.6" height="3.8"/>
	<rect x="219.6" y="71.5" class="st27" width="7.4" height="3.8"/>
	<rect x="228.9" y="71.5" class="st27" width="7.6" height="3.8"/>
	<rect x="219.6" y="66.1" class="st27" width="7.4" height="3.8"/>
	<rect x="228.9" y="66.1" class="st27" width="7.6" height="3.8"/>
</g>
<g>
	<rect x="219.6" y="78.2" class="st27" width="16.8" height="3.8"/>
	<rect x="219.6" y="89.8" class="st27" width="16.8" height="3.8"/>
	<rect x="219.6" y="84.1" class="st27" width="16.8" height="3.7"/>
</g>
<g>
	<circle class="st36" cx="201.1" cy="86" r="5.8"/>
	<polygon class="st28" points="208.6,78.9 193.5,78.9 199.6,87.3 199.6,94.1 202.6,92.6 202.6,87 	"/>
</g>
<polygon class="st37" points="3,103.7 3,121.7 18.6,130.5 34.2,121.7 34.2,103.7 "/>
<polygon class="st38" points="38.5,103.7 38.5,121.7 54.1,130.5 69.7,121.7 69.7,103.7 "/>
<g>
	<path class="st0" d="M137.2,93.4c-0.1,0-1.4,0-2.5-0.4c-1-0.4-1.6-1-1.6-1l-0.6-0.5l-0.6,0.5c0,0-0.6,0.6-1.6,1
		c-1.1,0.4-2.4,0.4-2.5,0.4h-0.4v0.3c0,0.2,0.1,3.9,1,5.6c1.6,2.9,3.5,3.5,3.5,3.5l0.6,0.2l0.6-0.2c0.1,0,1.9-0.6,3.5-3.5
		c0.9-1.7,1-5.4,1-5.6v-0.3H137.2z M133.4,98.4L133.4,98.4l-1.3,1.3l-1.3-1.3l-1.5-1.5l1.3-1.3l1.5,1.5l2.5-2.5l1.3,1.3L133.4,98.4z
		"/>
	<g class="st13">
		<polygon class="st21" points="134.2,101.6 119.7,101.6 120.5,98.1 133.4,98.1 		"/>
		<polygon class="st21" points="128.9,95.3 125.2,95.3 124.7,98.1 129.4,98.1 		"/>
		<path class="st21" d="M131.2,90.9c0,2.8-1.8,5.2-4.1,5.2s-4.1-2.3-4.1-5.2c0-0.1,0-1.1,0-1.1c0.1-2.8,1.9-4,4.1-4
			c2.2,0,4.1,1.3,4.1,4C131.2,89.8,131.2,90.8,131.2,90.9z"/>
	</g>
	<g class="st13">
		<rect x="119.7" y="98.1" class="st21" width="14.6" height="3.4"/>
		<rect x="125.2" y="95.3" class="st21" width="3.6" height="2.8"/>
		<ellipse class="st21" cx="127" cy="90.9" rx="4.1" ry="5.2"/>
	</g>
	<g class="st13">
		<polygon class="st21" points="134.2,101.6 119.7,101.6 120.5,98.1 133.4,98.1 		"/>
		<polygon class="st21" points="128.4,95.3 125.7,95.3 124.7,98.1 129.4,98.1 		"/>
		<path class="st21" d="M131.2,90.9c0,2.8-1.8,5.2-4.1,5.2s-4.1-2.3-4.1-5.2c0-0.1,0-1.1,0-1.1c0.1-2.8,1.9-4,4.1-4
			c2.2,0,4.1,1.3,4.1,4C131.2,89.8,131.2,90.8,131.2,90.9z"/>
	</g>
	<path class="st26" d="M130.8,98.1h-0.4c-0.7,0-1.3-0.4-1.5-1.1l-0.2-0.4c-0.1-0.4,0-0.8,0.3-1c0.9-1,2.1-2.8,2.1-4.7
		c0-0.1,0-1.1,0-1.1c-0.1-2.7-1.9-4-4.1-4s-4,1.2-4.1,4c0,0.1,0,1,0,1c0.5,3.2,1,3.7,2,4.8c0.3,0.2,0.3,0.6,0.2,1L125,97
		c-0.2,0.6-0.8,1.1-1.5,1.1h-1.6c-1.6,0-1.8,1.1-2.1,2.7l-0.2,0.8h14.6l-0.2-0.8C133.7,99.2,132.4,98.1,130.8,98.1z"/>
	<path class="st13" d="M127,85.9c-2.2,0-4,1-4.1,3.8c0,0.1,0.1,1.6,0.1,1.6c0.5,3.2,1,3.2,1.6,4c0.3,0.3,0.8,0.7,0.7,1.1l-0.1,0.2
		c-0.2,0.6-0.3,0.8-1.2,1.1l-2,0.3c-1.3,0.2-1.9,0.6-2.2,2.1l-0.1,1.3h7.3"/>
	<path class="st13" d="M127,85.9c2.2,0,4,1,4.1,3.8c0,0.1-0.1,1.6-0.1,1.6c-0.5,3.2-1,3.2-1.6,4c-0.3,0.3-0.8,0.7-0.7,1.1l0.1,0.2
		c0.2,0.6,0.3,0.8,1.2,1.1l2,0.3c1.3,0.2,1.9,0.6,2.2,2.1l0.2,1.3h-7.3"/>
	<path d="M128.6,101.1h-7.3l0.1-1.2c0.2-1,0.5-1.2,1.5-1.4l1.6-0.3c0.9-0.2,1.1-0.6,1.3-1.2l0.1-0.3c0.2-0.6-0.3-1-0.6-1.3l-0.1-0.1
		c-0.1-0.1-0.2-0.2-0.3-0.3c-0.4-0.4-0.7-0.7-1-2.8c0-0.1-0.1-1.4-0.1-1.4c0.1-2.2,1.6-2.7,2.9-2.7c1.3,0,2.8,0.5,2.9,2.7
		c0,0.1-0.1,1.3-0.1,1.3c0,0,0,0.1,0,0.1c0.1,0,0.3-0.1,0.4-0.1c0.3-0.1,0.5-0.2,0.7-0.4c0-0.4,0.1-0.9,0.1-0.9
		c-0.1-2.3-1.6-3.7-3.9-3.7c-2.3,0-3.8,1.4-3.9,3.7c0,0,0.1,1.2,0.1,1.4c0.3,2.3,0.7,2.8,1.3,3.4c0.1,0.1,0.2,0.2,0.3,0.3l0.2,0.2
		c0.1,0.1,0.2,0.2,0.3,0.3l-0.1,0.1c-0.2,0.4-0.2,0.5-0.6,0.6l-1.6,0.3c-1.2,0.2-1.9,0.6-2.3,2.2l-0.3,2.4h9.2
		C129.2,101.8,128.9,101.5,128.6,101.1z"/>
</g>
<g>
	<g>
		<path class="st39" d="M168.3,92.1v10.2c0,0-1.9-0.2-3.4-3c-0.9-1.6-1-5.6-1-5.6s1.4,0.3,2.6-0.3C167.6,93,168.3,92.1,168.3,92.1z"
			/>
		<g>
			<path d="M168.6,92.4L168.6,92.4c0.1,0.1,0.7,0.7,1.9,1.2c0.9,0.4,1.9,0.5,2.4,0.5c0,1.1-0.2,3.6-0.9,4.8c-1.3,2.3-2.7,2.9-3,3.1
				h0l-0.1,0l-0.3,0.1l-0.3-0.1l-0.1,0h0c-0.3-0.1-1.7-0.8-3-3.1c-0.6-1.1-0.8-3.7-0.9-4.8c0.5,0,1.5-0.1,2.4-0.5
				C167.9,93.2,168.5,92.5,168.6,92.4L168.6,92.4L168.6,92.4 M168.6,91.4L168,92c0,0-0.6,0.6-1.6,1c-1.1,0.4-2.4,0.4-2.5,0.4h-0.4
				v0.3c0,0.2,0.1,3.9,1,5.6c1.6,2.9,3.5,3.5,3.5,3.5l0.6,0.2l0.6-0.2c0.1,0,1.9-0.6,3.5-3.5c0.9-1.7,1-5.4,1-5.6v-0.3h-0.4
				c-0.1,0-1.4,0-2.5-0.4c-1-0.4-1.6-1-1.6-1L168.6,91.4L168.6,91.4z"/>
		</g>
		<g class="st40">
			<path d="M168.6,91.4l0.6,0.5c0,0,0.6,0.6,1.6,1c1.1,0.4,2.4,0.4,2.5,0.4h0.4v0.3c0,0.2-0.1,3.9-1,5.6c-1.6,2.9-3.5,3.5-3.5,3.5
				l-0.6,0.2V91.4z"/>
		</g>
	</g>
	<g class="st13">
		<polygon class="st21" points="170.4,101.6 155.8,101.6 156.6,98.1 169.6,98.1 		"/>
		<polygon class="st21" points="165,95.3 161.3,95.3 160.8,98.1 165.5,98.1 		"/>
		<path class="st21" d="M167.3,90.9c0,2.8-1.8,5.2-4.1,5.2c-2.3,0-4.1-2.3-4.1-5.2c0-0.1,0-1.1,0-1.1c0.1-2.8,1.9-4,4.1-4
			c2.2,0,4.1,1.3,4.1,4C167.3,89.8,167.3,90.8,167.3,90.9z"/>
	</g>
	<g class="st13">
		<rect x="155.8" y="98.1" class="st21" width="14.6" height="3.4"/>
		<rect x="161.3" y="95.3" class="st21" width="3.6" height="2.8"/>
		<ellipse class="st21" cx="163.1" cy="90.9" rx="4.1" ry="5.2"/>
	</g>
	<g class="st13">
		<polygon class="st21" points="170.4,101.6 155.8,101.6 156.6,98.1 169.6,98.1 		"/>
		<polygon class="st21" points="164.6,95.3 161.8,95.3 160.8,98.1 165.5,98.1 		"/>
		<path class="st21" d="M167.3,90.9c0,2.8-1.8,5.2-4.1,5.2c-2.3,0-4.1-2.3-4.1-5.2c0-0.1,0-1.1,0-1.1c0.1-2.8,1.9-4,4.1-4
			c2.2,0,4.1,1.3,4.1,4C167.3,89.8,167.3,90.8,167.3,90.9z"/>
	</g>
	<path class="st26" d="M166.9,98.1h-0.4c-0.7,0-1.3-0.4-1.5-1.1l-0.2-0.4c-0.1-0.4,0-0.8,0.3-1c0.9-1,2.1-2.8,2.1-4.7
		c0-0.1,0-1.1,0-1.1c-0.1-2.7-1.9-4-4.1-4s-4,1.2-4.1,4c0,0.1,0,1,0,1c0.5,3.2,1,3.7,2,4.8c0.3,0.2,0.3,0.6,0.2,1l-0.1,0.4
		c-0.2,0.6-0.8,1.1-1.5,1.1H158c-1.6,0-1.8,1.1-2.1,2.7l-0.2,0.8h14.6l-0.2-0.8C169.8,99.2,168.6,98.1,166.9,98.1z"/>
	<path class="st13" d="M163.1,85.9c-2.2,0-4,1-4.1,3.8c0,0.1,0.1,1.6,0.1,1.6c0.5,3.2,1,3.2,1.6,4c0.3,0.3,0.8,0.7,0.7,1.1l-0.1,0.2
		c-0.2,0.6-0.3,0.8-1.2,1.1l-2,0.3c-1.3,0.2-1.9,0.6-2.2,2.1l-0.1,1.3h7.3"/>
	<path class="st13" d="M163.1,85.9c2.2,0,4,1,4.1,3.8c0,0.1-0.1,1.6-0.1,1.6c-0.5,3.2-1,3.2-1.6,4c-0.3,0.3-0.8,0.7-0.7,1.1l0.1,0.2
		c0.2,0.6,0.3,0.8,1.2,1.1l2,0.3c1.3,0.2,1.9,0.6,2.2,2.1l0.2,1.3h-7.3"/>
	<path d="M164.7,101.1h-7.3l0.1-1.2c0.2-1,0.5-1.2,1.5-1.4l1.6-0.3c0.9-0.2,1.1-0.6,1.3-1.2l0.1-0.3c0.2-0.6-0.3-1-0.6-1.3l-0.1-0.1
		c-0.1-0.1-0.2-0.2-0.3-0.3c-0.4-0.4-0.7-0.7-1-2.8c0-0.1-0.1-1.4-0.1-1.4c0.1-2.2,1.6-2.7,2.9-2.7c1.3,0,2.8,0.5,2.9,2.7
		c0,0.1-0.1,1.3-0.1,1.3c0,0,0,0.1,0,0.1c0.1,0,0.3-0.1,0.4-0.1c0.3-0.1,0.5-0.2,0.7-0.4c0-0.4,0.1-0.9,0.1-0.9
		c-0.1-2.3-1.6-3.7-3.9-3.7c-2.3,0-3.8,1.4-3.9,3.7c0,0,0.1,1.2,0.1,1.4c0.3,2.3,0.7,2.8,1.3,3.4c0.1,0.1,0.2,0.2,0.3,0.3l0.2,0.2
		c0.1,0.1,0.2,0.2,0.3,0.3l-0.1,0.1c-0.2,0.4-0.2,0.5-0.6,0.6l-1.6,0.3c-1.2,0.2-1.9,0.6-2.3,2.2l-0.3,2.4h9.2
		C165.3,101.8,165,101.5,164.7,101.1z"/>
</g>
<g>
	<g class="st13">
		<polygon class="st21" points="152.3,101.6 137.7,101.6 138.5,98.1 151.5,98.1 		"/>
		<polygon class="st21" points="146.9,95.3 143.2,95.3 142.7,98.1 147.4,98.1 		"/>
		<path class="st21" d="M149.2,90.9c0,2.8-1.8,5.2-4.1,5.2s-4.1-2.3-4.1-5.2c0-0.1,0-1.1,0-1.1c0.1-2.8,1.9-4,4.1-4s4.1,1.3,4.1,4
			C149.2,89.8,149.2,90.8,149.2,90.9z"/>
	</g>
	<g class="st13">
		<rect x="137.7" y="98.1" class="st21" width="14.6" height="3.4"/>
		<rect x="143.2" y="95.3" class="st21" width="3.6" height="2.8"/>
		<ellipse class="st21" cx="145" cy="90.9" rx="4.1" ry="5.2"/>
	</g>
	<g class="st13">
		<polygon class="st21" points="152.3,101.6 137.7,101.6 138.5,98.1 151.5,98.1 		"/>
		<polygon class="st21" points="146.5,95.3 143.7,95.3 142.7,98.1 147.4,98.1 		"/>
		<path class="st21" d="M149.2,90.9c0,2.8-1.8,5.2-4.1,5.2s-4.1-2.3-4.1-5.2c0-0.1,0-1.1,0-1.1c0.1-2.8,1.9-4,4.1-4s4.1,1.3,4.1,4
			C149.2,89.8,149.2,90.8,149.2,90.9z"/>
	</g>
	<path class="st26" d="M148.8,98.1h-0.4c-0.7,0-1.3-0.4-1.5-1.1l-0.2-0.4c-0.1-0.4,0-0.8,0.3-1c0.9-1,2.1-2.8,2.1-4.7
		c0-0.1,0-1.1,0-1.1c-0.1-2.7-1.9-4-4.1-4c-2.2,0-4,1.2-4.1,4c0,0.1,0,1,0,1c0.5,3.2,1,3.7,2,4.8c0.3,0.2,0.3,0.6,0.2,1L143,97
		c-0.2,0.6-0.8,1.1-1.5,1.1h-1.6c-1.6,0-1.8,1.1-2.1,2.7l-0.2,0.8h14.6l-0.2-0.8C151.7,99.2,150.5,98.1,148.8,98.1z"/>
	<path class="st13" d="M145,85.9c-2.2,0-4,1-4.1,3.8c0,0.1,0.1,1.6,0.1,1.6c0.5,3.2,1,3.2,1.6,4c0.3,0.3,0.8,0.7,0.7,1.1l-0.1,0.2
		c-0.2,0.6-0.3,0.8-1.2,1.1l-2,0.3c-1.3,0.2-1.9,0.6-2.2,2.1l-0.1,1.3h7.3"/>
	<path class="st13" d="M145,85.9c2.2,0,4,1,4.1,3.8c0,0.1-0.1,1.6-0.1,1.6c-0.5,3.2-1,3.2-1.6,4c-0.3,0.3-0.8,0.7-0.7,1.1l0.1,0.2
		c0.2,0.6,0.3,0.8,1.2,1.1l2,0.3c1.3,0.2,1.9,0.6,2.2,2.1l0.2,1.3h-7.3"/>
	<g>
		<path d="M145.9,101.1h-6.5l0.1-1.2c0.2-1,0.5-1.2,1.5-1.4l1.6-0.3c0.8-0.2,1-0.5,1.3-1c0.2-0.6,0.2-0.8,0-1.2
			c0-0.1-0.1-0.1-0.2-0.2c-0.1-0.1-0.2-0.2-0.3-0.3l-0.1-0.1c-0.1-0.1-0.2-0.2-0.3-0.3c-0.4-0.4-0.7-0.7-1-2.8
			c0-0.1-0.1-1.4-0.1-1.4c0.1-2.2,1.6-2.7,2.9-2.7c1.3,0,2.8,0.5,2.9,2.7c0,0.1-0.1,1.3-0.1,1.3c-0.3,1.8-0.6,2.3-0.9,2.7l0.9-0.1
			l0.9-2c0-0.2,0.1-0.3,0.1-0.5c0,0,0.1-1.3,0.1-1.5c-0.1-2.3-1.6-3.7-3.9-3.7c-2.3,0-3.8,1.4-3.9,3.7c0,0,0.1,1.2,0.1,1.4
			c0.3,2.3,0.7,2.8,1.3,3.4c0.1,0.1,0.2,0.2,0.3,0.3l0.2,0.2c0.1,0.1,0.2,0.2,0.3,0.3l-0.1,0.1c-0.2,0.4-0.2,0.5-0.6,0.6l-1.6,0.3
			c-1.2,0.2-1.9,0.6-2.3,2.2l-0.3,2.4h7.4L145.9,101.1z"/>
	</g>
	<g id="Page-1">
		<g id="Core" transform="translate(-296.000000, -422.000000)">
			<g id="star" transform="translate(296.000000, 422.500000)">
				<path id="Shape" d="M150.1,100.5l3,1.8c0.3,0.2,0.7-0.1,0.6-0.5l-0.8-3.4l2.6-2.3c0.3-0.2,0.1-0.7-0.2-0.8l-3.5-0.3l-1.4-3.2
					c-0.1-0.3-0.6-0.3-0.8,0l-1.4,3.2l-3.5,0.3c-0.4,0-0.5,0.5-0.2,0.8l2.6,2.3l-0.8,3.4c-0.1,0.4,0.3,0.7,0.6,0.5L150.1,100.5z"/>
			</g>
		</g>
	</g>
</g>
<g id="Page-1_1_">
	<g id="Core_1_" transform="translate(-296.000000, -422.000000)">
		<g id="star_1_" transform="translate(296.000000, 422.500000)">
			<path id="Shape_1_" d="M201,108.9l4.6,2.7c0.5,0.3,1.1-0.1,1-0.7l-1.2-5.2l4-3.5c0.4-0.4,0.2-1.1-0.4-1.1l-5.3-0.5l-2.1-4.9
				c-0.2-0.5-1-0.5-1.2,0l-2.1,4.9l-5.3,0.5c-0.6,0-0.8,0.8-0.4,1.1l4,3.5l-1.2,5.2c-0.1,0.6,0.5,1,1,0.7L201,108.9z"/>
		</g>
	</g>
</g>
<path class="st1" d="M74.9,103.7v17.9H165v-17.9H74.9z M93,111.5l-3.5,3l1,4.5c0.1,0.5-0.4,0.9-0.8,0.6l-3.9-2.4l-3.9,2.4
	c-0.4,0.3-1-0.1-0.8-0.6l1-4.5l-3.5-3c-0.4-0.3-0.2-0.9,0.3-1l4.6-0.4l1.8-4.2c0.2-0.5,0.8-0.5,1,0l1.8,4.2l4.6,0.4
	C93.2,110.5,93.4,111.1,93,111.5z M109.7,111.5l-3.5,3l1,4.5c0.1,0.5-0.4,0.9-0.8,0.6l-3.9-2.4l-3.9,2.4c-0.4,0.3-1-0.1-0.8-0.6
	l1-4.5l-3.5-3c-0.4-0.3-0.2-0.9,0.3-1l4.6-0.4l1.8-4.2c0.2-0.5,0.8-0.5,1,0l1.8,4.2l4.6,0.4C109.9,110.5,110.1,111.1,109.7,111.5z
	 M126.7,111.5l-3.5,3l1,4.5c0.1,0.5-0.4,0.9-0.8,0.6l-3.9-2.4l-3.9,2.4c-0.4,0.3-1-0.1-0.8-0.6l1-4.5l-3.5-3c-0.4-0.3-0.2-0.9,0.3-1
	l4.6-0.4l1.8-4.2c0.2-0.5,0.8-0.5,1,0l1.8,4.2l4.6,0.4C126.8,110.5,127,111.1,126.7,111.5z M143.7,111.5l-3.5,3l1,4.5
	c0.1,0.5-0.4,0.9-0.8,0.6l-3.9-2.4l-3.9,2.4c-0.4,0.3-1-0.1-0.8-0.6l1-4.5l-3.5-3c-0.4-0.3-0.2-0.9,0.3-1l4.6-0.4l1.8-4.2
	c0.2-0.5,0.8-0.5,1,0l1.8,4.2l4.6,0.4C143.8,110.5,144,111.1,143.7,111.5z M161.3,111.5l-3.5,3l1,4.5c0.1,0.5-0.4,0.9-0.8,0.6
	l-3.9-2.4l-3.9,2.4c-0.4,0.3-1-0.1-0.8-0.6l1-4.5l-3.5-3c-0.4-0.3-0.2-0.9,0.3-1l4.6-0.4l1.8-4.2c0.2-0.5,0.8-0.5,1,0l1.8,4.2
	l4.6,0.4C161.5,110.5,161.7,111.1,161.3,111.5z"/>
<g>
	<polyline class="st31" points="221.6,110.3 228.1,103.8 221.5,97.3 	"/>
	<polyline class="st31" points="234.5,97.3 228,103.8 234.6,110.3 	"/>
</g>
<g>
	<polyline class="st31" points="223.5,144.3 228.1,139.8 223.4,135.2 	"/>
	<polyline class="st31" points="232.5,135.2 228,139.8 232.6,144.3 	"/>
</g>
<g>
	<path class="st41" d="M204.5,129.5h-7c-0.7,0-1.3-0.6-1.3-1.3v-10.6h9.5v10.6C205.8,129,205.2,129.5,204.5,129.5z"/>
	<g>
		<line class="st42" x1="194.8" y1="115.9" x2="207.2" y2="115.9"/>
		<line class="st41" x1="201" y1="115.5" x2="201" y2="114.5"/>
		<line class="st41" x1="199.8" y1="114.1" x2="202.2" y2="114.1"/>
	</g>
	<line class="st27" x1="201" y1="119.2" x2="201" y2="127.6"/>
	<line class="st27" x1="198.7" y1="119.2" x2="198.7" y2="127.6"/>
	<line class="st27" x1="203.3" y1="119.2" x2="203.3" y2="127.6"/>
</g>
<g>
	<circle cx="182.9" cy="100.2" r="0.8"/>
	<g class="st13">
		<path class="st21" d="M187.9,91.3h0.9c0-1.6-1.3-2.8-2.8-2.8v0.8C187.1,89.3,187.9,90.2,187.9,91.3z"/>
		<path class="st21" d="M189.6,91.1h0.9c0-2.4-1.9-4.3-4.3-4.3v0.9C188.1,87.7,189.6,89.2,189.6,91.1z"/>
	</g>
	<path d="M187.2,97.5h-1l0,3.9c0,0.1,0,0.2-0.1,0.3c-0.1,0.1-0.3,0.2-0.5,0.2h-5.8c-0.3,0-0.6-0.3-0.6-0.6v-12
		c0-0.3,0.3-0.6,0.6-0.6h5.8c0.3,0,0.6,0.3,0.6,0.6l0,0.6h1v-0.6c0-0.9-0.7-1.6-1.6-1.6h-5.8c-0.9,0-1.6,0.7-1.6,1.6v12
		c0,0.9,0.7,1.6,1.6,1.6h5.8c0.5,0,1-0.2,1.3-0.6c0.3-0.3,0.4-0.7,0.3-1V97.5z"/>
	<path d="M188.3,90.7h-5.7c-0.9,0-1.6,0.7-1.6,1.6v2.8c0,0.9,0.7,1.6,1.6,1.6h0.4v1.7l1.8-1.7h3.5c0.9,0,1.6-0.7,1.6-1.6v-2.8
		C189.9,91.4,189.2,90.7,188.3,90.7z"/>
</g>
<g>
	<path d="M226.5,130.4l-1.1-2.5c-0.5-0.2-1.1-0.5-1.5-0.9l-2.7,0.3l-1.4-2.5l1.6-2.2c-0.1-0.3-0.1-0.6-0.1-0.9c0-0.3,0-0.6,0.1-0.9
		l-1.6-2.2l1.4-2.5l2.7,0.3c0.5-0.4,1-0.7,1.6-0.9l1.1-2.5l2.9,0l1.1,2.5c0.6,0.2,1.1,0.6,1.6,1l2.7-0.3l1.4,2.5l-1.6,2.2
		c0,0.3,0.1,0.6,0.1,0.8c0,0.3,0,0.6-0.1,0.9l0,0l1.6,2.2l-1.4,2.5l-2.7-0.3c-0.5,0.4-1,0.7-1.6,0.9l-1.1,2.5L226.5,130.4z
		 M228,117.3c-2.4,0-4.4,2-4.4,4.4s2,4.4,4.4,4.4s4.4-2,4.4-4.4S230.4,117.3,228,117.3z"/>
	<path class="st1" d="M229.3,113.3l1,2.3l0,0.1c0.7,0.3,1.3,0.6,1.8,1.1l0,0l2.5-0.3l1.3,2.2l-1.5,2.1l-0.1,0c0.1,0.3,0.1,0.7,0.1,1
		c0,0.4,0,0.7-0.1,1l0.1,0l1.5,2.1l-1.3,2.2l-2.5-0.3l-0.1-0.1c-0.5,0.5-1.2,0.8-1.8,1.1l0,0.1l-1,2.3l-2.5,0l-1-2.4l0-0.1
		c-0.7-0.3-1.3-0.6-1.8-1l-0.1,0.1l-2.5,0.3l-1.3-2.2l1.5-2.1l0.1,0c-0.1-0.3-0.1-0.7-0.1-1.1c0-0.4,0-0.7,0.1-1l0,0l-1.5-2.1
		l1.3-2.2l2.5,0.3l0,0c0.5-0.4,1.1-0.8,1.8-1.1l0,0l1-2.4L229.3,113.3 M228,126.4c2.6,0,4.7-2.1,4.7-4.7s-2.1-4.7-4.7-4.7
		c-2.6,0-4.7,2.1-4.7,4.7S225.4,126.4,228,126.4 M229.6,112.8l-0.3,0l-2.5,0l-0.3,0l-0.1,0.3l-1,2.2c-0.5,0.2-1,0.5-1.5,0.9
		l-2.4-0.3l-0.3,0l-0.2,0.3l-1.3,2.2l-0.2,0.3l0.2,0.3l1.4,1.9c0,0.3-0.1,0.6-0.1,0.9c0,0.3,0,0.6,0.1,0.9l-1.5,2l-0.2,0.3l0.2,0.3
		l1.3,2.2l0.2,0.3l0.3,0l2.5-0.3c0.4,0.3,0.9,0.6,1.4,0.8l1,2.3l0.1,0.3l0.3,0l2.5,0l0.3,0l0.1-0.3l1-2.3c0.5-0.2,1-0.5,1.5-0.9
		l2.4,0.3l0.3,0l0.2-0.3l1.3-2.2l0.2-0.3l-0.2-0.3l-1.5-2c0-0.3,0.1-0.5,0.1-0.8c0-0.3,0-0.5-0.1-0.8l1.5-2l0.2-0.3l-0.2-0.3
		l-1.3-2.2l-0.2-0.3l-0.3,0l-2.4,0.3c-0.5-0.4-1-0.7-1.5-0.9l-1-2.2L229.6,112.8L229.6,112.8z M228,125.9c-2.3,0-4.2-1.9-4.2-4.2
		c0-2.3,1.9-4.2,4.2-4.2c2.3,0,4.2,1.9,4.2,4.2C232.2,124,230.3,125.9,228,125.9L228,125.9z"/>
</g>
<g>
	<g>
		<g>
			<path class="st43" d="M19,139.4l-3.5,3l1,4.5c0.1,0.5-0.4,0.9-0.8,0.6l-3.9-2.4l-3.9,2.4c-0.4,0.3-1-0.1-0.8-0.6l1-4.5l-3.5-3
				c-0.4-0.3-0.2-0.9,0.3-1l4.6-0.4l1.8-4.2c0.2-0.5,0.8-0.5,1,0l1.8,4.2l4.6,0.4C19.2,138.4,19.4,139,19,139.4z"/>
		</g>
		<g>
			<path class="st43" d="M35.7,139.4l-3.5,3l1,4.5c0.1,0.5-0.4,0.9-0.8,0.6l-3.9-2.4l-3.9,2.4c-0.4,0.3-1-0.1-0.8-0.6l1-4.5l-3.5-3
				c-0.4-0.3-0.2-0.9,0.3-1l4.6-0.4l1.8-4.2c0.2-0.5,0.8-0.5,1,0l1.8,4.2l4.6,0.4C35.8,138.4,36,139,35.7,139.4z"/>
		</g>
		<g>
			<path class="st43" d="M52.6,139.4l-3.5,3l1,4.5c0.1,0.5-0.4,0.9-0.8,0.6l-3.9-2.4l-3.9,2.4c-0.4,0.3-1-0.1-0.8-0.6l1-4.5l-3.5-3
				c-0.4-0.3-0.2-0.9,0.3-1l4.6-0.4l1.8-4.2c0.2-0.5,0.8-0.5,1,0l1.8,4.2l4.6,0.4C52.8,138.4,53,139,52.6,139.4z"/>
		</g>
		<g>
			<path class="st43" d="M69.6,139.4l-3.5,3l1,4.5c0.1,0.5-0.4,0.9-0.8,0.6l-3.9-2.4l-3.9,2.4c-0.4,0.3-1-0.1-0.8-0.6l1-4.5l-3.5-3
				c-0.4-0.3-0.2-0.9,0.3-1l4.6-0.4l1.8-4.2c0.2-0.5,0.8-0.5,1,0l1.8,4.2l4.6,0.4C69.8,138.4,70,139,69.6,139.4z"/>
		</g>
		<g>
			<path class="st43" d="M87.3,139.4l-3.5,3l1,4.5c0.1,0.5-0.4,0.9-0.8,0.6l-3.9-2.4l-3.9,2.4c-0.4,0.3-1-0.1-0.8-0.6l1-4.5l-3.5-3
				c-0.4-0.3-0.2-0.9,0.3-1l4.6-0.4l1.8-4.2c0.2-0.5,0.8-0.5,1,0l1.8,4.2l4.6,0.4C87.4,138.4,87.6,139,87.3,139.4z"/>
		</g>
	</g>
	<g>
		<g>
			<path class="st43" d="M19,157.2l-3.5,3l1,4.5c0.1,0.5-0.4,0.9-0.8,0.6l-3.9-2.4l-3.9,2.4c-0.4,0.3-1-0.1-0.8-0.6l1-4.5l-3.5-3
				c-0.4-0.3-0.2-0.9,0.3-1l4.6-0.4l1.8-4.2c0.2-0.5,0.8-0.5,1,0l1.8,4.2l4.6,0.4C19.2,156.3,19.4,156.9,19,157.2z"/>
		</g>
		<g>
			<path class="st43" d="M35.7,157.2l-3.5,3l1,4.5c0.1,0.5-0.4,0.9-0.8,0.6l-3.9-2.4l-3.9,2.4c-0.4,0.3-1-0.1-0.8-0.6l1-4.5l-3.5-3
				c-0.4-0.3-0.2-0.9,0.3-1l4.6-0.4l1.8-4.2c0.2-0.5,0.8-0.5,1,0l1.8,4.2l4.6,0.4C35.8,156.3,36,156.9,35.7,157.2z"/>
		</g>
		<g>
			<path class="st43" d="M52.6,157.2l-3.5,3l1,4.5c0.1,0.5-0.4,0.9-0.8,0.6l-3.9-2.4l-3.9,2.4c-0.4,0.3-1-0.1-0.8-0.6l1-4.5l-3.5-3
				c-0.4-0.3-0.2-0.9,0.3-1l4.6-0.4l1.8-4.2c0.2-0.5,0.8-0.5,1,0l1.8,4.2l4.6,0.4C52.8,156.3,53,156.9,52.6,157.2z"/>
		</g>
		<g>
			<path class="st43" d="M69.6,157.2l-3.5,3l1,4.5c0.1,0.5-0.4,0.9-0.8,0.6l-3.9-2.4l-3.9,2.4c-0.4,0.3-1-0.1-0.8-0.6l1-4.5l-3.5-3
				c-0.4-0.3-0.2-0.9,0.3-1l4.6-0.4l1.8-4.2c0.2-0.5,0.8-0.5,1,0l1.8,4.2l4.6,0.4C69.8,156.3,70,156.9,69.6,157.2z"/>
		</g>
		<g>
			<path class="st44" d="M87.3,157.2l-3.5,3l1,4.5c0.1,0.5-0.4,0.9-0.8,0.6l-3.9-2.4l-3.9,2.4c-0.4,0.3-1-0.1-0.8-0.6l1-4.5l-3.5-3
				c-0.4-0.3-0.2-0.9,0.3-1l4.6-0.4l1.8-4.2c0.2-0.5,0.8-0.5,1,0l1.8,4.2l4.6,0.4C87.4,156.3,87.6,156.9,87.3,157.2z"/>
		</g>
	</g>
	<g>
		<g>
			<path class="st43" d="M19,175.4l-3.5,3l1,4.5c0.1,0.5-0.4,0.9-0.8,0.6l-3.9-2.4l-3.9,2.4c-0.4,0.3-1-0.1-0.8-0.6l1-4.5l-3.5-3
				c-0.4-0.3-0.2-0.9,0.3-1l4.6-0.4l1.8-4.2c0.2-0.5,0.8-0.5,1,0l1.8,4.2l4.6,0.4C19.2,174.4,19.4,175.1,19,175.4z"/>
		</g>
		<g>
			<path class="st43" d="M35.7,175.4l-3.5,3l1,4.5c0.1,0.5-0.4,0.9-0.8,0.6l-3.9-2.4l-3.9,2.4c-0.4,0.3-1-0.1-0.8-0.6l1-4.5l-3.5-3
				c-0.4-0.3-0.2-0.9,0.3-1l4.6-0.4l1.8-4.2c0.2-0.5,0.8-0.5,1,0l1.8,4.2l4.6,0.4C35.8,174.4,36,175.1,35.7,175.4z"/>
		</g>
		<g>
			<path class="st43" d="M52.6,175.4l-3.5,3l1,4.5c0.1,0.5-0.4,0.9-0.8,0.6l-3.9-2.4l-3.9,2.4c-0.4,0.3-1-0.1-0.8-0.6l1-4.5l-3.5-3
				c-0.4-0.3-0.2-0.9,0.3-1l4.6-0.4l1.8-4.2c0.2-0.5,0.8-0.5,1,0l1.8,4.2l4.6,0.4C52.8,174.4,53,175.1,52.6,175.4z"/>
		</g>
		<g>
			<path class="st44" d="M69.6,175.4l-3.5,3l1,4.5c0.1,0.5-0.4,0.9-0.8,0.6l-3.9-2.4l-3.9,2.4c-0.4,0.3-1-0.1-0.8-0.6l1-4.5l-3.5-3
				c-0.4-0.3-0.2-0.9,0.3-1l4.6-0.4l1.8-4.2c0.2-0.5,0.8-0.5,1,0l1.8,4.2l4.6,0.4C69.8,174.4,70,175.1,69.6,175.4z"/>
		</g>
		<g>
			<path class="st44" d="M87.3,175.4l-3.5,3l1,4.5c0.1,0.5-0.4,0.9-0.8,0.6l-3.9-2.4l-3.9,2.4c-0.4,0.3-1-0.1-0.8-0.6l1-4.5l-3.5-3
				c-0.4-0.3-0.2-0.9,0.3-1l4.6-0.4l1.8-4.2c0.2-0.5,0.8-0.5,1,0l1.8,4.2l4.6,0.4C87.4,174.4,87.6,175.1,87.3,175.4z"/>
		</g>
	</g>
	<g>
		<g>
			<path class="st43" d="M19,193.3l-3.5,3l1,4.5c0.1,0.5-0.4,0.9-0.8,0.6l-3.9-2.4l-3.9,2.4c-0.4,0.3-1-0.1-0.8-0.6l1-4.5l-3.5-3
				c-0.4-0.3-0.2-0.9,0.3-1l4.6-0.4l1.8-4.2c0.2-0.5,0.8-0.5,1,0l1.8,4.2l4.6,0.4C19.2,192.3,19.4,192.9,19,193.3z"/>
		</g>
		<g>
			<path class="st43" d="M35.7,193.3l-3.5,3l1,4.5c0.1,0.5-0.4,0.9-0.8,0.6l-3.9-2.4l-3.9,2.4c-0.4,0.3-1-0.1-0.8-0.6l1-4.5l-3.5-3
				c-0.4-0.3-0.2-0.9,0.3-1l4.6-0.4l1.8-4.2c0.2-0.5,0.8-0.5,1,0l1.8,4.2l4.6,0.4C35.8,192.3,36,192.9,35.7,193.3z"/>
		</g>
		<g>
			<path class="st44" d="M52.6,193.3l-3.5,3l1,4.5c0.1,0.5-0.4,0.9-0.8,0.6l-3.9-2.4l-3.9,2.4c-0.4,0.3-1-0.1-0.8-0.6l1-4.5l-3.5-3
				c-0.4-0.3-0.2-0.9,0.3-1l4.6-0.4l1.8-4.2c0.2-0.5,0.8-0.5,1,0l1.8,4.2l4.6,0.4C52.8,192.3,53,192.9,52.6,193.3z"/>
		</g>
		<g>
			<path class="st44" d="M69.6,193.3l-3.5,3l1,4.5c0.1,0.5-0.4,0.9-0.8,0.6l-3.9-2.4l-3.9,2.4c-0.4,0.3-1-0.1-0.8-0.6l1-4.5l-3.5-3
				c-0.4-0.3-0.2-0.9,0.3-1l4.6-0.4l1.8-4.2c0.2-0.5,0.8-0.5,1,0l1.8,4.2l4.6,0.4C69.8,192.3,70,192.9,69.6,193.3z"/>
		</g>
		<g>
			<path class="st44" d="M87.3,193.3l-3.5,3l1,4.5c0.1,0.5-0.4,0.9-0.8,0.6l-3.9-2.4l-3.9,2.4c-0.4,0.3-1-0.1-0.8-0.6l1-4.5l-3.5-3
				c-0.4-0.3-0.2-0.9,0.3-1l4.6-0.4l1.8-4.2c0.2-0.5,0.8-0.5,1,0l1.8,4.2l4.6,0.4C87.4,192.3,87.6,192.9,87.3,193.3z"/>
		</g>
	</g>
	<g>
		<g>
			<path class="st43" d="M19,211.6l-3.5,3l1,4.5c0.1,0.5-0.4,0.9-0.8,0.6l-3.9-2.4l-3.9,2.4c-0.4,0.3-1-0.1-0.8-0.6l1-4.5l-3.5-3
				c-0.4-0.3-0.2-0.9,0.3-1l4.6-0.4l1.8-4.2c0.2-0.5,0.8-0.5,1,0l1.8,4.2l4.6,0.4C19.2,210.7,19.4,211.3,19,211.6z"/>
		</g>
		<g>
			<path class="st44" d="M35.7,211.6l-3.5,3l1,4.5c0.1,0.5-0.4,0.9-0.8,0.6l-3.9-2.4l-3.9,2.4c-0.4,0.3-1-0.1-0.8-0.6l1-4.5l-3.5-3
				c-0.4-0.3-0.2-0.9,0.3-1l4.6-0.4l1.8-4.2c0.2-0.5,0.8-0.5,1,0l1.8,4.2l4.6,0.4C35.8,210.7,36,211.3,35.7,211.6z"/>
		</g>
		<g>
			<path class="st44" d="M52.6,211.6l-3.5,3l1,4.5c0.1,0.5-0.4,0.9-0.8,0.6l-3.9-2.4l-3.9,2.4c-0.4,0.3-1-0.1-0.8-0.6l1-4.5l-3.5-3
				c-0.4-0.3-0.2-0.9,0.3-1l4.6-0.4l1.8-4.2c0.2-0.5,0.8-0.5,1,0l1.8,4.2l4.6,0.4C52.8,210.7,53,211.3,52.6,211.6z"/>
		</g>
		<g>
			<path class="st44" d="M69.6,211.6l-3.5,3l1,4.5c0.1,0.5-0.4,0.9-0.8,0.6l-3.9-2.4l-3.9,2.4c-0.4,0.3-1-0.1-0.8-0.6l1-4.5l-3.5-3
				c-0.4-0.3-0.2-0.9,0.3-1l4.6-0.4l1.8-4.2c0.2-0.5,0.8-0.5,1,0l1.8,4.2l4.6,0.4C69.8,210.7,70,211.3,69.6,211.6z"/>
		</g>
		<g>
			<path class="st44" d="M87.3,211.6l-3.5,3l1,4.5c0.1,0.5-0.4,0.9-0.8,0.6l-3.9-2.4l-3.9,2.4c-0.4,0.3-1-0.1-0.8-0.6l1-4.5l-3.5-3
				c-0.4-0.3-0.2-0.9,0.3-1l4.6-0.4l1.8-4.2c0.2-0.5,0.8-0.5,1,0l1.8,4.2l4.6,0.4C87.4,210.7,87.6,211.3,87.3,211.6z"/>
		</g>
	</g>
</g>
<g class="st13">
	<g class="st22">
		<g>
			<path class="st23" d="M122.8,70.5c0-0.3,0.1-0.6,0.1-0.9c0-0.3,0-0.6-0.1-0.8l0.1,0l1.3-1.7l-1.1-1.8l-2.1,0.2l0,0
				c-0.5-0.4-1-0.7-1.5-0.9l0,0l-0.8-1.9l-2.1,0l-0.8,1.9l0,0c-0.5,0.2-1,0.5-1.5,0.9l0,0l-2.1-0.2l-1,1.8l1.3,1.7l0,0
				c0,0.3-0.1,0.6-0.1,0.9c0,0.3,0,0.6,0.1,0.9l-0.1,0l-1.3,1.7l1,1.8l2.1-0.2l0.1-0.1c0.4,0.4,0.9,0.7,1.5,0.9l0,0.1l0.8,1.9l2.1,0
				l0.8-1.9l0-0.1c0.6-0.2,1.1-0.5,1.5-0.9l0,0l2.1,0.2l1.1-1.8L122.8,70.5L122.8,70.5z M117.6,73.4c-2.1,0-3.8-1.7-3.8-3.8
				c0-2.1,1.7-3.8,3.8-3.8c2.1,0,3.8,1.7,3.8,3.8C121.4,71.7,119.7,73.4,117.6,73.4z"/>
		</g>
	</g>
	<g class="st22">
		<g>
			<path class="st23" d="M127.8,63.1c0-0.1,0-0.3,0-0.4c0-0.1,0-0.3,0-0.4l0,0l0.7-0.9l-0.6-0.9l-1.1,0.1l0,0
				c-0.2-0.2-0.5-0.4-0.8-0.5l0,0l-0.4-1l-1.1,0l-0.4,1l0,0c-0.3,0.1-0.5,0.3-0.8,0.5l0,0l-1.1-0.1l-0.5,0.9l0.7,0.9l0,0
				c0,0.1,0,0.3,0,0.4c0,0.2,0,0.3,0,0.5l0,0l-0.7,0.9l0.5,0.9l1.1-0.1l0,0c0.2,0.2,0.5,0.3,0.8,0.5l0,0l0.4,1l1.1,0l0.4-1l0,0
				c0.3-0.1,0.6-0.3,0.8-0.5l0,0l1.1,0.1l0.6-0.9L127.8,63.1L127.8,63.1z M125.1,64.7c-1.1,0-2-0.9-2-2c0-1.1,0.9-2,2-2
				c1.1,0,2,0.9,2,2C127.1,63.8,126.2,64.7,125.1,64.7z"/>
		</g>
	</g>
</g>
<g class="st13">
	<path class="st14" d="M72.3,75H59.7c-0.4,0-0.8-0.4-0.8-0.8V67H73v7.2C73,74.6,72.7,75,72.3,75z"/>
	<path class="st14" d="M74.1,67H57.9v-2.8c0-0.5,0.4-0.9,0.9-0.9h14.4c0.5,0,0.9,0.4,0.9,0.9V67z"/>
	<g class="st22">
		<rect x="64.5" y="63.6" class="st1" width="3.1" height="11.2"/>
		<path class="st45" d="M67.3,63.8v10.7h-2.6V63.8H67.3 M67.8,63.3h-3.6V75h3.6V63.3L67.8,63.3z"/>
	</g>
	<path class="st46" d="M66.5,62.1h-5.7c-0.5,0-0.9-0.6-0.9-1.3l0,0c0-0.9,0.6-1.5,1.2-1.2L66.5,62.1z"/>
	<path class="st46" d="M65.4,62.1h5.7c0.5,0,0.9-0.6,0.9-1.3l0,0c0-0.9-0.6-1.5-1.2-1.2L65.4,62.1z"/>
</g>
<g>
	<circle class="st12" cx="93" cy="67.9" r="7.8"/>
	<path class="st12" d="M94.6,60.1c0.7,4.3,2.2,6.2,6.1,6.4"/>
	<path class="st12" d="M88.1,61.7c6.4,2.7,9.5,5.8,10.8,11.2"/>
	<path class="st12" d="M85.1,68.1c8.2-3.2,11.7,0.2,7.9,7.6"/>
	<path class="st12" d="M87,73.1c5.3-3.5,10.2-7.1,11.2-10.9"/>
</g>
<g class="st13">
	<path class="st14" d="M181.3,27h-14.4c-0.5,0-0.9,0.4-0.9,0.9v2.6h0V38c0,0.4,0.4,0.8,0.8,0.8l14.6,0c0.4,0,0.8-0.4,0.8-0.8v-7.2
		v-0.2v-2.5C182.2,27.4,181.8,27,181.3,27z"/>
	<path class="st14" d="M176.7,26.9h-5.3v-1.2c0-0.6,0.5-1.1,1.1-1.1h3c0.6,0,1.1,0.5,1.1,1.1V26.9z"/>
	<polygon class="st21" points="177.8,31.5 175.4,31.5 175.4,29.1 172.7,29.1 172.7,31.5 170.3,31.5 170.3,34.2 172.7,34.2 
		172.7,36.6 175.4,36.6 175.4,34.2 177.8,34.2 	"/>
</g>
<g class="st13">
	<g class="st22">
		<path class="st47" d="M151.9,73.4h-10c-1.3,0-2.3-1-2.3-2.3v-6.8c0-1.3,1-2.3,2.3-2.3h10c1.3,0,2.3,1,2.3,2.3v6.8
			C154.2,72.4,153.2,73.4,151.9,73.4z"/>
	</g>
	<circle class="st14" cx="145" cy="65.4" r="1.4"/>
	<circle class="st14" cx="149.8" cy="70.4" r="1.4"/>
	<line class="st48" x1="150.1" y1="64" x2="144.4" y2="71.6"/>
</g>
<g>
	<path class="st10" d="M174,55l2.9-2.9c0,0,0,0,0,0c-1.6-1.6-4.3-1.6-5.9,0L174,55z"/>
	<path class="st10" d="M169.7,50.7c2.4-2.4,6.2-2.4,8.5,0c0,0,0,0,0,0l1.6-1.6c0,0,0,0,0,0c-3.3-3.3-8.5-3.3-11.8,0L169.7,50.7z"/>
	<path class="st10" d="M166.8,47.8c4-4,10.5-4,14.4,0c0,0,0,0,0,0l1.6-1.6c0,0,0,0,0,0c-4.9-4.9-12.8-4.9-17.7,0L166.8,47.8z"/>
</g>
<path class="st10" d="M127.9,47.8c-0.3-0.3-0.7-0.5-1.3-0.5h-0.4v-1.1c0-0.7-0.6-1.2-1.2-1.2h-7.2l-0.4-0.9
	c-0.2-0.4-0.6-0.7-1.1-0.7h-3.8c-0.7,0-1.2,0.6-1.2,1.2v10.6c0,0.7,0.6,1.2,1.2,1.2h0.4h12.2h0c0.7,0,1.2-0.4,1.4-1l1.5-6.5
	C128.2,48.5,128.2,48.1,127.9,47.8z M112.1,44.6c0-0.3,0.2-0.5,0.5-0.5h3.8c0.2,0,0.3,0.1,0.4,0.2l0.6,1.3h7.7
	c0.3,0,0.5,0.2,0.5,0.5v1.1h-11c-0.7,0-1.2,0.4-1.4,1l-1.1,4.6V44.6z M127.4,48.7l-1.5,6.4l0,0.1c0,0.3-0.2,0.5-0.5,0.5h-0.2H113
	c-0.2,0-0.4-0.1-0.5-0.2c-0.1-0.1-0.1-0.3-0.1-0.4l1.6-6.5c0.1-0.3,0.3-0.5,0.6-0.5h11.9h0.4c0.2,0,0.4,0.1,0.5,0.2
	C127.4,48.4,127.5,48.6,127.4,48.7z"/>
<g>
	<circle class="st16" cx="65.8" cy="67.8" r="7.2"/>
	<g>
		<path class="st12" d="M61.7,61.9c5.2,3.2,6.7,7,7.2,12.5"/>
		<path class="st12" d="M63.4,61c5.2,3.2,6.7,6.8,7.1,12.3"/>
		<path class="st12" d="M66,60.6c4.5,3.4,5.3,5.4,6.1,10.8"/>
	</g>
	<g>
		<path class="st12" d="M60.4,72.9c3.3-5.6,6.4-7,12.3-7.7"/>
		<path class="st12" d="M59.3,71.2c3.3-5.6,6.4-7,12.3-7.8"/>
		<path class="st12" d="M58.6,68.7c3.5-4.8,5.3-5.8,11.1-6.9"/>
	</g>
	<g>
		<path class="st12" d="M72.5,70.5c-5.8,0.7-9.1-1.4-13.4-5.4"/>
		<path class="st12" d="M71.9,71.9c-5.8,0.7-9-1-13.3-5"/>
		<path class="st12" d="M70,73.7c-5.4,0.1-6.9-0.9-11.3-4.6"/>
	</g>
	<path class="st12" d="M71.3,72.6c0,0,2.8,0,3.1,1c0.2,0.9-0.7,1.4-1.5,1.7c-1.9,0.7-3.3,0.5-3.3,0.5"/>
	<g>
		<circle class="st16" cx="59.2" cy="59.8" r="0.6"/>
		<line class="st16" x1="58.9" y1="59.4" x2="64.9" y2="66.6"/>
	</g>
	<g>
		<circle class="st16" cx="58.2" cy="62.1" r="0.6"/>
		<line class="st16" x1="57.7" y1="61.8" x2="64.9" y2="67.9"/>
	</g>
</g>
<g class="st13">
	<g>
		<path class="st21" d="M154.8,63.3c0.1,0,0.1,0.1,0.1,0.1v1.7c-1,0.4-1.7,1.4-1.7,2.5s0.7,2.1,1.7,2.5V72c0,0.1-0.1,0.1-0.1,0.1
			h-15.7c-0.1,0-0.1-0.1-0.1-0.1v-1.7c1-0.4,1.7-1.4,1.7-2.5c0-1.2-0.7-2.1-1.7-2.5v-1.7c0-0.1,0.1-0.1,0.1-0.1H154.8 M154.8,62.3
			h-15.7c-0.6,0-1.1,0.5-1.1,1.1V66c1,0,1.7,0.8,1.7,1.7c0,1-0.8,1.7-1.7,1.7V72c0,0.6,0.5,1.1,1.1,1.1h15.7c0.6,0,1.1-0.5,1.1-1.1
			v-2.5c-1,0-1.7-0.8-1.7-1.7c0-1,0.8-1.7,1.7-1.7v-2.5C156,62.9,155.5,62.3,154.8,62.3L154.8,62.3z"/>
	</g>
	<line class="st49" x1="149.6" y1="62.9" x2="149.6" y2="72.6"/>
	<g>
		<circle class="st14" cx="144" cy="65.1" r="1.1"/>
		<circle class="st14" cx="146.2" cy="70" r="1.4"/>
		<line class="st48" x1="147" y1="63.6" x2="142.8" y2="71.8"/>
	</g>
	<rect x="140.8" y="65" class="st50" width="10.7" height="5.5"/>
	<g class="st22">
		<path class="st43" d="M154.8,63.3c0.1,0,0.1,0.1,0.1,0.1v1.7c-1,0.4-1.7,1.4-1.7,2.5s0.7,2.1,1.7,2.5V72c0,0.1-0.1,0.1-0.1,0.1
			h-15.7c-0.1,0-0.1-0.1-0.1-0.1v-8.5c0-0.1,0.1-0.1,0.1-0.1H154.8 M154.8,62.3h-15.7c-0.6,0-1.1,0.5-1.1,1.1V72
			c0,0.6,0.5,1.1,1.1,1.1h15.7c0.6,0,1.1-0.5,1.1-1.1v-2.5c-1,0-1.7-0.8-1.7-1.7c0-1,0.8-1.7,1.7-1.7v-2.5
			C156,62.9,155.5,62.3,154.8,62.3L154.8,62.3z"/>
	</g>
	<rect x="138.8" y="63.2" class="st51" width="5.2" height="9.1"/>
</g>
<g class="st13">
	<path class="st52" d="M155.5,71.5V64c-0.7,0-1.3-0.6-1.3-1.3h-14.5c0,0.7-0.6,1.3-1.3,1.3v7.6c0.7,0,1.3,0.6,1.3,1.3h14.5
		C154.2,72.1,154.8,71.5,155.5,71.5z"/>
	<g class="st22">
		<path class="st43" d="M152.7,64.8c0.3,0,0.6,0.3,0.6,0.6v4.7c0,0.3-0.3,0.6-0.6,0.6h-11.4c-0.3,0-0.6-0.3-0.6-0.6v-4.7
			c0-0.3,0.3-0.6,0.6-0.6H152.7 M152.7,64.3h-11.4c-0.6,0-1.1,0.5-1.1,1.1v4.7c0,0.6,0.5,1.1,1.1,1.1h11.4c0.6,0,1.1-0.5,1.1-1.1
			v-4.7C153.8,64.8,153.3,64.3,152.7,64.3L152.7,64.3z"/>
	</g>
	<line class="st53" x1="151.4" y1="64.8" x2="151.4" y2="70.7"/>
	<line class="st53" x1="142.6" y1="64.8" x2="142.6" y2="70.7"/>
</g>
<g>
	<circle class="st11" cx="120" cy="67.9" r="6.3"/>
	<g>
		<g>
			<line class="st54" x1="111.8" y1="67.8" x2="113.7" y2="67.8"/>
			<line class="st54" x1="126.3" y1="67.8" x2="128.2" y2="67.8"/>
		</g>
		<g>
			<line class="st54" x1="112.9" y1="71.8" x2="114.6" y2="70.9"/>
			<line class="st54" x1="125.4" y1="64.6" x2="127.1" y2="63.7"/>
		</g>
		<g>
			<line class="st54" x1="112.9" y1="63.7" x2="114.6" y2="64.6"/>
			<line class="st54" x1="125.4" y1="70.9" x2="127.1" y2="71.8"/>
		</g>
	</g>
	<g>
		<g>
			<line class="st54" x1="120" y1="59.6" x2="120" y2="61.5"/>
			<line class="st54" x1="120" y1="74" x2="120" y2="75.9"/>
		</g>
		<g>
			<line class="st54" x1="115.9" y1="60.7" x2="116.9" y2="62.3"/>
			<line class="st54" x1="123.1" y1="73.2" x2="124.1" y2="74.8"/>
		</g>
		<g>
			<line class="st54" x1="124.1" y1="60.7" x2="123.1" y2="62.3"/>
			<line class="st54" x1="116.9" y1="73.2" x2="115.9" y2="74.8"/>
		</g>
	</g>
	<g>
		<path class="st10" d="M120,66.8c0.6,0,1.1,0.5,1.1,1.1S120.6,69,120,69s-1.1-0.5-1.1-1.1S119.4,66.8,120,66.8 M120,64.8
			c-1.7,0-3.1,1.4-3.1,3.1s1.4,3.1,3.1,3.1s3.1-1.4,3.1-3.1S121.7,64.8,120,64.8L120,64.8z"/>
	</g>
	<circle class="st11" cx="120" cy="67.9" r="5.3"/>
</g>
<g>
	<path class="st20" d="M180.5,26.8c-0.7-0.9-1.8-1.5-3.1-1.5c-1.7,0-2.7,1-3.5,2.3c-0.7-1.2-1.7-2.3-3.5-2.3c-1.3,0-2.4,0.6-3.1,1.5
		c-0.6,0.8-1.3,3.2-0.2,5.6s3.3,5,6.7,6.3c3.5-1.3,5.6-4,6.7-6.3S181.1,27.7,180.5,26.8z"/>
	<polyline class="st55" points="166.9,32.1 169.2,32.1 170.4,27.7 171.8,35.1 173.1,29.7 173.8,34 175.4,30.6 176,32 180.9,32.1 	
		"/>
</g>
<g>
	<line class="st11" x1="138.7" y1="63" x2="138.7" y2="74.7"/>
	<line class="st11" x1="155.3" y1="63" x2="155.3" y2="74.7"/>
	<line class="st11" x1="140.2" y1="63" x2="140.2" y2="73.5"/>
	<line class="st12" x1="141.5" y1="63" x2="141.5" y2="73.5"/>
	<line class="st12" x1="142.7" y1="63" x2="142.7" y2="73.5"/>
	<line class="st11" x1="144" y1="63" x2="144" y2="73.5"/>
	<line class="st12" x1="145.2" y1="63" x2="145.2" y2="73.5"/>
	<line class="st11" x1="146.5" y1="63" x2="146.5" y2="73.5"/>
	<line class="st12" x1="147.6" y1="63" x2="147.6" y2="73.5"/>
	<line class="st12" x1="148.9" y1="63" x2="148.9" y2="73.5"/>
	<line class="st12" x1="150.1" y1="63" x2="150.1" y2="73.5"/>
	<line class="st11" x1="151.4" y1="63" x2="151.4" y2="73.5"/>
	<line class="st56" x1="152.6" y1="63" x2="152.6" y2="73.5"/>
	<line class="st11" x1="153.8" y1="63" x2="153.8" y2="73.5"/>
	<g>
		<line class="st12" x1="140.2" y1="74.8" x2="140.2" y2="75.9"/>
		<line class="st12" x1="141.5" y1="74.8" x2="141.5" y2="75.9"/>
		<line class="st12" x1="142.7" y1="74.8" x2="142.7" y2="75.9"/>
		<line class="st11" x1="144" y1="74.8" x2="144" y2="75.9"/>
		<line class="st12" x1="145.2" y1="74.8" x2="145.2" y2="75.9"/>
		<line class="st11" x1="146.5" y1="74.8" x2="146.5" y2="75.9"/>
		<line class="st12" x1="147.6" y1="74.8" x2="147.6" y2="75.9"/>
		<line class="st12" x1="148.9" y1="74.8" x2="148.9" y2="75.9"/>
		<line class="st12" x1="150.1" y1="74.8" x2="150.1" y2="75.9"/>
		<line class="st11" x1="151.4" y1="74.8" x2="151.4" y2="75.9"/>
		<line class="st56" x1="152.6" y1="74.8" x2="152.6" y2="75.9"/>
		<line class="st12" x1="153.8" y1="74.8" x2="153.8" y2="75.9"/>
	</g>
</g>
<g>
	<path class="st11" d="M31.9,61.9v10h1.7c0.1-0.8,0.7-1.5,1.6-1.5c0.8,0,1.5,0.6,1.6,1.5h5.4v-10H31.9z"/>
	<path class="st11" d="M44.6,64.8h-2.4v7.1h1c0.1-0.8,0.7-1.5,1.6-1.5s1.5,0.6,1.6,1.5h1v-4.5C47.2,66,46,64.8,44.6,64.8z"/>
	<circle class="st11" cx="35.2" cy="72" r="1.6"/>
	<circle class="st11" cx="44.7" cy="72" r="1.6"/>
</g>
<g>
	<line class="st11" x1="63.9" y1="45.1" x2="74" y2="45.1"/>
	<line class="st11" x1="63.9" y1="47.4" x2="74" y2="47.4"/>
	<line class="st11" x1="58.2" y1="49.8" x2="74" y2="49.8"/>
	<line class="st11" x1="58.2" y1="52.3" x2="74" y2="52.3"/>
	<line class="st11" x1="58.2" y1="54.9" x2="74" y2="54.9"/>
	<g>
		<path class="st10" d="M61.6,44.2V47h-2.4v-2.8H61.6 M62.6,43.2h-4.4V48h4.4V43.2L62.6,43.2z"/>
	</g>
</g>
<g>
	<g>
		<circle class="st10" cx="33.8" cy="26.5" r="1.3"/>
		<circle class="st10" cx="33.8" cy="30" r="1.3"/>
	</g>
	<g>
		<circle class="st10" cx="33.8" cy="33.6" r="1.3"/>
		<circle class="st10" cx="33.8" cy="37.1" r="1.3"/>
	</g>
	<line class="st11" x1="37.1" y1="26.5" x2="44.9" y2="26.5"/>
	<line class="st11" x1="37.1" y1="30" x2="44.9" y2="30"/>
	<line class="st11" x1="37.1" y1="33.6" x2="44.9" y2="33.6"/>
	<line class="st11" x1="37.1" y1="37.1" x2="44.9" y2="37.1"/>
</g>
<g>
	<path class="st12" d="M73.2,37.1H59c-0.6,0-1.1-0.5-1.1-1.1v-8.4c0-0.6,0.5-1.1,1.1-1.1h14.2c0.6,0,1.1,0.5,1.1,1.1V36
		C74.3,36.6,73.8,37.1,73.2,37.1z"/>
	<line class="st57" x1="57.9" y1="30.2" x2="74.3" y2="30.2"/>
	<line class="st11" x1="60" y1="34.1" x2="65.3" y2="34.1"/>
</g>
<g>
	<g>
		<rect x="115.6" y="24.1" class="st12" width="8.9" height="14.7"/>
	</g>
	<g>
		<rect x="117.4" y="25.8" class="st10" width="1.8" height="1.8"/>
		<rect x="120.8" y="25.8" class="st10" width="1.8" height="1.8"/>
	</g>
	<g>
		<rect x="117.4" y="29" class="st10" width="1.8" height="1.8"/>
		<rect x="120.8" y="29" class="st10" width="1.8" height="1.8"/>
	</g>
	<g>
		<rect x="117.4" y="32.2" class="st10" width="1.8" height="1.8"/>
		<rect x="120.8" y="32.2" class="st10" width="1.8" height="1.8"/>
	</g>
	<g>
		<rect x="117.4" y="35.4" class="st10" width="1.8" height="1.8"/>
		<rect x="120.8" y="35.4" class="st10" width="1.8" height="1.8"/>
	</g>
	<line class="st54" x1="113.6" y1="39.4" x2="126.4" y2="39.4"/>
</g>
</svg>
