<?xml version="1.0" encoding="utf-8"?>
<!-- Generator: Adobe Illustrator 19.1.1, SVG Export Plug-In . SVG Version: 6.00 Build 0)  -->
<svg version="1.1" id="Layer_1" xmlns="http://www.w3.org/2000/svg" xmlns:xlink="http://www.w3.org/1999/xlink" x="0px" y="0px"
	 viewBox="3 -4.3 233.9 234.1" style="enable-background:new 3 -4.3 233.9 234.1;" xml:space="preserve">
<style type="text/css">
	.st0{fill:#010101;}
	.st1{fill:#FFFFFF;}
	.st2{font-family:'Roboto-Thin';}
	.st3{font-size:3.195px;}
	.st4{font-family:'Roboto-Medium';}
	.st5{font-size:4.68px;}
	.st6{font-family:'Roboto-Regular';}
	.st7{display:none;fill:#010101;}
	.st8{display:none;fill:#FFFFFF;stroke:#010101;stroke-miterlimit:10;}
	.st9{opacity:0.2;fill:#010101;enable-background:new    ;}
	.st10{fill:none;stroke:#2075BC;stroke-miterlimit:10;}
	.st11{fill:none;stroke:#2075BC;stroke-width:0.75;stroke-miterlimit:10;}
	.st12{fill:#2075BC;}
	.st13{fill:none;stroke:#2075BC;stroke-width:1.5;stroke-miterlimit:10;}
	.st14{fill:none;stroke:#2075BC;stroke-width:3;stroke-miterlimit:10;}
	.st15{display:none;}
	.st16{display:inline;fill:#2075BC;}
	.st17{fill:#FFFFFF;stroke:#2075BC;stroke-miterlimit:10;}
	.st18{display:inline;fill:#FFFFFF;stroke:#2075BC;stroke-miterlimit:10;}
	.st19{fill:none;stroke:#000000;stroke-miterlimit:10;}
	.st20{fill:none;stroke:#000000;stroke-width:2;stroke-linecap:round;stroke-linejoin:round;stroke-miterlimit:10;}
	.st21{fill:#5E5E5E;}
	.st22{display:inline;fill:#FFFFFF;}
	.st23{display:inline;opacity:0.12;enable-background:new    ;}
	.st24{display:none;fill:#FFFFFF;}
	.st25{fill:none;stroke:#000000;stroke-width:0.5;stroke-miterlimit:10;}
	.st26{display:none;fill:none;stroke:#000000;stroke-miterlimit:10;}
	.st27{fill:none;stroke:#000000;stroke-linecap:round;stroke-linejoin:round;stroke-miterlimit:10;}
	.st28{fill:#FF4400;}
	.st29{fill:#00629C;}
	.st30{display:none;fill:#FF9100;stroke:#010101;stroke-miterlimit:10;}
	.st31{opacity:0.4;}
	.st32{fill:none;stroke:#000000;stroke-width:1.5;stroke-miterlimit:10;}
</style>
<g>
	<rect x="2.9" y="221.1" class="st0" width="234" height="8.7"/>
	<text transform="matrix(1 0 0 1 13.5234 226.7277)" class="st1 st2 st3">Copyright © 2001-2016  </text>
	<text transform="matrix(1 0 0 1 47.4795 226.7277)" class="st1 st4 st5">indonetwork.co.id</text>
	<text transform="matrix(1 0 0 1 85.0234 226.7277)" class="st1 st2 st3">.     All rights reserved.</text>
	<text transform="matrix(1 0 0 1 189.3568 226.7277)" class="st1 st2 st3">illustrated by </text>
	<text transform="matrix(1 0 0 1 207.5568 226.7277)" class="st1 st6 st3">Nipuna Dhiraprana</text>
</g>
<g>
	<g>
		<rect x="9.2" y="0.7" transform="matrix(0.7071 -0.7071 0.7071 0.7071 2.0444 10.6481)" class="st0" width="9.4" height="4.4"/>
		<rect x="17.2" y="-3.9" transform="matrix(0.7071 -0.7071 0.7071 0.7071 6.6299 12.5261)" class="st0" width="2.5" height="4.4"/>
		<polygon class="st0" points="11.8,8.1 8.7,5 8.7,8.1 		"/>
	</g>
	<path class="st0" d="M19.3,1.5V11c0,1-0.8,1.8-1.8,1.8H5.6c-1,0-1.8-0.8-1.8-1.8V-0.9c0-1,0.8-1.8,1.8-1.8h9.6l0.9-0.9H5.6
		C4.2-3.5,2.9-2.3,2.9-0.9V11c0,1.5,1.2,2.7,2.6,2.7h11.9c1.5,0,2.6-1.2,2.6-2.6V0.6L19.3,1.5z"/>
</g>
<g>
	<rect x="30.2" y="-2.5" class="st0" width="17.9" height="2.9"/>
	<rect x="30.2" y="3.3" class="st0" width="17.9" height="2.9"/>
	<rect x="30.2" y="9.1" class="st0" width="17.9" height="2.9"/>
</g>
<g>
	<rect x="62.2" y="-2.5" class="st0" width="12.9" height="2.9"/>
	<rect x="62.2" y="3.3" class="st0" width="12.9" height="2.9"/>
	<rect x="62.2" y="9.1" class="st0" width="12.9" height="2.9"/>
	<rect x="57.1" y="-2.5" class="st0" width="3" height="2.9"/>
	<rect x="57.1" y="3.3" class="st0" width="3" height="2.9"/>
	<rect x="57.1" y="9.1" class="st0" width="3" height="2.9"/>
</g>
<g>
	<path class="st7" d="M93.1,3.1l2.1,10l2-3.1l2.2,3.5c0,0,0.3,0.2,0.6,0c0.3-0.3,0.2-0.5,0.2-0.5l-2.3-3.8l3.1-0.3L93.1,3.1z"/>
	<path class="st0" d="M94.2,12.6c-0.4,0.1-0.8,0.1-1.3,0.1c-2.8,0-5.3-1.4-6.7-3.6l1.2,2.1l1.8-0.8l-2.7-3.7l1.2-1.2l1.4,2.4l2,0.1
		l-2.6-3.2L88,2.1l1.8,0.7l-0.2-5.4c1-0.4,2-0.7,3.2-0.7c0.3,0,0.6,0,1,0.1l-0.3,2.9l1.3-0.1l0.7,1l-0.9,1.5L95,3.4l1.1-0.8V0.8
		l0.8,0.6c0,0,0,1.4,0,1.5s1,1,1,1l1.2,0.2V3.2l0.7,1.1L99.3,6l1.6-1c0,1-0.2,1.9-0.6,2.7l0.8,0.6c0.5-1.1,0.7-2.3,0.7-3.5
		c0-4.9-4-8.9-8.9-8.9C88-4.2,84-0.2,84,4.7s4,8.9,8.9,8.9c0.5,0,1-0.1,1.5-0.1L94.2,12.6z"/>
	<path class="st0" d="M92.6,4l2.9,9.8l1.7-3.1l2.2,2.9c0,0,0.4,0.1,0.7-0.1c0.3-0.2,0.2-0.6,0.2-0.6l-2.4-3.2l3.1-0.5L92.6,4z"/>
</g>
<g>
	<path class="st8" d="M119.6-3.2v15.9c0,0-2.9-0.3-5.3-4.7c-1.4-2.5-1.5-8.7-1.5-8.7s2.2,0.4,4-0.4C118.5-1.9,119.6-3.2,119.6-3.2z"
		/>
	<g>
		<path class="st9" d="M120.1-3.2V13c0,0,3.1-0.7,5.6-5c1.5-2.5,1.6-8.5,1.6-8.5s-1.7,0.2-3.7-0.6C121.8-1.8,120.1-3.2,120.1-3.2z"
			/>
		<path class="st0" d="M120.1-4.3l0.9,0.8c0,0,0.9,0.9,2.5,1.6c1.7,0.7,3.8,0.7,3.9,0.7h0.6v0.5c0,0.3-0.1,6.1-1.5,8.7
			c-2.5,4.5-5.4,5.4-5.5,5.4l-0.9,0.3V-4.3z M123.1-1.1c-0.9-0.4-2.5-1.3-3-1.9v15.9c1.3-0.4,4-2.3,5.6-5.2c1.1-1.9,1.3-6.4,1.4-8
			C126.2-0.4,124.3-0.5,123.1-1.1z"/>
	</g>
	<g>
		<path class="st0" d="M120.1,13.7l-0.9-0.3c-0.1,0-3-0.9-5.5-5.4c-1.4-2.6-1.5-8.4-1.5-8.7v-0.5h0.6c0.1,0,2.2,0,3.9-0.7
			c1.6-0.7,2.5-1.6,2.5-1.6l0.9-0.8V13.7z M113.1-0.4c0.1,1.6,0.3,6.1,1.4,8c1.6,2.9,4.3,4.8,5.6,5.2V-3.1c-0.5,0.6-2.1,1.5-3,1.9
			C115.7-0.5,113.8-0.4,113.1-0.4z"/>
	</g>
</g>
<g>
	<path class="st0" d="M226.5,11.2c-3.9,0-7.1-3.2-7.1-7.1s3.2-7.1,7.1-7.1c3.9,0,7.1,3.2,7.1,7.1S230.4,11.2,226.5,11.2z M226.5-1.2
		c-2.9,0-5.3,2.3-5.3,5.3s2.3,5.3,5.3,5.3s5.3-2.3,5.3-5.3S229.4-1.2,226.5-1.2z"/>
	<path class="st0" d="M234,13.4l-4.2-4.2l1.5-1.5l4.2,4.2c0.4,0.4,0.4,1.1,0,1.5l0,0C235,13.9,234.4,13.9,234,13.4z"/>
</g>
<g>
	<g>
		<g>
			<g>
				<path class="st10" d="M16.2,38l-4.1,1.3v-1.8c0-1.4,0.9-2.6,2.3-3l4.1-1.3V35C18.4,36.4,17.5,37.7,16.2,38z"/>
				<path class="st10" d="M7.9,38l4.1,1.3v-1.8c0-1.4-0.9-2.6-2.3-3l-4.1-1.3V35C5.7,36.4,6.4,37.7,7.9,38z"/>
			</g>
		</g>
	</g>
	<g>
		<g>
			<g>
				<path class="st10" d="M15.5,33.1L12,34.4v-1.8c0-1.4,0.8-2.6,1.9-3l3.5-1.3v1.8C17.4,31.5,16.8,32.7,15.5,33.1z"/>
				<path class="st10" d="M8.5,33.1l3.5,1.3v-1.8c0-1.4-0.8-2.6-1.9-3l-3.5-1.3v1.8C6.4,31.5,7.3,32.7,8.5,33.1z"/>
			</g>
		</g>
	</g>
	<g>
		<g>
			<g>
				<path class="st10" d="M14.9,28.2L12,29.5v-1.8c0-1.4,0.6-2.6,1.6-3l2.9-1.3v1.8C16.5,26.6,15.8,27.8,14.9,28.2z"/>
				<path class="st10" d="M9.2,28.2l2.9,1.3v-1.8c0-1.4-0.6-2.6-1.6-3l-2.9-1.3v1.8C7.5,26.6,8.3,27.8,9.2,28.2z"/>
			</g>
		</g>
	</g>
</g>
<g>
	<path class="st10" d="M32.8,39.3h12.3c0.5,0,0.9-0.6,0.6-1.1l-5.2-8.7v-4.2h1.2V25h-5.6v0.3h1.2v4.2l-5.2,8.7
		C31.8,38.7,32.3,39.3,32.8,39.3z"/>
	<path class="st11" d="M35.8,32.3c0,0,2.1-0.4,3.5,1.2s3.8,0,3.8,0"/>
</g>
<g>
	<circle class="st10" cx="62.3" cy="25.3" r="1.6"/>
	<circle class="st10" cx="67.3" cy="34.5" r="1.6"/>
	<polyline class="st11" points="63.8,26.4 65,27.5 65,29.5 67.3,31.7 67.3,33 	"/>
	<circle class="st10" cx="60.7" cy="30.1" r="1.6"/>
	<circle class="st10" cx="63.9" cy="38.5" r="1.6"/>
	<polyline class="st11" points="63.9,36.7 63.9,35.8 60.7,33.1 60.7,31.7 	"/>
	<circle class="st10" cx="68.3" cy="25.1" r="1.6"/>
	<circle class="st10" cx="71.8" cy="37.4" r="1.6"/>
	<polyline class="st11" points="68.3,26.6 68.3,28.5 71.8,31.8 71.8,34.4 71.8,36.2 	"/>
</g>
<g>
	<path class="st10" d="M94,37.4h-1.9c-2.9,0-5.3-3.4-5.3-6.3v-0.3h12.6v0.3C99.2,34,96.8,37.4,94,37.4z"/>
	<path class="st11" d="M90.7,24.3c0,0,1.3,1.1-0.3,2.5c-1.6,1.4,0,2.8,0,2.8"/>
	<path class="st11" d="M93.3,23.4c0,0,1.2,2.1-0.4,3.5c-1.6,1.4,0,2.8,0,2.8"/>
	<path class="st11" d="M95.7,22.8c0,0,1.3,2.7-0.3,4.1c-1.6,1.4,0,2.8,0,2.8"/>
	<path class="st10" d="M99.3,31.3h0.8c0,0,0.7,0,1,0.7c0.3,0.6,0,1-0.1,1.4c-0.2,0.4-0.5,1-1.7,1.1c-1.2,0.1-1.5,0-1.5,0"/>
</g>
<g>
	<path class="st11" d="M127.5,31.9H113c-0.4,0-0.6-0.4-0.5-0.7l2.5-7.1c0.1-0.4,0.5-0.6,0.9-0.6h8.7c0.4,0,0.8,0.3,0.9,0.6l2.5,7.1
		C128.1,31.5,127.8,31.9,127.5,31.9z"/>
	<path class="st10" d="M121.2,32.6v-0.4H119v0.6c0,0.7-0.6,1.8-1.3,1.8l0,0c-1.4,0-2.6,1.1-2.6,2.6l0,0c0,1.9,1.6,3,3.5,2.8h3.1
		c1.9,0.2,3.5-0.9,3.5-2.8l0,0c0-1.4-1.1-2.6-2.6-2.6l0,0C121.8,34.6,121.2,33.4,121.2,32.6z"/>
</g>
<g>
	<path class="st12" d="M154.8,26.7l-7.7-2.3l-7.7,2.4v10.1l7.7,2.8l7.7-2.8V26.7z M146.9,25.1l6.5,2l-6.5,2.3l-6.5-2.3L146.9,25.1z
		 M140.4,36.2v-8.3l6.3,2.3v8.4L140.4,36.2z M153.8,36.2l-6.3,2.3v-8.4l5.5-2l0.8-0.3V36.2z"/>
	<polygon class="st12" points="144.2,33.8 142.8,33.2 142.8,28.1 150.2,25.4 151.9,26.1 144.2,29 	"/>
	<polygon class="st12" points="150.3,33.8 151.8,33.2 151.8,28.1 144.2,25.6 142.3,26.2 150.3,29 	"/>
</g>
<path class="st12" d="M182.8,23.8h-12.7c-0.1,0-2.4,0-3.6,1.1c-0.5,0.4-0.7,1-0.7,1.7l0,0v10.1l0,0c0,0.5,0.2,1,0.6,1.4
	c1.2,1.1,3.6,1.1,3.7,1.1c0,0,0.1,0,0.3,0c0.6,0,2.3-0.1,3.1-1c0.4-0.4,0.6-0.9,0.6-1.5l0,0v-0.6h8.7V23.8z M173.3,36.7
	c0,0.4-0.1,0.7-0.4,1c-0.8,0.8-2.8,0.7-2.8,0.7c-0.6,0-2.4-0.1-3.2-0.9c-0.2-0.2-0.4-0.5-0.4-0.9V28c1.2,1,3.5,1,3.6,1
	s2.1,0.1,3.2-0.8V36.7h0.3H173.3z M182,35.3h-8v-8.8l0,0c-0.1-1.8-3.8-1.8-3.9-1.8c-0.1,0-3.1,0-3.1,1.6c0,0.3,0.1,0.6,0.3,0.8
	c0.8,0.8,2.7,0.7,2.7,0.7s0.1,0,0.2,0c0.5,0,1.7-0.1,2.3-0.6c0.2-0.2,0.3-0.4,0.3-0.7c0-0.8-1.9-1-2.6-1c-0.9,0-2,0.2-2,0.8
	c0,0.1,0,0.2,0.1,0.3c0.3,0.3,2.2,0.2,2.8,0.2l0.2-0.1l-0.2-0.2c-0.8,0-2.5,0.1-2.5-0.2c-0.1-0.2,0.8-0.4,1.5-0.4
	c1.1,0,2.1,0.3,2.2,0.6c0,0.1,0,0.3-0.1,0.4c-0.4,0.4-1.7,0.5-2.1,0.4c-0.5,0-1.9-0.1-2.4-0.6c-0.1-0.1-0.2-0.3-0.2-0.4
	c0-1.1,2.6-1.1,2.6-1.1s3-0.1,3.2,1.3l0,0v0.1c0,0.4-0.1,0.7-0.4,1c-0.8,0.8-2.8,0.7-2.8,0.7c-0.6,0-2.4-0.1-3.2-0.9
	c-0.2-0.2-0.4-0.5-0.4-0.9c0-0.5,0.2-0.9,0.5-1.2c1-0.9,3-0.9,3.1-0.9h12L182,35.3L182,35.3z"/>
<path class="st10" d="M16.8,43.9l-0.2-0.2h-0.2h-2.1c0,0.7-1,1.3-2.2,1.3s-2.2-0.6-2.2-1.3h-2H7.6l-0.2,0.2l-3.5,3.5l2.4,2.4
	l1.5-1.5v8.4h8.6v-8.3l1.5,1.5l2.4-2.4L16.8,43.9z"/>
<g>
	<path class="st10" d="M46.2,56.4H32.3c-0.4,0-0.7-0.3-0.7-0.7v-2.2c0-0.4,0.3-0.7,0.7-0.7h13.9c0.4,0,0.7,0.3,0.7,0.7v2.2
		C46.8,56.1,46.6,56.4,46.2,56.4z"/>
	<line class="st10" x1="41.1" y1="54.4" x2="45.1" y2="54.4"/>
	<line class="st10" x1="33.8" y1="54.4" x2="34.2" y2="54.4"/>
	<line class="st10" x1="34.8" y1="54.4" x2="35.1" y2="54.4"/>
	<line class="st10" x1="35.7" y1="54.4" x2="35.9" y2="54.4"/>
	<path class="st13" d="M44.8,50.9H33.3c-0.4,0-0.7-0.3-0.7-0.7v-7c0-0.4,0.3-0.7,0.7-0.7h11.4c0.4,0,0.7,0.3,0.7,0.7v7
		C45.7,50.6,45.3,50.9,44.8,50.9z"/>
</g>
<g>
	<ellipse class="st10" cx="66.2" cy="49.7" rx="2" ry="7.7"/>
	<ellipse class="st10" cx="66.2" cy="49.7" rx="2" ry="7.7"/>
	<ellipse transform="matrix(0.5 -0.866 0.866 0.5 -9.8874 82.0084)" class="st10" cx="66.1" cy="49.6" rx="2" ry="7.7"/>
	<ellipse transform="matrix(-0.5 -0.866 0.866 -0.5 56.2032 131.7452)" class="st10" cx="66.1" cy="49.6" rx="2" ry="7.7"/>
</g>
<g>
	<path class="st12" d="M98.1,47.7v-0.6c0-1.2-1.5-2.8-2.7-2.8h-4.7c-1.2,0-2.6,1.5-2.6,2.8v0.6H87v-0.6c0-2.1,1.7-3.7,3.7-3.7h4.7
		c2.1,0,3.7,1.7,3.7,3.7v0.6H98.1z"/>
	<path class="st10" d="M99.1,47.6c-0.8,0-1.5,0.5-1.8,1.2v2.5c-0.5-0.1-1.1-0.2-1.5-0.3c-1.4-0.2-2.7-0.2-2.7-0.2s-1.4-0.1-2.7,0.2
		c-0.4,0.1-1,0.2-1.5,0.3v-2.5c-0.3-0.7-1-1.2-1.8-1.2c-1.1,0-2,0.9-2,2c0,0.9,0.6,1.6,1.4,1.9l1.1,2.9c0.2,0.6,0.8,0.9,1.4,0.9h4.1
		h4.1c0.6,0,1.2-0.4,1.4-0.9l1.1-2.9c0.8-0.3,1.4-1,1.4-1.9C101.1,48.5,100.1,47.6,99.1,47.6z"/>
	<g>
		<path class="st12" d="M88.1,57.3L88.1,57.3c-0.3-0.1-0.4-0.5-0.3-0.8l0.7-1.4c0.1-0.3,0.4-0.2,0.6,0l0,0c0.3,0.1,0.5,0.2,0.4,0.5
			L88.8,57C88.7,57.3,88.3,57.4,88.1,57.3z"/>
		<path class="st12" d="M98,57.3L98,57.3c0.3-0.1,0.4-0.5,0.3-0.8l-0.7-1.4c-0.1-0.3-0.4-0.2-0.6,0l0,0c-0.3,0.1-0.5,0.2-0.4,0.5
			l0.7,1.4C97.3,57.3,97.6,57.4,98,57.3z"/>
	</g>
</g>
<g>
	<circle class="st13" cx="113.6" cy="55.2" r="1.7"/>
	<circle class="st14" cx="123.2" cy="53" r="3.7"/>
	<path class="st12" d="M128.8,49.2c-0.2-0.3-0.5-0.6-0.8-0.9v-6.4c0-0.3-0.1-0.6-0.3-0.8c-0.2-0.2-0.4-0.3-0.7-0.3h-2.7
		c-1.2,0-2.3,1-2.5,2.3l-0.8,3.6l0,0c-0.2,0.1-0.1,0-0.3,0.1c-0.3,0.1-0.7,0.3-1,0.5l0,0h-0.3H116v-4c0-0.6-0.5-1-1-1h-0.8v1h0.8v4
		h-0.4c-1.4,0-2.5,1.1-2.5,2.5v3.1c0.3-0.2,0.6-0.4,1-0.4v-2.7c0-0.8,0.7-1.5,1.5-1.5h3.6h0.3c-1.3,1.4-2,3.3-1.8,5.2h-0.9
		c0.2,0.3,0.4,0.6,0.5,1h0.6c0.1,0.3,0.2,0.7,0.3,1c0,0,0.3,0.3,0.6,0.1c0.3-0.2,0.3-0.5,0.3-0.5c-1.2-2.9,0.1-6.2,3-7.5
		c1.6-0.7,3.3-0.6,4.8,0.2c0.9,0.4,1.6,1.1,2.1,1.9c0,0,0.3,0.3,0.6,0C128.9,49.5,128.8,49.2,128.8,49.2z M127.1,47.4
		c-0.2-0.2-0.5-0.3-0.7-0.4c-1.2-0.6-2.6-0.8-3.9-0.7V46l0.4-2.9c0.1-0.9,0.8-1.5,1.5-1.5h2.7c0,0,0,0,0,0.1V47.4z"/>
</g>
<path class="st12" d="M151.1,43c-2.1,0.4-3.5,1.3-4,1.6c-0.5-0.3-2-1.2-4-1.6c-2.6-0.5-4.7,0.1-4.7,0.1v12.2c0,0,2.6-0.5,4.5-0.1
	c1.8,0.4,4.1,1.7,4.1,1.7s2.3-1.3,4.2-1.7c1.9-0.4,4.5,0.1,4.5,0.1V43C155.8,43,153.8,42.5,151.1,43z M139.3,54.1V43.9
	c0.6,0,1.9-0.3,3.5,0c1.9,0.4,3.2,1.2,3.7,1.5v10.1c-0.8-0.3-2.2-1.1-3.5-1.4C141.8,53.9,139.4,54.1,139.3,54.1z M154.8,54.1
	c-0.8,0-2.3-0.3-3.7,0c-1.4,0.3-2.7,1.1-3.5,1.4v-10c0.5-0.3,1.9-1.1,3.7-1.5c1.7-0.3,2.9,0,3.5,0V54.1z"/>
<g>
	<path class="st10" d="M176.8,56.4H171c-0.6,0-1.1-0.5-1.1-1.1v-12c0-0.6,0.5-1.1,1.1-1.1h5.8c0.6,0,1.1,0.5,1.1,1.1v12
		C178,55.9,177.5,56.4,176.8,56.4z"/>
	<circle class="st12" cx="174.1" cy="54.2" r="0.8"/>
	<g class="st15">
		<path class="st16" d="M179.1,45.3h0.9c0-1.6-1.3-2.8-2.8-2.8v0.8C178.3,43.3,179.1,44.2,179.1,45.3z"/>
		<path class="st16" d="M180.8,45.1h0.9c0-2.4-1.9-4.3-4.3-4.3v0.9C179.3,41.7,180.8,43.2,180.8,45.1z"/>
	</g>
	<g>
		<path class="st12" d="M179.1,49.4l0.7,0.6c1.1-1.3,1.1-3.1-0.1-4.3l-0.6,0.7C179.8,47.2,180,48.5,179.1,49.4z"/>
		<path class="st12" d="M180.6,50.5l0.8,0.7c1.7-1.9,1.6-4.9-0.2-6.7l-0.7,0.8C182,46.6,182,48.9,180.6,50.5z"/>
	</g>
	<g>
		<path class="st12" d="M168.8,49.4l-0.7,0.6c-1.1-1.3-1.1-3.1,0.1-4.3l0.6,0.7C168,47.2,168,48.5,168.8,49.4z"/>
		<path class="st12" d="M167.3,50.5l-0.8,0.7c-1.7-1.9-1.6-4.9,0.2-6.7l0.7,0.8C165.9,46.6,165.8,48.9,167.3,50.5z"/>
	</g>
</g>
<g>
	<g>
		<circle class="st12" cx="8.7" cy="70.7" r="1.1"/>
		<circle class="st12" cx="15.3" cy="70.7" r="1.1"/>
	</g>
	<g>
		<path class="st10" d="M16.3,73.8H7.6c-1,0-1.8-0.8-1.8-1.8v-8.7c0-1.5,1.2-2.7,2.7-2.7h6.8c1.5,0,2.7,1.2,2.7,2.7V72
			C18.2,73,17.3,73.8,16.3,73.8z"/>
		<line class="st10" x1="5.8" y1="66.4" x2="18.2" y2="66.4"/>
	</g>
	<g>
		<path class="st12" d="M7.8,76H6.9c-0.3,0-0.5-0.2-0.5-0.5v-1.9h1.9v1.9C8.3,75.7,8,76,7.8,76z"/>
		<path class="st12" d="M17,76h-0.8c-0.3,0-0.5-0.2-0.5-0.5v-1.9h1.9v1.9C17.7,75.7,17.3,76,17,76z"/>
	</g>
	<g>
		<g>
			<path class="st12" d="M4.7,67.2H4.2c-0.2,0-0.4-0.2-0.4-0.4v-1.2c0-0.2,0.2-0.4,0.4-0.4h0.5c0.2,0,0.4,0.2,0.4,0.4v1.2
				C4.9,67.1,4.8,67.2,4.7,67.2z"/>
		</g>
		<g>
			<path class="st12" d="M19.9,67.2h-0.5c-0.2,0-0.4-0.2-0.4-0.4v-1.2c0-0.2,0.2-0.4,0.4-0.4h0.5c0.2,0,0.4,0.2,0.4,0.4v1.2
				C20.3,67.1,20.2,67.2,19.9,67.2z"/>
		</g>
	</g>
	<path class="st12" d="M7.7,64.2h2.4c0.3,0,0.5,0.2,0.5,0.5v1.5H7.1v-1.5C6.9,64.5,7.3,64.2,7.7,64.2z"/>
</g>
<g>
	<path class="st10" d="M47.1,66.8l-7.2-6.4c-0.5-0.4-1.1-0.4-1.6,0l-7.2,6.4c-0.3,0.2-0.1,0.7,0.3,0.7h1.5v6.2
		c0,0.4,0.3,0.7,0.7,0.7h3.6v-4c0-0.4,0.4-0.8,0.8-0.8h2.1c0.4,0,0.8,0.4,0.8,0.8v4h3.7c0.4,0,0.7-0.3,0.7-0.7v-6.2h1.5
		C47.2,67.5,47.3,67.1,47.1,66.8z"/>
</g>
<path class="st12" d="M74.7,64.6l-0.1-0.5l-0.5,0.1c-2.6,0.4-4.8,1.5-6.3,3.1c-1.6-3.6-5.1-6.3-9.6-7.4l-0.5-0.1l-0.1,0.5
	c-1.5,7.2,2.3,14,8.7,15.5l1.6-0.5c2-0.2,3.8-1.3,5.1-3C74.6,70.1,75.2,67.3,74.7,64.6z M58.6,60.9c3.9,1.1,7.2,4,8.7,7.1
	c-0.2,0.3-0.5,0.7-0.6,1.1c-0.2,0.5-0.3,1-0.4,1.1c-1-2.5-5.7-6.3-5.7-6.3c2.1,2.3,4.9,5.7,5.3,8.3c-0.1,0.9,0.2,1.8,0.5,2.6
	C61.1,73.1,57.4,67,58.6,60.9z M72.2,71.5c-1,1.3-2.3,2.2-3.8,2.5c0.2-3.2,2.7-5.9,3.9-6.8l0,0c-1.8,1-4.3,3.5-5.3,6.4
	c-0.5-1.6-0.1-3.4,0.4-4.4c1.1-2,3.7-3.5,6.5-4C74.1,67.5,73.6,69.8,72.2,71.5z"/>
<g>
	<path class="st17" d="M90.5,75.9h0.8v-13h1.2v0.4c0,0,0.9-0.5,2.3-0.5c1.4,0,3,0.6,3,0.6s-1-1.1-2.3-2.1s-3.1-1.2-3.1-1.2v0.8h-3.3
		v-1.2h-2.8v4.5h2.8v-1.4h1.2L90.5,75.9L90.5,75.9z"/>
	<g class="st15">
		<path class="st18" d="M88.3,67.2v-0.4c0-0.5,0.4-0.9,0.9-0.9h2.3c0.5,0,0.9,0.4,0.9,0.9v0.4c0,0.5-0.4,0.9-0.9,0.9h-2.3
			C88.7,68.1,88.3,67.7,88.3,67.2z"/>
		<path class="st18" d="M88.3,69.5v-0.4c0-0.5,0.4-0.9,0.9-0.9h2.3c0.5,0,0.9,0.4,0.9,0.9v0.4c0,0.5-0.4,0.9-0.9,0.9h-2.3
			C88.7,70.4,88.3,70,88.3,69.5z"/>
		<path class="st18" d="M88.3,71.8v-0.4c0-0.5,0.4-0.9,0.9-0.9h2.3c0.5,0,0.9,0.4,0.9,0.9v0.4c0,0.5-0.4,0.9-0.9,0.9h-2.3
			C88.7,72.7,88.3,72.3,88.3,71.8z"/>
		<path class="st18" d="M88.3,74.1v-0.4c0-0.5,0.4-0.9,0.9-0.9h2.3c0.5,0,0.9,0.4,0.9,0.9v0.4c0,0.5-0.4,0.9-0.9,0.9h-2.3
			C88.7,75,88.3,74.6,88.3,74.1z"/>
		<path class="st18" d="M94.6,69.1h-0.5c-0.5,0-0.9-0.4-0.9-0.9v-2.3c0-0.5,0.4-0.9,0.9-0.9h0.4c0.5,0,0.9,0.4,0.9,0.9v2.3
			C95.5,68.7,95.1,69.1,94.6,69.1z"/>
	</g>
	<g class="st15">
		<path class="st18" d="M90.1,74.7v-8.4h5.1c0.8,0,1.5,0.7,1.5,1.5v5.4c0,0.8-0.7,1.5-1.5,1.5H90.1z"/>
		<path class="st18" d="M96.7,73.1v-5.3h2.1c0.4,0,0.8,0.4,0.8,0.8v3.7c0,0.4-0.4,0.8-0.8,0.8H96.7z"/>
		<path class="st18" d="M88.3,67.2v-0.4c0-0.5,0.4-0.9,0.9-0.9h2.3c0.5,0,0.9,0.4,0.9,0.9v0.4c0,0.5-0.4,0.9-0.9,0.9h-2.3
			C88.7,68.1,88.3,67.7,88.3,67.2z"/>
		<path class="st18" d="M88.3,69.5v-0.4c0-0.5,0.4-0.9,0.9-0.9h2.3c0.5,0,0.9,0.4,0.9,0.9v0.4c0,0.5-0.4,0.9-0.9,0.9h-2.3
			C88.7,70.4,88.3,70,88.3,69.5z"/>
		<path class="st18" d="M88.3,71.8v-0.4c0-0.5,0.4-0.9,0.9-0.9h2.3c0.5,0,0.9,0.4,0.9,0.9v0.4c0,0.5-0.4,0.9-0.9,0.9h-2.3
			C88.7,72.7,88.3,72.3,88.3,71.8z"/>
		<path class="st18" d="M88.3,74.1v-0.4c0-0.5,0.4-0.9,0.9-0.9h2.3c0.5,0,0.9,0.4,0.9,0.9v0.4c0,0.5-0.4,0.9-0.9,0.9h-2.3
			C88.7,75,88.3,74.6,88.3,74.1z"/>
		<path class="st18" d="M94,69.1h-0.4c-0.5,0-0.9-0.4-0.9-0.9v-2.3c0-0.5,0.4-0.9,0.9-0.9H94c0.5,0,0.9,0.4,0.9,0.9v2.3
			C94.8,68.7,94.5,69.1,94,69.1z"/>
	</g>
	<path class="st17" d="M95,75.1L95,75.1c0.8,0,1.5-1.6,1.5-1.6h2.1c0.4,0,0.8-0.4,0.8-0.8V69c0-0.4-0.4-0.8-0.8-0.8h-2.1L95,66.7
		c0-0.5-1.3-1.4-1.8-1.4h-0.4c-0.5,0-1.2,0.9-1.4,0.9h-2.6c-0.5,0-0.9,0.4-0.9,0.9v0.4c0,0.5,0.4,0.9,0.9,0.9
		c-0.5,0-0.9,0.4-0.9,0.9v0.4c0,0.5,0.4,0.9,0.9,0.9c-0.5,0-0.9,0.4-0.9,0.9v0.4c0,0.5,0.4,0.9,0.9,0.9c-0.5,0-0.9,0.4-0.9,0.9v0.4
		c0,0.5,0.4,0.9,0.9,0.9h2.6C91.6,75.4,94.8,75.2,95,75.1z"/>
</g>
<path class="st12" d="M128.7,64.6l-3-4.1h-11.3l-3,4.1l8.8,12.1L128.7,64.6z M121.6,61.6h3.2l-0.7,1.9L121.6,61.6z M123.2,64.1h-6.4
	l3.2-2.4L123.2,64.1z M116.1,63.5l-0.7-1.9h3.2L116.1,63.5z M123.5,65.1l-3.3,9.3l-3.4-9.3H123.5z M121.8,72.6l2.6-7.5h2.6
	L121.8,72.6z M125,64.1l0.6-2l1.5,2H125z M114.6,62.1l0.7,2h-2.2L114.6,62.1z M115.6,65.1l2.8,7.5l-5.4-7.5H115.6z"/>
<g>
	<path class="st10" d="M151.8,75.4h-9.3c-0.8,0-1.4-0.6-1.4-1.4v-6.5c0-0.8,0.6-1.4,1.4-1.4h9.3c0.8,0,1.4,0.6,1.4,1.4V74
		C152.9,74.8,152.4,75.4,151.8,75.4z"/>
	<path class="st12" d="M151.9,66.6h-9.8V65c0-2.7,2.2-4.9,4.9-4.9s4.9,2.2,4.9,4.9V66.6L151.9,66.6z M143.7,66.6h6.7V65
		c0-1.9-1.5-3.4-3.4-3.4c-1.9,0-3.4,1.5-3.4,3.4L143.7,66.6L143.7,66.6z"/>
	<path class="st12" d="M148.3,70.5c0-0.7-0.6-1.3-1.3-1.3c-0.7,0-1.3,0.6-1.3,1.3c0,0.6,0.4,1.1,0.9,1.2v1.6c0,0.2,0.2,0.4,0.4,0.4
		s0.4-0.2,0.4-0.4v-1.6C147.9,71.6,148.3,71.1,148.3,70.5z"/>
</g>
<g>
	<ellipse class="st12" cx="174.3" cy="64.8" rx="1.1" ry="1"/>
	<ellipse class="st12" cx="172.8" cy="63.3" rx="0.4" ry="0.4"/>
	<ellipse class="st12" cx="175.6" cy="63.3" rx="0.4" ry="0.4"/>
	<path class="st12" d="M170.6,75.8c-0.3,0-0.6-0.1-1-0.2c-0.5-0.2-0.9-0.6-1.1-1c-0.2-0.5-0.1-1,0.1-1.4l1.4-2.3
		c-0.2-0.4-0.2-0.8-0.2-1.3v-0.1l-1.6-0.9c-0.3-0.2-0.6-0.5-0.7-0.9c-0.1-0.4,0-0.8,0.2-1.1l0.3-0.5c0.2-0.3,0.5-0.6,0.9-0.7
		c0.4-0.1,0.8,0,1.1,0.2l0.6,0.3c0.1-0.1,0.1-0.1,0.2-0.2c-0.5-0.6-0.6-1.3-0.6-1.9c-0.9-0.2-1.5-1-1.5-1.8c0-1.1,0.8-2.3,2-2.3
		c0.5,0,1,0.2,1.4,0.5c1.4-0.8,2.9-0.7,4.2,0c0.4-0.3,0.9-0.5,1.4-0.5c1.1,0,2,1.2,2,2.3c0,0.9-0.6,1.7-1.5,1.8
		c0,0.8-0.3,1.4-0.7,1.9c0,0,0.1,0.1,0.1,0.1l0.8-0.4c0.2-0.2,0.6-0.3,1.1-0.2c0.3,0.1,0.7,0.3,0.9,0.6l0.3,0.6
		c0.4,0.8,0.2,1.5,0,1.8l-0.2,0.1l-1.6,0.9v0.2c0,0.6-0.2,1.1-0.3,1.5l1.3,2.2c0.4,0.8,0.2,1.9-0.9,2.5c-1,0.4-2.2,0.1-2.7-0.8
		l-1-1.5c-0.1,0-0.3,0-0.5,0H174c-0.2,0-0.4,0-0.6,0l-1.1,1.5C171.9,75.4,171.3,75.8,170.6,75.8z M169.3,66.3c0,0-0.1,0-0.1,0
		c-0.1,0-0.2,0.1-0.3,0.2l-0.3,0.6c-0.1,0.2-0.1,0.3-0.1,0.3c0,0.1,0.1,0.2,0.2,0.2l2.1,1.2v0.7c0,0.4,0.1,0.7,0.2,1.1l0.1,0.2
		l-1.6,2.7c-0.1,0.2-0.1,0.4-0.1,0.6c0.1,0.2,0.3,0.4,0.5,0.5c0.6,0.3,1.1,0.1,1.4-0.4L173,72l0.4,0.2c0.1,0,0.4,0,0.6,0h0.9
		c0.3,0,0.4,0,0.5-0.1l0.3-0.2l1.5,2.2c0.3,0.5,0.9,0.6,1.4,0.4c0.5-0.3,0.6-0.8,0.5-1.1l-1.6-2.6l0.1-0.2c0.2-0.3,0.3-0.8,0.3-1.3
		v-0.8l2-1.1c0-0.1,0.1-0.3-0.1-0.6l-0.3-0.5c-0.1-0.1-0.2-0.2-0.3-0.2c-0.1,0-0.2,0-0.3,0l-1.5,0.8l-0.3-0.3
		c-0.2-0.2-0.5-0.4-0.7-0.5L176,66l0.6-0.5c0.6-0.5,0.7-1.1,0.7-2l0-0.6l0.5,0c0.6,0,1-0.4,1-0.9c0-0.6-0.5-1.3-1-1.3
		c-0.4,0-0.8,0.2-0.9,0.4l-0.3,0.5l-0.5-0.3c-0.6-0.4-1.2-0.6-1.9-0.6c-0.7,0-1.3,0.2-1.9,0.6l-0.5,0.3l-0.3-0.5
		c-0.1-0.2-0.5-0.4-0.9-0.4c-0.6,0-1,0.7-1,1.3c0,0.5,0.4,0.9,1,0.9h0.5v0.6c0,0.9,0.1,1.7,0.7,2.1l0.4,0.3l-0.6,0.3
		c-0.2,0.1-0.5,0.4-0.6,0.5l-0.3,0.4l-1.4-0.8C169.5,66.3,169.4,66.3,169.3,66.3z"/>
</g>
<g>
	<path class="st19" d="M153.1,11.2c-0.3-1.3-0.8-1.6-1.9-1.8l-1.6-0.3c-0.7-0.2-0.8-0.4-1-0.9L148.4,8c-0.1-0.3,0.3-0.7,0.6-0.9
		c0.5-0.6,1-0.7,1.4-3.4c0,0,0.1-1.3,0.1-1.4c-0.1-2.3-1.6-3.2-3.4-3.2c-1.8,0-3.3,0.9-3.4,3.2c0,0,0.1,1.3,0.1,1.4
		c0.4,2.7,0.8,2.7,1.4,3.4c0.3,0.3,0.7,0.6,0.6,0.9l-0.1,0.2c-0.2,0.5-0.3,0.7-1,0.9l-1.6,0.3c-1.1,0.2-1.6,0.5-1.9,1.8l-0.2,1.8
		h6.1l0,0h6.1L153.1,11.2z"/>
</g>
<g>
	<path d="M182.3-2.2h-1.9c-0.2,0-0.5,0.2-0.5,0.4l-0.8,2.9c-0.1,0-11.6,0-11.6,0c-0.4,0-0.7,0.2-0.9,0.5s-0.3,0.7-0.2,1l1.7,5.2
		c0.1,0.5,0.6,0.8,1.1,0.8h7.6l-0.4,1.4h-7.3c-0.1,0-0.2,0-0.2,0c-0.9,0-1.6,0.7-1.6,1.6s0.7,1.6,1.6,1.6s1.6-0.7,1.6-1.6
		c0-0.1,0-0.3-0.1-0.4h5.1c0,0.1-0.1,0.3-0.1,0.4c0,0.9,0.7,1.6,1.6,1.6c0.9,0,1.6-0.7,1.6-1.6c0-0.6-0.4-1.1-0.9-1.4L180.9-1h1.5
		c0.3,0,0.6-0.2,0.6-0.6S182.6-2.2,182.3-2.2z M167.3,2.2h11.2l-1.7,5.2h-7.7L167.3,2.2z M169.1,11.4c0,0.2-0.2,0.5-0.5,0.5
		s-0.5-0.2-0.5-0.5c0-0.2,0.2-0.4,0.4-0.4c0,0,0,0,0.1,0h0.1C169,11.1,169.1,11.2,169.1,11.4z M176.8,11.9c-0.2,0-0.5-0.2-0.5-0.5
		c0-0.2,0.1-0.4,0.3-0.4h0.1l0,0c0.2,0,0.4,0.2,0.4,0.4C177.3,11.7,177,11.9,176.8,11.9z"/>
</g>
<g>
	<g>
		<path class="st0" d="M202.1,7.2c-0.1,0-0.2,0-0.3-0.1l-9.3-4.4c-0.3-0.1-0.4-0.4-0.5-0.6c0-0.3,0.1-0.6,0.4-0.7l7-4.6
			c0.2-0.1,0.5-0.1,0.7,0l9.3,4.3c0.3,0.1,0.4,0.4,0.5,0.6c0,0.3-0.1,0.6-0.4,0.7l-7,4.7C202.5,7.1,202.3,7.2,202.1,7.2z M194.5,1.9
			l7.6,3.7l5.4-3.8l-7.6-3.6L194.5,1.9z"/>
	</g>
	<path class="st0" d="M209.5,3.9l-0.4-0.2l-1.5,1l-5.4,3.8l-7.7-3.7l-1.7-0.7l-0.3,0.2c-0.3,0.1-0.4,0.4-0.4,0.7
		c0,0.3,0.2,0.5,0.5,0.6l9.3,4.4c0.1,0,0.2,0.1,0.3,0.1s0.3,0,0.4-0.1l7-4.7c0.2-0.1,0.4-0.4,0.4-0.7C210,4.3,209.8,4,209.5,3.9z"/>
	<path class="st0" d="M209.5,6.8l-0.4-0.2l-1.5,1l-5.4,3.8l-7.6-3.7L192.9,7l-0.3,0.2c-0.2,0.1-0.4,0.4-0.4,0.7
		c0,0.3,0.2,0.5,0.5,0.6l9.3,4.4c0.1,0,0.2,0.1,0.3,0.1s0.3,0,0.4-0.1l7-4.7c0.2-0.1,0.4-0.4,0.4-0.7C210,7.2,209.8,6.9,209.5,6.8z"
		/>
</g>
<polyline class="st20" points="194.5,28.5 201,35 207.5,28.4 "/>
<polyline class="st20" points="197.8,56.3 204.3,49.8 197.6,43.3 "/>
<polyline class="st20" points="231.3,43.3 224.8,49.8 231.4,56.3 "/>
<polyline class="st20" points="234.6,35 228.1,28.4 221.6,34.9 "/>
<g>
	<circle cx="16.7" cy="90.1" r="13.5"/>
	<path id="The_Sharpness_1_" class="st21" d="M14.8,87.6l4,2.6l0.6-0.3L14.8,87.6z"/>
	<g id="Lozenge">
		<g>
			<path class="st1" d="M24.7,86.8c0,0-0.2-1.2-0.7-1.7c-0.6-0.7-1.3-0.7-1.7-0.7c-2.3-0.2-5.8-0.2-5.8-0.2l0,0c0,0-3.5,0-5.8,0.2
				c-0.3,0-1,0-1.7,0.7c-0.5,0.5-0.7,1.7-0.7,1.7s-0.1,1.4-0.1,2.7v1.3c0,1.4,0.2,2.7,0.2,2.7s0.2,1.2,0.7,1.7
				c0.6,0.7,1.5,0.6,1.8,0.7c1.3,0.1,5.6,0.1,5.6,0.1s3.5,0,5.8-0.2c0.3,0,1,0,1.7-0.7c0.5-0.5,0.7-1.7,0.7-1.7s0.2-1.4,0.2-2.7
				v-1.3C24.8,88.2,24.7,86.8,24.7,86.8z M14.8,92.3v-4.7l4.5,2.4L14.8,92.3z"/>
		</g>
	</g>
</g>
<g>
	<circle cx="43.6" cy="90.1" r="13.5"/>
	<path class="st1" d="M44.4,99.3V91h2.8l0.4-3.2h-3.2v-2.1c0-0.9,0.3-1.6,1.6-1.6h1.7v-2.9c-0.3,0-1.3-0.1-2.5-0.1
		c-2.5,0-4.2,1.5-4.2,4.3v2.4h-2.8V91h2.9v8.3C41.2,99.3,44.4,99.3,44.4,99.3z"/>
</g>
<g>
	<circle cx="70.7" cy="90.1" r="13.5"/>
	<g>
		<path class="st1" d="M78.8,85.4c-0.6,0.3-1.2,0.4-1.9,0.5c0.7-0.4,1.2-1,1.4-1.8c-0.6,0.4-1.3,0.6-2.1,0.8c-0.6-0.6-1.4-1-2.4-1
			c-1.8,0-3.2,1.4-3.2,3.2c0,0.3,0,0.5,0.1,0.7c-2.7-0.1-5.1-1.4-6.7-3.4c-0.3,0.5-0.4,1-0.4,1.6c0,1.1,0.6,2.1,1.4,2.7
			c-0.5,0-1-0.2-1.5-0.4l0,0c0,1.6,1.1,2.9,2.6,3.2c-0.3,0.1-0.6,0.1-0.9,0.1c-0.2,0-0.4,0-0.6-0.1c0.4,1.3,1.6,2.2,3,2.2
			c-1.1,0.9-2.5,1.4-4,1.4c-0.3,0-0.5,0-0.8,0c1.4,0.9,3.1,1.5,5,1.5c5.9,0,9.2-4.9,9.2-9.2c0-0.1,0-0.3,0-0.4
			C77.8,86.6,78.5,86,78.8,85.4z"/>
	</g>
</g>
<g>
	<circle cx="97.7" cy="90.1" r="13.5"/>
	<g class="st15">
		<path id="Triangle_3_" class="st22" d="M92,98.1l15.3-7.9l-15.3-8V98.1z"/>
		<path id="The_Sharpness_4_" class="st23" d="M92,82.2l13.4,9l1.9-1L92,82.2z"/>
	</g>
	<path class="st24" d="M104.1,82.7H91.3c-0.6,0-1.1,0.5-1.1,1.1v12.9c0,0.6,0.5,1.1,1.1,1.1h12.8c0.6,0,1.1-0.5,1.1-1.1V83.8
		C105.2,83.2,104.7,82.7,104.1,82.7 M92.5,88.4h2.2v7.2h-2.2V88.4z M93.6,87.4c-0.7,0-1.3-0.6-1.3-1.3c0-0.7,0.6-1.3,1.3-1.3
		s1.3,0.6,1.3,1.3C94.8,86.8,94.2,87.4,93.6,87.4z M103.1,95.6h-2.2v-3.5c0-0.8,0-1.9-1.2-1.9s-1.3,0.9-1.3,1.9v3.6h-2.2v-7.2h2.1v1
		l0,0c0.3-0.6,1-1.2,2.1-1.2c2.3,0,2.7,1.5,2.7,3.4V95.6z"/>
	<rect x="91" y="86.5" class="st1" width="3" height="9.7"/>
	<circle class="st1" cx="92.6" cy="83.5" r="1.7"/>
	<path class="st1" d="M105.3,96.2h-3v-4.7c0-1.1,0-2.6-1.6-2.6c-1.6,0-1.8,1.2-1.8,2.5v4.8h-3v-9.7h2.9v1.3l0,0
		c0.4-0.8,1.4-1.6,2.9-1.6c3.1,0,3.6,2,3.6,4.6L105.3,96.2z"/>
</g>
<g>
	<rect x="202.4" y="60.1" class="st25" width="6.4" height="6.6"/>
	<rect x="202.4" y="68.8" class="st25" width="6.4" height="6.6"/>
	<rect x="193.1" y="60.1" class="st25" width="6.6" height="6.6"/>
	<rect x="193.1" y="68.8" class="st25" width="6.6" height="6.6"/>
</g>
<g>
	<rect x="219.6" y="60.7" class="st25" width="7.4" height="3.8"/>
	<rect x="228.9" y="60.7" class="st25" width="7.6" height="3.8"/>
	<rect x="219.6" y="71.5" class="st25" width="7.4" height="3.8"/>
	<rect x="228.9" y="71.5" class="st25" width="7.6" height="3.8"/>
	<rect x="219.6" y="66.1" class="st25" width="7.4" height="3.8"/>
	<rect x="228.9" y="66.1" class="st25" width="7.6" height="3.8"/>
</g>
<g>
	<rect x="219.6" y="78.2" class="st25" width="16.8" height="3.8"/>
	<rect x="219.6" y="89.8" class="st25" width="16.8" height="3.8"/>
	<rect x="219.6" y="84.1" class="st25" width="16.8" height="3.7"/>
</g>
<g>
	<circle class="st26" cx="201.1" cy="86" r="5.8"/>
	<polygon class="st27" points="208.6,78.9 193.5,78.9 199.6,87.3 199.6,94.1 202.6,92.6 202.6,87 	"/>
</g>
<polygon class="st28" points="3,103.7 3,121.7 18.6,131.4 34.2,121.7 34.2,103.7 "/>
<polygon class="st29" points="38.5,103.7 38.5,121.7 54.1,131.4 69.7,121.7 69.7,103.7 "/>
<g>
	<path class="st0" d="M137.2,93.4c-0.1,0-1.4,0-2.5-0.4c-1-0.4-1.6-1-1.6-1l-0.6-0.5l-0.6,0.5c0,0-0.6,0.6-1.6,1
		c-1.1,0.4-2.4,0.4-2.5,0.4h-0.4v0.3c0,0.2,0.1,3.9,1,5.6c1.6,2.9,3.5,3.5,3.5,3.5l0.6,0.2l0.6-0.2c0.1,0,1.9-0.6,3.5-3.5
		c0.9-1.7,1-5.4,1-5.6v-0.3H137.2z M133.4,98.4L133.4,98.4l-1.3,1.3l-1.3-1.3l-1.5-1.5l1.3-1.3l1.5,1.5l2.5-2.5l1.3,1.3L133.4,98.4z
		"/>
	<path d="M128.6,101.1h-7.3l0.1-1.2c0.2-1,0.5-1.2,1.5-1.4l1.6-0.3c0.9-0.2,1.1-0.6,1.3-1.2l0.1-0.3c0.2-0.6-0.3-1-0.6-1.3l-0.1-0.1
		c-0.1-0.1-0.2-0.2-0.3-0.3c-0.4-0.4-0.7-0.7-1-2.8c0-0.1-0.1-1.4-0.1-1.4c0.1-2.2,1.6-2.7,2.9-2.7c1.3,0,2.8,0.5,2.9,2.7
		c0,0.1-0.1,1.3-0.1,1.3c0,0,0,0.1,0,0.1c0.1,0,0.3-0.1,0.4-0.1c0.3-0.1,0.5-0.2,0.7-0.4c0-0.4,0.1-0.9,0.1-0.9
		c-0.1-2.3-1.6-3.7-3.9-3.7c-2.3,0-3.8,1.4-3.9,3.7c0,0,0.1,1.2,0.1,1.4c0.3,2.3,0.7,2.8,1.3,3.4c0.1,0.1,0.2,0.2,0.3,0.3l0.2,0.2
		c0.1,0.1,0.2,0.2,0.3,0.3l-0.1,0.1c-0.2,0.4-0.2,0.5-0.6,0.6l-1.6,0.3c-1.2,0.2-1.9,0.6-2.3,2.2l-0.3,2.4h9.2
		C129.2,101.8,128.9,101.5,128.6,101.1z"/>
</g>
<g>
	<g>
		<path class="st30" d="M168.3,92.1v10.2c0,0-1.9-0.2-3.4-3c-0.9-1.6-1-5.6-1-5.6s1.4,0.3,2.6-0.3C167.6,93,168.3,92.1,168.3,92.1z"
			/>
		<g>
			<path d="M168.6,92.4L168.6,92.4c0.1,0.1,0.7,0.7,1.9,1.2c0.9,0.4,1.9,0.5,2.4,0.5c0,1.1-0.2,3.6-0.9,4.8c-1.3,2.3-2.7,2.9-3,3.1
				h0l-0.1,0l-0.3,0.1l-0.3-0.1l-0.1,0h0c-0.3-0.1-1.7-0.8-3-3.1c-0.6-1.1-0.8-3.7-0.9-4.8c0.5,0,1.5-0.1,2.4-0.5
				C167.9,93.2,168.5,92.5,168.6,92.4L168.6,92.4L168.6,92.4 M168.6,91.4L168,92c0,0-0.6,0.6-1.6,1c-1.1,0.4-2.4,0.4-2.5,0.4h-0.4
				v0.3c0,0.2,0.1,3.9,1,5.6c1.6,2.9,3.5,3.5,3.5,3.5l0.6,0.2l0.6-0.2c0.1,0,1.9-0.6,3.5-3.5c0.9-1.7,1-5.4,1-5.6v-0.3h-0.4
				c-0.1,0-1.4,0-2.5-0.4c-1-0.4-1.6-1-1.6-1L168.6,91.4L168.6,91.4z"/>
		</g>
		<g class="st31">
			<path d="M168.6,91.4l0.6,0.5c0,0,0.6,0.6,1.6,1c1.1,0.4,2.4,0.4,2.5,0.4h0.4v0.3c0,0.2-0.1,3.9-1,5.6c-1.6,2.9-3.5,3.5-3.5,3.5
				l-0.6,0.2V91.4z"/>
		</g>
	</g>
	<path d="M164.7,101.1h-7.3l0.1-1.2c0.2-1,0.5-1.2,1.5-1.4l1.6-0.3c0.9-0.2,1.1-0.6,1.3-1.2l0.1-0.3c0.2-0.6-0.3-1-0.6-1.3l-0.1-0.1
		c-0.1-0.1-0.2-0.2-0.3-0.3c-0.4-0.4-0.7-0.7-1-2.8c0-0.1-0.1-1.4-0.1-1.4c0.1-2.2,1.6-2.7,2.9-2.7c1.3,0,2.8,0.5,2.9,2.7
		c0,0.1-0.1,1.3-0.1,1.3c0,0,0,0.1,0,0.1c0.1,0,0.3-0.1,0.4-0.1c0.3-0.1,0.5-0.2,0.7-0.4c0-0.4,0.1-0.9,0.1-0.9
		c-0.1-2.3-1.6-3.7-3.9-3.7c-2.3,0-3.8,1.4-3.9,3.7c0,0,0.1,1.2,0.1,1.4c0.3,2.3,0.7,2.8,1.3,3.4c0.1,0.1,0.2,0.2,0.3,0.3l0.2,0.2
		c0.1,0.1,0.2,0.2,0.3,0.3l-0.1,0.1c-0.2,0.4-0.2,0.5-0.6,0.6l-1.6,0.3c-1.2,0.2-1.9,0.6-2.3,2.2l-0.3,2.4h9.2
		C165.3,101.8,165,101.5,164.7,101.1z"/>
</g>
<g>
	<g>
		<path d="M145.9,101.1h-6.5l0.1-1.2c0.2-1,0.5-1.2,1.5-1.4l1.6-0.3c0.8-0.2,1-0.5,1.3-1c0.2-0.6,0.2-0.8,0-1.2
			c0-0.1-0.1-0.1-0.2-0.2c-0.1-0.1-0.2-0.2-0.3-0.3l-0.1-0.1c-0.1-0.1-0.2-0.2-0.3-0.3c-0.4-0.4-0.7-0.7-1-2.8
			c0-0.1-0.1-1.4-0.1-1.4c0.1-2.2,1.6-2.7,2.9-2.7c1.3,0,2.8,0.5,2.9,2.7c0,0.1-0.1,1.3-0.1,1.3c-0.3,1.8-0.6,2.3-0.9,2.7l0.9-0.1
			l0.9-2c0-0.2,0.1-0.3,0.1-0.5c0,0,0.1-1.3,0.1-1.5c-0.1-2.3-1.6-3.7-3.9-3.7c-2.3,0-3.8,1.4-3.9,3.7c0,0,0.1,1.2,0.1,1.4
			c0.3,2.3,0.7,2.8,1.3,3.4c0.1,0.1,0.2,0.2,0.3,0.3l0.2,0.2c0.1,0.1,0.2,0.2,0.3,0.3l-0.1,0.1c-0.2,0.4-0.2,0.5-0.6,0.6l-1.6,0.3
			c-1.2,0.2-1.9,0.6-2.3,2.2l-0.3,2.4h7.4L145.9,101.1z"/>
	</g>
	<g id="Page-1">
		<g id="Core" transform="translate(-296.000000, -422.000000)">
			<g id="star" transform="translate(296.000000, 422.500000)">
				<path id="Shape" d="M150.1,100.5l3,1.8c0.3,0.2,0.7-0.1,0.6-0.5l-0.8-3.4l2.6-2.3c0.3-0.2,0.1-0.7-0.2-0.8l-3.5-0.3l-1.4-3.2
					c-0.1-0.3-0.6-0.3-0.8,0l-1.4,3.2l-3.5,0.3c-0.4,0-0.5,0.5-0.2,0.8l2.6,2.3l-0.8,3.4c-0.1,0.4,0.3,0.7,0.6,0.5L150.1,100.5z"/>
			</g>
		</g>
	</g>
</g>
<g id="Page-1_1_">
	<g id="Core_1_" transform="translate(-296.000000, -422.000000)">
		<g id="star_1_" transform="translate(296.000000, 422.500000)">
			<path id="Shape_1_" d="M201,108.9l4.6,2.7c0.5,0.3,1.1-0.1,1-0.7l-1.2-5.2l4-3.5c0.4-0.4,0.2-1.1-0.4-1.1l-5.3-0.5l-2.1-4.9
				c-0.2-0.5-1-0.5-1.2,0l-2.1,4.9l-5.3,0.5c-0.6,0-0.8,0.8-0.4,1.1l4,3.5l-1.2,5.2c-0.1,0.6,0.5,1,1,0.7L201,108.9z"/>
		</g>
	</g>
</g>
<g>
	<polyline class="st20" points="221.6,110.3 228.1,103.8 221.5,97.3 	"/>
	<polyline class="st20" points="234.5,97.3 228,103.8 234.6,110.3 	"/>
</g>
<g>
	<path class="st19" d="M204.5,129.5h-7c-0.7,0-1.3-0.6-1.3-1.3v-10.6h9.5v10.6C205.8,129,205.2,129.5,204.5,129.5z"/>
	<g>
		<line class="st32" x1="194.8" y1="115.9" x2="207.2" y2="115.9"/>
		<line class="st19" x1="201" y1="115.5" x2="201" y2="114.5"/>
		<line class="st19" x1="199.8" y1="114.1" x2="202.3" y2="114.1"/>
	</g>
	<line class="st25" x1="201" y1="119.2" x2="201" y2="127.6"/>
	<line class="st25" x1="198.7" y1="119.2" x2="198.7" y2="127.6"/>
	<line class="st25" x1="203.3" y1="119.2" x2="203.3" y2="127.6"/>
</g>
<g>
	<circle cx="182.9" cy="100.2" r="0.8"/>
	<g class="st15">
		<path class="st16" d="M187.9,91.3h0.9c0-1.6-1.3-2.8-2.8-2.8v0.8C187.1,89.3,187.9,90.2,187.9,91.3z"/>
		<path class="st16" d="M189.6,91.1h0.9c0-2.4-1.9-4.3-4.3-4.3v0.9C188.1,87.7,189.6,89.2,189.6,91.1z"/>
	</g>
	<path d="M187.2,97.5h-1l0,3.9c0,0.1,0,0.2-0.1,0.3c-0.1,0.1-0.3,0.2-0.5,0.2h-5.8c-0.3,0-0.6-0.3-0.6-0.6v-12
		c0-0.3,0.3-0.6,0.6-0.6h5.8c0.3,0,0.6,0.3,0.6,0.6l0,0.6h1v-0.6c0-0.9-0.7-1.6-1.6-1.6h-5.8c-0.9,0-1.6,0.7-1.6,1.6v12
		c0,0.9,0.7,1.6,1.6,1.6h5.8c0.5,0,1-0.2,1.3-0.6c0.3-0.3,0.4-0.7,0.3-1V97.5z"/>
	<path d="M189.3,90.8h-5.7c-0.9,0-1.6,0.7-1.6,1.6v2.8c0,0.9,0.7,1.6,1.6,1.6h0.4v1.7l1.8-1.7h3.5c0.9,0,1.6-0.7,1.6-1.6v-2.8
		C190.9,91.5,190.1,90.8,189.3,90.8z"/>
</g>
<g>
	<path d="M226.5,130.4l-1.1-2.5c-0.5-0.2-1.1-0.5-1.5-0.9l-2.7,0.3l-1.4-2.5l1.6-2.2c-0.1-0.3-0.1-0.6-0.1-0.9c0-0.3,0-0.6,0.1-0.9
		l-1.6-2.2l1.4-2.5l2.7,0.3c0.5-0.4,1-0.7,1.6-0.9l1.1-2.5l2.9,0l1.1,2.5c0.6,0.2,1.1,0.6,1.6,1l2.7-0.3l1.4,2.5l-1.6,2.2
		c0,0.3,0.1,0.6,0.1,0.8c0,0.3,0,0.6-0.1,0.9l0,0l1.6,2.2l-1.4,2.5l-2.7-0.3c-0.5,0.4-1,0.7-1.6,0.9l-1.1,2.5L226.5,130.4z
		 M228,117.3c-2.4,0-4.4,2-4.4,4.4s2,4.4,4.4,4.4s4.4-2,4.4-4.4S230.4,117.3,228,117.3z"/>
	<path class="st1" d="M229.3,113.3l1,2.3l0,0.1c0.7,0.3,1.3,0.6,1.8,1.1l0,0l2.5-0.3l1.3,2.2l-1.5,2.1l-0.1,0c0.1,0.3,0.1,0.7,0.1,1
		c0,0.4,0,0.7-0.1,1l0.1,0l1.5,2.1l-1.3,2.2l-2.5-0.3l-0.1-0.1c-0.5,0.5-1.2,0.8-1.8,1.1l0,0.1l-1,2.3l-2.5,0l-1-2.4l0-0.1
		c-0.7-0.3-1.3-0.6-1.8-1l-0.1,0.1l-2.5,0.3l-1.3-2.2l1.5-2.1l0.1,0c-0.1-0.3-0.1-0.7-0.1-1.1c0-0.4,0-0.7,0.1-1l0,0l-1.5-2.1
		l1.3-2.2l2.5,0.3l0,0c0.5-0.4,1.1-0.8,1.8-1.1l0,0l1-2.4L229.3,113.3 M228,126.4c2.6,0,4.7-2.1,4.7-4.7s-2.1-4.7-4.7-4.7
		c-2.6,0-4.7,2.1-4.7,4.7S225.4,126.4,228,126.4 M229.6,112.8l-0.3,0l-2.5,0l-0.3,0l-0.1,0.3l-1,2.2c-0.5,0.2-1,0.5-1.5,0.9
		l-2.4-0.3l-0.3,0l-0.2,0.3l-1.3,2.2l-0.2,0.3l0.2,0.3l1.4,1.9c0,0.3-0.1,0.6-0.1,0.9c0,0.3,0,0.6,0.1,0.9l-1.5,2l-0.2,0.3l0.2,0.3
		l1.3,2.2l0.2,0.3l0.3,0l2.5-0.3c0.4,0.3,0.9,0.6,1.4,0.8l1,2.3l0.1,0.3l0.3,0l2.5,0l0.3,0l0.1-0.3l1-2.3c0.5-0.2,1-0.5,1.5-0.9
		l2.4,0.3l0.3,0l0.2-0.3l1.3-2.2l0.2-0.3l-0.2-0.3l-1.5-2c0-0.3,0.1-0.5,0.1-0.8c0-0.3,0-0.5-0.1-0.8l1.5-2l0.2-0.3l-0.2-0.3
		l-1.3-2.2l-0.2-0.3l-0.3,0l-2.4,0.3c-0.5-0.4-1-0.7-1.5-0.9l-1-2.2L229.6,112.8L229.6,112.8z M228,125.9c-2.3,0-4.2-1.9-4.2-4.2
		c0-2.3,1.9-4.2,4.2-4.2c2.3,0,4.2,1.9,4.2,4.2C232.2,124,230.3,125.9,228,125.9L228,125.9z"/>
</g>
</svg>
