<?xml version="1.0" encoding="utf-8"?>
<!-- Generator: Adobe Illustrator 19.1.1, SVG Export Plug-In . SVG Version: 6.00 Build 0)  -->
<svg version="1.1" id="Layer_1" xmlns="http://www.w3.org/2000/svg" xmlns:xlink="http://www.w3.org/1999/xlink" x="0px" y="0px"
	 viewBox="0 0 219 219" style="enable-background:new 0 0 219 219;" xml:space="preserve">
<style type="text/css">
	.st0{display:none;}
	.st1{display:inline;opacity:0.2;}
	.st2{display:inline;}
	.st3{fill:#DED3D5;}
	.st4{fill:#FFFFFF;}
	.st5{opacity:0.2;}
	.st6{fill:#8FC73E;stroke:#FFFFFF;stroke-width:4;stroke-miterlimit:10;}
</style>
<g class="st0">
	<rect x="52.9" y="51.4" class="st1" width="63.9" height="51"/>
	<g class="st2">
		<rect x="55.4" y="53.9" class="st3" width="58.9" height="46"/>
		<path class="st4" d="M112.3,55.9v42H57.4v-42H112.3 M116.3,51.9H53.4v50h62.9V51.9L116.3,51.9z"/>
	</g>
</g>
<g>
	
		<rect x="60.3" y="42.6" transform="matrix(-0.1692 -0.9856 0.9856 -0.1692 26.2969 193.9432)" class="st5" width="69.2" height="86.6"/>
	<g>
		
			<rect x="54.2" y="54" transform="matrix(-0.9856 0.1692 -0.1692 -0.9856 202.9467 154.4823)" class="st3" width="81.3" height="63.8"/>
		<path class="st4" d="M127.9,49.9l10.1,58.9l-76.2,13.1L51.7,63L127.9,49.9 M131.2,45.3L47.1,59.7l11.5,66.8l84.1-14.4L131.2,45.3
			L131.2,45.3z"/>
	</g>
</g>
<g>
	<rect x="88.8" y="48.6" transform="matrix(0.197 -0.9804 0.9804 0.197 8.9268 194.7719)" class="st5" width="69.2" height="86.6"/>
	<g>
		
			<rect x="91.5" y="51.3" transform="matrix(-0.197 0.9804 -0.9804 -0.197 237.8127 -10.9)" class="st3" width="63.8" height="81.3"/>
		<path class="st4" d="M91.4,55l75.8,15.2l-11.8,58.6l-75.8-15.2L91.4,55 M88.2,50.3l-13.4,66.5l83.6,16.8l13.4-66.5L88.2,50.3
			L88.2,50.3z"/>
	</g>
</g>
<g>
	<path class="st5" d="M109,91.9c-16.6,0-30.2,13.5-30.2,30.2s13.5,30.2,30.2,30.2s30.2-13.5,30.2-30.2S125.6,91.9,109,91.9z"/>
	<g>
		<circle class="st6" cx="109" cy="122.1" r="26.2"/>
	</g>
	<rect x="105.3" y="104.4" class="st4" width="7.5" height="35.4"/>
	<rect x="91.3" y="118.4" class="st4" width="35.4" height="7.5"/>
</g>
</svg>
