<?xml version="1.0" encoding="utf-8"?>
<!-- Generator: Adobe Illustrator 19.1.1, SVG Export Plug-In . SVG Version: 6.00 Build 0)  -->
<svg version="1.1" id="Layer_1" xmlns="http://www.w3.org/2000/svg" xmlns:xlink="http://www.w3.org/1999/xlink" x="0px" y="0px"
	 viewBox="-118 354.4 373.2 85.6" style="enable-background:new -118 354.4 373.2 85.6;" xml:space="preserve">
<style type="text/css">
	.st0{display:none;}
	.st1{display:inline;}
	.st2{fill:#ED7625;}
	.st3{fill:#1C75BC;}
	.st4{fill:#FC6000;}
	.st5{fill:#2266CC;}
</style>
<g id="Layer_1_1_" class="st0">
	<g class="st1">
		<path class="st2" d="M-225.4,730.4h9.7v34.1h-9.7V730.4z"/>
		<path class="st2" d="M-211.7,734.2h1c4.1,0,8.3-0.8,11.9-2.9c1.7-1,3.9-1.5,6.8-1.5c7.3,0,11.6,4.8,11.6,12.6v22.1h-9.7v-19
			c0-4.6-2.2-6.9-5.8-6.9c-3.7,0-6,2.4-6,6.9v19h-9.7L-211.7,734.2L-211.7,734.2z"/>
		<path class="st2" d="M-178.8,747.5L-178.8,747.5c0-11.5,7.4-17.7,15.5-17.7c5.1,0,7.9,0.9,10.6,2.9v-14.6h9.7v42.6h-1
			c-4.4,0-8.6,1.2-12.5,3.2c-1.4,0.7-3.4,1.2-6.8,1.2C-171.2,765.1-178.8,758.9-178.8,747.5z M-152.5,747.5L-152.5,747.5
			c0-5.8-3.8-9.5-8.3-9.5s-8.3,3.7-8.3,9.4v0.1c0,5.7,3.8,9.4,8.3,9.4S-152.5,753.2-152.5,747.5z"/>
		<path class="st2" d="M-141.1,747.7L-141.1,747.7c0-9.9,7.9-17.8,18.5-17.8s18.4,7.8,18.4,17.6v0.1c0,9.8-7.9,17.7-18.5,17.7
			C-133.2,765.3-141.1,757.5-141.1,747.7z M-113.7,747.7L-113.7,747.7c0-5.1-3.6-9.5-9-9.5c-5.5,0-8.8,4.3-8.8,9.3v0.1
			c0,5,3.6,9.4,9,9.4C-117,756.9-113.7,752.7-113.7,747.7z"/>
	</g>
	<g class="st1">
		<path class="st3" d="M-102.3,734.2h2.3c4.2,0,8.2-1.2,11.9-3.1c1.6-0.8,3.3-1.3,5.5-1.3c7.3,0,11.6,4.8,11.6,12.6v22.1h-9.7v-19
			c0-4.6-2.2-6.9-5.8-6.9c-3.7,0-6,2.4-6,6.9v19h-9.7v-30.3L-102.3,734.2L-102.3,734.2z"/>
		<path class="st3" d="M-69.4,747.7L-69.4,747.7c0-9.8,6.9-17.8,16.8-17.8c11.4,0,16.6,8.8,16.6,18.5c0,0.8-0.1,1.7-0.1,2.5h-23.7
			c1,4.4,4,6.7,8.3,6.7c3.2,0,4.6-1.4,7.3-3.9l5.5,4.9c-3.2,3.9-6.8,6.8-13,6.8C-61.9,765.3-69.4,758.1-69.4,747.7z M-45.4,744
			c-0.6-4.3-3.1-6.4-7.2-6.4c-4,0-6.6,2-7.4,6.4H-45.4z"/>
		<path class="st3" d="M24.9,730.4l-5.6,20.7l-6.5-20.8H4.5l-6.4,20.8l-5.5-20.7h-15.3v-12.3l-9.7,6.1v6.2H-37v8.3h4.6v16.1
			c0,7.9,4,10.2,9.9,10.2c3.2,0,7.9-1.6,9.9-2.8l-2.5-7.4c-1.4,0.8-2.9,1.7-4.6,1.7c-2.2,0-3.1-1.1-3.1-3.3v-14.5h8l8,26.1h8.6
			l6.7-20.9l6.5,20.9h8.7l10.6-34.3h-9.4L24.9,730.4L24.9,730.4z"/>
		<path class="st3" d="M32,747.7L32,747.7c0-9.9,7.9-17.8,18.5-17.8s18.4,7.8,18.4,17.6v0.1c0,9.8-7.9,17.7-18.5,17.7
			S32,757.5,32,747.7z M59.4,747.7L59.4,747.7c0-5.1-3.6-9.5-9-9.5c-5.5,0-8.8,4.3-8.8,9.3v0.1c0,5,3.6,9.4,9,9.4
			C56.1,756.9,59.4,752.7,59.4,747.7z"/>
		<path class="st3" d="M70.8,737.5H72c4,0,8.1-4.1,11.7-6.1c1.9-1,4.3-1.7,7.6-1.7v10.1h-0.5c-6.4,0-10.4,3.9-10.4,12v12.6h-9.7
			L70.8,737.5L70.8,737.5z"/>
		<path class="st3" d="M93.6,718.1h9.7v24.7l11.3-12.4h11.6l-13,13.4l13.4,20.7h-11.1l-8.9-13.9l-3.4,3.6v10.4h-9.7L93.6,718.1
			L93.6,718.1L93.6,718.1z"/>
	</g>
	<g class="st1">
		<path class="st2" d="M72.4,781.7h3.2v3.1h-3.2V781.7z"/>
		<path class="st2" d="M75.9,778L75.9,778c0-3.9,2.9-7.1,7.2-7.1c2.6,0,4.1,0.9,5.4,2.1l-1.9,2.2c-1.1-1-2.1-1.5-3.5-1.5
			c-2.3,0-4,1.9-4,4.3l0,0c0,2.4,1.6,4.3,4,4.3c1.6,0,2.5-0.6,3.6-1.6l1.9,1.9c-1.4,1.5-3,2.5-5.6,2.5C78.9,785.1,75.9,782,75.9,778
			z"/>
		<path class="st2" d="M88.8,778L88.8,778c0-3.9,3.1-7.1,7.3-7.1s7.3,3.2,7.3,7.1l0,0c0,3.9-3.1,7.1-7.3,7.1
			C91.8,785.1,88.8,781.9,88.8,778z M100.2,778L100.2,778c0-2.4-1.7-4.4-4.2-4.4c-2.4,0-4.1,1.9-4.1,4.3l0,0c0,2.4,1.7,4.3,4.2,4.3
			C98.5,782.3,100.2,780.4,100.2,778z"/>
		<path class="st2" d="M103.7,781.7h3.2v3.1h-3.2V781.7z"/>
		<path class="st2" d="M108.7,771.1h3v13.7h-3V771.1z"/>
		<path class="st2" d="M113.9,771.1h5.4c4.3,0,7.3,3,7.3,6.8l0,0c0,3.9-3,6.9-7.3,6.9h-5.4V771.1z M119.3,782.1
			c2.5,0,4.1-1.7,4.1-4.1l0,0c0-2.4-1.7-4.1-4.1-4.1H117v8.3L119.3,782.1L119.3,782.1z"/>
	</g>
</g>
<g id="Layer_2">
	<g>
		<path class="st4" d="M-107.4,381.4h9.7v34.1h-9.7V381.4z"/>
		<path class="st4" d="M-93.7,385.2h1c4.1,0,8.3-0.8,11.9-2.9c1.7-1,3.9-1.5,6.8-1.5c7.3,0,11.6,4.8,11.6,12.6v22.1h-9.7v-19
			c0-4.6-2.2-6.9-5.8-6.9c-3.7,0-6,2.4-6,6.9v19h-9.7L-93.7,385.2L-93.7,385.2z"/>
		<path class="st4" d="M-60.8,398.5v-0.1c0-11.4,7.4-17.6,15.5-17.6c5.1,0,7.9,0.9,10.6,2.9v-14.6h9.7v42.6h-1
			c-4.4,0-8.6,1.2-12.5,3.2c-1.4,0.7-3.4,1.2-6.8,1.2C-53.2,416.1-60.8,409.9-60.8,398.5z M-34.5,398.5v-0.1c0-5.7-3.8-9.4-8.3-9.4
			s-8.3,3.7-8.3,9.4v0.1c0,5.7,3.8,9.4,8.3,9.4S-34.5,404.2-34.5,398.5z"/>
		<path class="st4" d="M-23.1,398.7L-23.1,398.7c0-9.9,7.9-17.8,18.5-17.8s18.4,7.8,18.4,17.6v0.1c0,9.8-7.9,17.7-18.5,17.7
			C-15.2,416.3-23.1,408.5-23.1,398.7z M4.3,398.7L4.3,398.7c0-5.1-3.6-9.5-9-9.5c-5.5,0-8.8,4.3-8.8,9.3v0.1c0,5,3.6,9.4,9,9.4
			C1,407.9,4.3,403.7,4.3,398.7z"/>
	</g>
	<g>
		<path class="st5" d="M15.7,385.2H18c4.2,0,8.2-1.2,11.9-3.1c1.6-0.8,3.3-1.3,5.5-1.3c7.3,0,11.6,4.8,11.6,12.6v22.1h-9.7v-19
			c0-4.6-2.2-6.9-5.8-6.9c-3.7,0-6,2.4-6,6.9v19h-9.7v-30.3L15.7,385.2L15.7,385.2z"/>
		<path class="st5" d="M48.6,398.7L48.6,398.7c0-9.8,6.9-17.8,16.8-17.8c11.4,0,16.6,8.8,16.6,18.5c0,0.8-0.1,1.7-0.1,2.5H58.2
			c1,4.4,4,6.7,8.3,6.7c3.2,0,4.6-1.4,7.3-3.9l5.5,4.9c-3.2,3.9-6.8,6.8-13,6.8C56.1,416.3,48.6,409.1,48.6,398.7z M72.6,395
			c-0.6-4.3-3.1-6.4-7.2-6.4c-4,0-6.6,2-7.4,6.4H72.6z"/>
		<path class="st5" d="M142.9,381.4l-5.6,20.7l-6.5-20.8h-8.3l-6.4,20.8l-5.5-20.7H95.3v-12.3l-9.7,6.1v6.2H81v8.3h4.6v16.1
			c0,7.9,4,10.2,9.9,10.2c3.2,0,7.9-1.6,9.9-2.8l-2.5-7.4c-1.4,0.8-2.9,1.7-4.6,1.7c-2.2,0-3.1-1.1-3.1-3.3v-14.5h8l8,26.1h8.6
			l6.7-20.9l6.5,20.9h8.7l10.6-34.3h-9.4L142.9,381.4L142.9,381.4z"/>
		<path class="st5" d="M150,398.7L150,398.7c0-9.9,7.9-17.8,18.5-17.8s18.4,7.8,18.4,17.6v0.1c0,9.8-7.9,17.7-18.5,17.7
			S150,408.5,150,398.7z M177.4,398.7L177.4,398.7c0-5.1-3.6-9.5-9-9.5c-5.5,0-8.8,4.3-8.8,9.3v0.1c0,5,3.6,9.4,9,9.4
			C174.1,407.9,177.4,403.7,177.4,398.7z"/>
		<path class="st5" d="M188.8,388.5h1.2c4,0,8.1-4.1,11.7-6.1c1.9-1,4.3-1.7,7.6-1.7v10.1h-0.5c-6.4,0-10.4,3.9-10.4,12v12.6h-9.7
			L188.8,388.5L188.8,388.5z"/>
		<path class="st5" d="M211.6,369.1h9.7v24.7l11.3-12.4h11.6l-13,13.4l13.4,20.7h-11.1l-8.9-13.9l-3.4,3.6v10.4h-9.7L211.6,369.1
			L211.6,369.1L211.6,369.1z"/>
	</g>
	<g>
		<path class="st4" d="M190.4,432.7h3.2v3.1h-3.2V432.7z"/>
		<path class="st4" d="M193.9,429L193.9,429c0-3.9,2.9-7.1,7.2-7.1c2.6,0,4.1,0.9,5.4,2.1l-1.9,2.2c-1.1-1-2.1-1.5-3.5-1.5
			c-2.3,0-4,1.9-4,4.3l0,0c0,2.4,1.6,4.3,4,4.3c1.6,0,2.5-0.6,3.6-1.6l1.9,1.9c-1.4,1.5-3,2.5-5.6,2.5
			C196.9,436.1,193.9,433,193.9,429z"/>
		<path class="st4" d="M206.8,429L206.8,429c0-3.9,3.1-7.1,7.3-7.1s7.3,3.2,7.3,7.1l0,0c0,3.9-3.1,7.1-7.3,7.1
			C209.8,436.1,206.8,432.9,206.8,429z M218.2,429L218.2,429c0-2.4-1.7-4.4-4.2-4.4c-2.4,0-4.1,1.9-4.1,4.3l0,0
			c0,2.4,1.7,4.3,4.2,4.3C216.5,433.3,218.2,431.4,218.2,429z"/>
		<path class="st4" d="M221.7,432.7h3.2v3.1h-3.2V432.7z"/>
		<path class="st4" d="M226.7,422.1h3v13.7h-3V422.1z"/>
		<path class="st4" d="M231.9,422.1h5.4c4.3,0,7.3,3,7.3,6.8l0,0c0,3.9-3,6.9-7.3,6.9h-5.4V422.1z M237.3,433.1
			c2.5,0,4.1-1.7,4.1-4.1l0,0c0-2.4-1.7-4.1-4.1-4.1H235v8.3L237.3,433.1L237.3,433.1z"/>
	</g>
</g>
</svg>
